\relax 
\providecommand\hyper@newdestlabel[2]{}
\providecommand\HyperFirstAtBeginDocument{\AtBeginDocument}
\HyperFirstAtBeginDocument{\ifx\hyper@anchor\@undefined
\global\let\oldcontentsline\contentsline
\gdef\contentsline#1#2#3#4{\oldcontentsline{#1}{#2}{#3}}
\global\let\oldnewlabel\newlabel
\gdef\newlabel#1#2{\newlabelxx{#1}#2}
\gdef\newlabelxx#1#2#3#4#5#6{\oldnewlabel{#1}{{#2}{#3}}}
\AtEndDocument{\ifx\hyper@anchor\@undefined
\let\contentsline\oldcontentsline
\let\newlabel\oldnewlabel
\fi}
\fi}
\global\let\hyper@last\relax 
\gdef\HyperFirstAtBeginDocument#1{#1}
\providecommand\HyField@AuxAddToFields[1]{}
\providecommand\HyField@AuxAddToCoFields[2]{}
\bibstyle{plabbrv}
\@writefile{toc}{\contentsline {chapter}{\numberline {1}Wst\IeC {\k e}p}{3}{chapter.1}}
\@writefile{lof}{\addvspace {10\p@ }}
\@writefile{lot}{\addvspace {10\p@ }}
\@writefile{toc}{\contentsline {chapter}{\numberline {2}Cel i zakres pracy}{5}{chapter.2}}
\@writefile{lof}{\addvspace {10\p@ }}
\@writefile{lot}{\addvspace {10\p@ }}
\@writefile{toc}{\contentsline {chapter}{\numberline {3}Analiza problemu}{7}{chapter.3}}
\@writefile{lof}{\addvspace {10\p@ }}
\@writefile{lot}{\addvspace {10\p@ }}
\@writefile{toc}{\contentsline {section}{\numberline {3.1}Zastosowanie urz\IeC {\k a}dzenia}{7}{section.3.1}}
\@writefile{toc}{\contentsline {section}{\numberline {3.2}Optyczne sensory odleg\IeC {\l }o\IeC {\'s}ci}{7}{section.3.2}}
\@writefile{lof}{\contentsline {figure}{\numberline {3.1}{\ignorespaces Pomiar nat\IeC {\k e}\IeC {\.z}enia odbitego \IeC {\'s}wiat\IeC {\l }a}}{8}{figure.3.1}}
\newlabel{fig:PomiarNatezenie}{{3.1}{8}{Pomiar natężenia odbitego światła}{figure.3.1}{}}
\@writefile{lof}{\contentsline {figure}{\numberline {3.2}{\ignorespaces Metoda triangulacji}}{8}{figure.3.2}}
\newlabel{fig:PomiarTriangulacja}{{3.2}{8}{Metoda triangulacji}{figure.3.2}{}}
\@writefile{lof}{\contentsline {figure}{\numberline {3.3}{\ignorespaces Pomiar czasu przelotu wi\IeC {\k a}zki \IeC {\'s}wiat\IeC {\l }a}}{9}{figure.3.3}}
\newlabel{fig:PomiarTOF}{{3.3}{9}{Pomiar czasu przelotu wiązki światła}{figure.3.3}{}}
\@writefile{toc}{\contentsline {section}{\numberline {3.3}Rodzaj nap\IeC {\k e}du}{10}{section.3.3}}
\@writefile{toc}{\contentsline {section}{\numberline {3.4}Pozycjonowanie}{10}{section.3.4}}
\@writefile{toc}{\contentsline {section}{\numberline {3.5}Kalibracja}{11}{section.3.5}}
\@writefile{toc}{\contentsline {section}{\numberline {3.6}Komunikacja}{12}{section.3.6}}
\@writefile{toc}{\contentsline {chapter}{\numberline {4}Koncepcja budowy stanowiska}{15}{chapter.4}}
\@writefile{lof}{\addvspace {10\p@ }}
\@writefile{lot}{\addvspace {10\p@ }}
\@writefile{lof}{\contentsline {figure}{\numberline {4.1}{\ignorespaces Schemat blokowy stanowiska pomiarowego}}{15}{figure.4.1}}
\newlabel{fig:schemat_ogolny}{{4.1}{15}{Schemat blokowy stanowiska pomiarowego}{figure.4.1}{}}
\@writefile{lof}{\contentsline {figure}{\numberline {4.2}{\ignorespaces Wizualizacja koncepcji budowy stanowiska}}{16}{figure.4.2}}
\newlabel{fig:labolatorium}{{4.2}{16}{Wizualizacja koncepcji budowy stanowiska}{figure.4.2}{}}
\citation{AutodeskInventor}
\@writefile{toc}{\contentsline {chapter}{\numberline {5}Konstrukcja mechaniczna}{17}{chapter.5}}
\@writefile{lof}{\addvspace {10\p@ }}
\@writefile{lot}{\addvspace {10\p@ }}
\@writefile{lof}{\contentsline {figure}{\numberline {5.1}{\ignorespaces Schemat konstrukcji stanowiska laboratoryjnego}}{17}{figure.5.1}}
\newlabel{fig:StanowiskoModel}{{5.1}{17}{Schemat konstrukcji stanowiska laboratoryjnego}{figure.5.1}{}}
\citation{DryLin}
\citation{IgusCAD}
\@writefile{lof}{\contentsline {figure}{\numberline {5.2}{\ignorespaces Rzeczywisty wygl\IeC {\k a}d stanowiska laboratoryjnego}}{18}{figure.5.2}}
\newlabel{fig:StanowiskoWyglad}{{5.2}{18}{Rzeczywisty wygląd stanowiska laboratoryjnego}{figure.5.2}{}}
\@writefile{toc}{\contentsline {section}{\numberline {5.1}Pozycjoner liniowy}{18}{section.5.1}}
\citation{DryLin}
\@writefile{lof}{\contentsline {figure}{\numberline {5.3}{\ignorespaces Schemat konstrukcji pozycjonera liniowego \emph  {Igus\textsuperscript  \textregistered } \emph  {DryLin\textsuperscript  \textregistered \nobreakspace  {}SLW-1040}}}{19}{figure.5.3}}
\newlabel{fig:NapedLiniowyModel}{{5.3}{19}{Schemat konstrukcji pozycjonera liniowego \emph {Igus\textsuperscript \textregistered } \emph {DryLin\textsuperscript \textregistered ~SLW-1040}}{figure.5.3}{}}
\@writefile{lof}{\contentsline {figure}{\numberline {5.4}{\ignorespaces Rzeczywisty wygl\IeC {\k a}d pozycjonera liniowego \emph  {Igus\textsuperscript  \textregistered } \emph  {DryLin\textsuperscript  \textregistered \nobreakspace  {}SLW-1040}}}{19}{figure.5.4}}
\newlabel{fig:NapedLiniowyWyglad}{{5.4}{19}{Rzeczywisty wygląd pozycjonera liniowego \emph {Igus\textsuperscript \textregistered } \emph {DryLin\textsuperscript \textregistered ~SLW-1040}}{figure.5.4}{}}
\@writefile{toc}{\contentsline {section}{\numberline {5.2}G\IeC {\l }owica pomiarowa}{19}{section.5.2}}
\newlabel{fig:katownik_model}{{5.5(a)}{20}{Subfigure 5 5.5(a)}{subfigure.5.5.1}{}}
\newlabel{sub@fig:katownik_model}{{(a)}{20}{Subfigure 5 5.5(a)\relax }{subfigure.5.5.1}{}}
\newlabel{fig:katownik_wykonanie}{{5.5(b)}{20}{Subfigure 5 5.5(b)}{subfigure.5.5.2}{}}
\newlabel{sub@fig:katownik_wykonanie}{{(b)}{20}{Subfigure 5 5.5(b)\relax }{subfigure.5.5.2}{}}
\@writefile{lof}{\contentsline {figure}{\numberline {5.5}{\ignorespaces K\IeC {\k a}townik monta\IeC {\.z}owy dla g\IeC {\l }owicy pomiarowej}}{20}{figure.5.5}}
\newlabel{fig:katownik}{{5.5}{20}{Kątownik montażowy dla głowicy pomiarowej}{figure.5.5}{}}
\@writefile{lof}{\contentsline {subfigure}{\numberline{(a)}{\ignorespaces {projekt}}}{20}{figure.5.5}}
\@writefile{lof}{\contentsline {subfigure}{\numberline{(b)}{\ignorespaces {wykonanie}}}{20}{figure.5.5}}
\newlabel{fig:wyzwalacz_model}{{5.6(a)}{20}{Subfigure 5 5.6(a)}{subfigure.5.6.1}{}}
\newlabel{sub@fig:wyzwalacz_model}{{(a)}{20}{Subfigure 5 5.6(a)\relax }{subfigure.5.6.1}{}}
\newlabel{fig:wyzwalacz_wykonanie}{{5.6(b)}{20}{Subfigure 5 5.6(b)}{subfigure.5.6.2}{}}
\newlabel{sub@fig:wyzwalacz_wykonanie}{{(b)}{20}{Subfigure 5 5.6(b)\relax }{subfigure.5.6.2}{}}
\@writefile{lof}{\contentsline {figure}{\numberline {5.6}{\ignorespaces Wyzwalacz wy\IeC {\l }\IeC {\k a}cznik\IeC {\'o}w kra\IeC {\'n}cowych}}{20}{figure.5.6}}
\newlabel{fig:wyzwalacz}{{5.6}{20}{Wyzwalacz wyłączników krańcowych}{figure.5.6}{}}
\@writefile{lof}{\contentsline {subfigure}{\numberline{(a)}{\ignorespaces {projekt}}}{20}{figure.5.6}}
\@writefile{lof}{\contentsline {subfigure}{\numberline{(b)}{\ignorespaces {wykonanie}}}{20}{figure.5.6}}
\@writefile{lof}{\contentsline {figure}{\numberline {5.7}{\ignorespaces Konstrukcja g\IeC {\l }owicy pomiarowej}}{21}{figure.5.7}}
\newlabel{fig:GlowicaPomiarowa}{{5.7}{21}{Konstrukcja głowicy pomiarowej}{figure.5.7}{}}
\@writefile{lof}{\contentsline {figure}{\numberline {5.8}{\ignorespaces P\IeC {\l }yty konstrukcyjne g\IeC {\l }owicy pomiarowej}}{22}{figure.5.8}}
\newlabel{fig:GlowicaPomiarowaPlyty}{{5.8}{22}{Płyty konstrukcyjne głowicy pomiarowej}{figure.5.8}{}}
\newlabel{fig:GlowicaPomiarowaWygladZew}{{5.9(a)}{23}{Subfigure 5 5.9(a)}{subfigure.5.9.1}{}}
\newlabel{sub@fig:GlowicaPomiarowaWygladZew}{{(a)}{23}{Subfigure 5 5.9(a)\relax }{subfigure.5.9.1}{}}
\newlabel{fig:GlowicaPomiarowaWygladWew}{{5.9(b)}{23}{Subfigure 5 5.9(b)}{subfigure.5.9.2}{}}
\newlabel{sub@fig:GlowicaPomiarowaWygladWew}{{(b)}{23}{Subfigure 5 5.9(b)\relax }{subfigure.5.9.2}{}}
\@writefile{lof}{\contentsline {figure}{\numberline {5.9}{\ignorespaces Rzeczywisty wygl\IeC {\k a}d g\IeC {\l }owicy pomiarowej}}{23}{figure.5.9}}
\newlabel{fig:GlowicaPomiarowaWyglad}{{5.9}{23}{Rzeczywisty wygląd głowicy pomiarowej}{figure.5.9}{}}
\@writefile{lof}{\contentsline {subfigure}{\numberline{(a)}{\ignorespaces {wygl\IeC {\k a}d zewn\IeC {\k e}trzny}}}{23}{figure.5.9}}
\@writefile{lof}{\contentsline {subfigure}{\numberline{(b)}{\ignorespaces {wygl\IeC {\k a}d wewn\IeC {\k e}trzny}}}{23}{figure.5.9}}
\citation{ZAPKooperacja}
\@writefile{toc}{\contentsline {section}{\numberline {5.3}Obudowa monta\IeC {\.z}owa}{24}{section.5.3}}
\@writefile{lof}{\contentsline {figure}{\numberline {5.10}{\ignorespaces Konstrukcja obudowy monta\IeC {\.z}owej}}{25}{figure.5.10}}
\newlabel{fig:Obudowa}{{5.10}{25}{Konstrukcja obudowy montażowej}{figure.5.10}{}}
\newlabel{fig:ObudowaWygladZew}{{5.11(a)}{26}{Subfigure 5 5.11(a)}{subfigure.5.11.1}{}}
\newlabel{sub@fig:ObudowaWygladZew}{{(a)}{26}{Subfigure 5 5.11(a)\relax }{subfigure.5.11.1}{}}
\newlabel{fig:ObudowaWygladWew}{{5.11(b)}{26}{Subfigure 5 5.11(b)}{subfigure.5.11.2}{}}
\newlabel{sub@fig:ObudowaWygladWew}{{(b)}{26}{Subfigure 5 5.11(b)\relax }{subfigure.5.11.2}{}}
\@writefile{lof}{\contentsline {figure}{\numberline {5.11}{\ignorespaces Rzeczywisty wygl\IeC {\k a}d obudowy monta\IeC {\.z}owej}}{26}{figure.5.11}}
\newlabel{fig:ObudowaWyglad}{{5.11}{26}{Rzeczywisty wygląd obudowy montażowej}{figure.5.11}{}}
\@writefile{lof}{\contentsline {subfigure}{\numberline{(a)}{\ignorespaces {wygl\IeC {\k a}d zewn\IeC {\k e}trzny}}}{26}{figure.5.11}}
\@writefile{lof}{\contentsline {subfigure}{\numberline{(b)}{\ignorespaces {wygl\IeC {\k a}d wewn\IeC {\k e}trzny}}}{26}{figure.5.11}}
\citation{KiCAD}
\@writefile{toc}{\contentsline {chapter}{\numberline {6}Uk\IeC {\l }ad elektroniczny}{27}{chapter.6}}
\@writefile{lof}{\addvspace {10\p@ }}
\@writefile{lot}{\addvspace {10\p@ }}
\@writefile{lof}{\contentsline {figure}{\numberline {6.1}{\ignorespaces Schemat blokowy uk\IeC {\l }adu elektronicznego stanowiska pomiarowego}}{27}{figure.6.1}}
\newlabel{fig:schemat_ogolny2}{{6.1}{27}{Schemat blokowy układu elektronicznego stanowiska pomiarowego}{figure.6.1}{}}
\citation{MeanWell}
\citation{WobitZasilacz}
\citation{WobitSterownik}
\citation{NUCLEO-F401RE}
\citation{STM32F401RE}
\citation{NUCLEO-F401RE}
\@writefile{toc}{\contentsline {section}{\numberline {6.1}Modu\IeC {\l } mikrokontrolera}{29}{section.6.1}}
\@writefile{lof}{\contentsline {figure}{\numberline {6.2}{\ignorespaces Schemat budowy modu\IeC {\l }u mikrokontrolera\nobreakspace  {}\emph  {NUCLEO-F401RE}\nobreakspace  {}\cite  {NUCLEO-F401RE}}}{29}{figure.6.2}}
\newlabel{fig:schemat_nucleo}{{6.2}{29}{Schemat budowy modułu mikrokontrolera~\emph {NUCLEO-F401RE}~\cite {NUCLEO-F401RE}}{figure.6.2}{}}
\citation{NUCLEO-F401RE}
\@writefile{lof}{\contentsline {figure}{\numberline {6.3}{\ignorespaces Opis wyprowadze\IeC {\'n} modu\IeC {\l }u mikrokontrolera\nobreakspace  {}\emph  {NUCLEO-F401RE}\nobreakspace  {}\cite  {NUCLEO-F401RE}}}{30}{figure.6.3}}
\newlabel{fig:schemat_nucleo_pinout}{{6.3}{30}{Opis wyprowadzeń modułu mikrokontrolera~\emph {NUCLEO-F401RE}~\cite {NUCLEO-F401RE}}{figure.6.3}{}}
\citation{LITEON}
\citation{ULN2803A}
\citation{MAX3232}
\@writefile{toc}{\contentsline {section}{\numberline {6.2}Modu\IeC {\l } nadrz\IeC {\k e}dny (\emph  {Master})}{31}{section.6.2}}
\@writefile{lof}{\contentsline {figure}{\numberline {6.4}{\ignorespaces Widok pogl\IeC {\k a}dowy modu\IeC {\l }u nadrz\IeC {\k e}dnego (\emph  {Master}) }}{31}{figure.6.4}}
\newlabel{fig:widok_master}{{6.4}{31}{Widok poglądowy modułu nadrzędnego (\emph {Master})}{figure.6.4}{}}
\@writefile{toc}{\contentsline {section}{\numberline {6.3}Modu\IeC {\l } podrz\IeC {\k e}dny (\emph  {Slave})}{32}{section.6.3}}
\@writefile{lof}{\contentsline {figure}{\numberline {6.5}{\ignorespaces Widok pogl\IeC {\k a}dowy modu\IeC {\l }u podrz\IeC {\k e}dnego (\emph  {Slave}) }}{32}{figure.6.5}}
\newlabel{fig:widok_slave}{{6.5}{32}{Widok poglądowy modułu podrzędnego (\emph {Slave})}{figure.6.5}{}}
\citation{SFH4550}
\citation{SFH313FA}
\citation{TSAL6400}
\citation{L-53P3BT}
\citation{MCP6024}
\@writefile{toc}{\contentsline {section}{\numberline {6.4}Modu\IeC {\l } czujnik\IeC {\'o}w \emph  {IR}}{33}{section.6.4}}
\@writefile{lof}{\contentsline {figure}{\numberline {6.6}{\ignorespaces Widok pogl\IeC {\k a}dowy modu\IeC {\l }u czujnik\IeC {\'o}w \emph  {IR}}}{33}{figure.6.6}}
\newlabel{fig:widok_ptir}{{6.6}{33}{Widok poglądowy modułu czujników \emph {IR}}{figure.6.6}{}}
\citation{GP2Y0A02YK0F}
\@writefile{toc}{\contentsline {section}{\numberline {6.5}Modu\IeC {\l } czujnik\IeC {\'o}w \emph  {TR}}{34}{section.6.5}}
\@writefile{lof}{\contentsline {figure}{\numberline {6.7}{\ignorespaces Widok pogl\IeC {\k a}dowy modu\IeC {\l }u czujnik\IeC {\'o}w \emph  {TR}}}{34}{figure.6.7}}
\newlabel{fig:widok_sharp}{{6.7}{34}{Widok poglądowy modułu czujników \emph {TR}}{figure.6.7}{}}
\citation{KAmodVL6180X}
\citation{VL6180X}
\citation{PololuVL53L0X}
\citation{VL53L0X}
\citation{SparkFunAPDS-9960}
\citation{APDS-9960}
\@writefile{toc}{\contentsline {section}{\numberline {6.6}Modu\IeC {\l } czujnik\IeC {\'o}w \emph  {TOF} }{35}{section.6.6}}
\@writefile{lof}{\contentsline {figure}{\numberline {6.8}{\ignorespaces Widok pogl\IeC {\k a}dowy modu\IeC {\l }u czujnik\IeC {\'o}w \emph  {TOF} }}{35}{figure.6.8}}
\newlabel{fig:widok_vl}{{6.8}{35}{Widok poglądowy modułu czujników \emph {TOF}}{figure.6.8}{}}
\@writefile{toc}{\contentsline {section}{\numberline {6.7}Modu\IeC {\l } \emph  {Laser}}{36}{section.6.7}}
\@writefile{lof}{\contentsline {figure}{\numberline {6.9}{\ignorespaces Widok pogl\IeC {\k a}dowy modu\IeC {\l }u \emph  {Laser}}}{36}{figure.6.9}}
\newlabel{fig:widok_laser}{{6.9}{36}{Widok poglądowy modułu \emph {Laser}}{figure.6.9}{}}
\@writefile{toc}{\contentsline {section}{\numberline {6.8}Modu\IeC {\l } \emph  {Endstop}}{36}{section.6.8}}
\@writefile{lof}{\contentsline {figure}{\numberline {6.10}{\ignorespaces Widok pogl\IeC {\k a}dowy modu\IeC {\l }u \emph  {Endstop}}}{36}{figure.6.10}}
\newlabel{fig:widok_endstop}{{6.10}{36}{Widok poglądowy modułu \emph {Endstop}}{figure.6.10}{}}
\citation{STM32CubeMX}
\citation{SW4STM32}
\citation{STMStudio}
\citation{STLinkUtility}
\citation{HAL}
\@writefile{toc}{\contentsline {chapter}{\numberline {7}Oprogramowanie wbudowane}{37}{chapter.7}}
\@writefile{lof}{\addvspace {10\p@ }}
\@writefile{lot}{\addvspace {10\p@ }}
\@writefile{toc}{\contentsline {section}{\numberline {7.1}Konfiguracja modu\IeC {\l }u \emph  {Master}}{38}{section.7.1}}
\@writefile{lot}{\contentsline {table}{\numberline {7.1}{\ignorespaces Wykaz sygna\IeC {\l }\IeC {\'o}w mikrokontrolera modu\IeC {\l }u \emph  {Master} }}{38}{table.7.1}}
\newlabel{tab:master_signals}{{7.1}{38}{Wykaz sygnałów mikrokontrolera modułu \emph {Master}}{table.7.1}{}}
\@writefile{lof}{\contentsline {figure}{\numberline {7.1}{\ignorespaces Widok konfiguracji mikrokontrolera dla modu\IeC {\l }u \emph  {Master} }}{39}{figure.7.1}}
\newlabel{fig:master_cube}{{7.1}{39}{Widok konfiguracji mikrokontrolera dla modułu \emph {Master}}{figure.7.1}{}}
\@writefile{toc}{\contentsline {section}{\numberline {7.2}Konfiguracja modu\IeC {\l }u \emph  {Slave}}{40}{section.7.2}}
\@writefile{lot}{\contentsline {table}{\numberline {7.2}{\ignorespaces Wykaz sygna\IeC {\l }\IeC {\'o}w mikrokontrolera modu\IeC {\l }u \emph  {Slave} }}{40}{table.7.2}}
\newlabel{tab:slave_signals}{{7.2}{40}{Wykaz sygnałów mikrokontrolera modułu \emph {Slave}}{table.7.2}{}}
\@writefile{lof}{\contentsline {figure}{\numberline {7.2}{\ignorespaces Widok konfiguracji mikrokontrolera dla modu\IeC {\l }u \emph  {Slave} }}{41}{figure.7.2}}
\newlabel{fig:slave_cube}{{7.2}{41}{Widok konfiguracji mikrokontrolera dla modułu \emph {Slave}}{figure.7.2}{}}
\citation{Kreczmer:2008:Protokol:Asymetryczny}
\@writefile{toc}{\contentsline {section}{\numberline {7.3}Obs\IeC {\l }uga stanowiska pomiarowego}{42}{section.7.3}}
\@writefile{lof}{\contentsline {figure}{\numberline {7.3}{\ignorespaces Diagram czynno\IeC {\'s}ci opisuj\IeC {\k a}cy spos\IeC {\'o}b obs\IeC {\l }ugi stanowiska pomiarowego}}{42}{figure.7.3}}
\newlabel{fig:diagram1}{{7.3}{42}{Diagram czynności opisujący sposób obsługi stanowiska pomiarowego}{figure.7.3}{}}
\citation{VL53L0XAPI}
\citation{VL6180XAPI}
\citation{APDS-9960API}
\@writefile{toc}{\contentsline {section}{\numberline {7.4}Obs\IeC {\l }uga g\IeC {\l }owicy pomiarowej}{43}{section.7.4}}
\@writefile{lof}{\contentsline {figure}{\numberline {7.4}{\ignorespaces Diagram czynno\IeC {\'s}ci opisuj\IeC {\k a}cy spos\IeC {\'o}b obs\IeC {\l }ugi g\IeC {\l }owicy pomiarowej}}{43}{figure.7.4}}
\newlabel{fig:diagram2}{{7.4}{43}{Diagram czynności opisujący sposób obsługi głowicy pomiarowej}{figure.7.4}{}}
\@writefile{lof}{\contentsline {figure}{\numberline {7.5}{\ignorespaces Diagram czynno\IeC {\'s}ci opisuj\IeC {\k a}cy spos\IeC {\'o}b obs\IeC {\l }ugi czujnik\IeC {\'o}w \emph  {IR} oraz \emph  {TR}}}{44}{figure.7.5}}
\newlabel{fig:diagram3}{{7.5}{44}{Diagram czynności opisujący sposób obsługi czujników \emph {IR} oraz \emph {TR}}{figure.7.5}{}}
\@writefile{toc}{\contentsline {chapter}{\numberline {8}Weryfikacja urz\IeC {\k a}dzenia i eksperymenty}{45}{chapter.8}}
\@writefile{lof}{\addvspace {10\p@ }}
\@writefile{lot}{\addvspace {10\p@ }}
\@writefile{toc}{\contentsline {section}{\numberline {8.1}Zakres i precyzja dzia\IeC {\l }ania}{45}{section.8.1}}
\@writefile{lot}{\contentsline {table}{\numberline {8.1}{\ignorespaces Zakres przemieszczenia pozycjonera g\IeC {\l }owicy pomiarowej }}{45}{table.8.1}}
\newlabel{tab:test_zakres}{{8.1}{45}{Zakres przemieszczenia pozycjonera głowicy pomiarowej}{table.8.1}{}}
\@writefile{lof}{\contentsline {figure}{\numberline {8.1}{\ignorespaces Zakres przemieszczenia pozycjonera g\IeC {\l }owicy pomiarowej}}{46}{figure.8.1}}
\newlabel{fig:stanowiskopom}{{8.1}{46}{Zakres przemieszczenia pozycjonera głowicy pomiarowej}{figure.8.1}{}}
\@writefile{toc}{\contentsline {section}{\numberline {8.2}Przebieg eksperymentu}{47}{section.8.2}}
\@writefile{lof}{\contentsline {figure}{\numberline {8.2}{\ignorespaces Obiekt pomiaru w przeprowadzonym eksperymencie}}{47}{figure.8.2}}
\newlabel{fig:test_pomiar}{{8.2}{47}{Obiekt pomiaru w przeprowadzonym eksperymencie}{figure.8.2}{}}
\@writefile{lof}{\contentsline {figure}{\numberline {8.3}{\ignorespaces Stanowisko pomiarowe wykorzystane w eksperymencie}}{47}{figure.8.3}}
\newlabel{fig:test_pomiarreal}{{8.3}{47}{Stanowisko pomiarowe wykorzystane w eksperymencie}{figure.8.3}{}}
\citation{Wnuk:2008:Pomiar:odchylenia}
\@writefile{lof}{\contentsline {figure}{\numberline {8.4}{\ignorespaces Poziom napi\IeC {\k e}cia dla czujnik\IeC {\'o}w IR}}{49}{figure.8.4}}
\newlabel{fig:wykres:1}{{8.4}{49}{Poziom napięcia dla czujników IR}{figure.8.4}{}}
\@writefile{lof}{\contentsline {figure}{\numberline {8.5}{\ignorespaces Poziom napi\IeC {\k e}cia dla czujnik\IeC {\'o}w SHARP}}{49}{figure.8.5}}
\newlabel{fig:wykres:2}{{8.5}{49}{Poziom napięcia dla czujników SHARP}{figure.8.5}{}}
\@writefile{lof}{\contentsline {figure}{\numberline {8.6}{\ignorespaces Odleg\IeC {\l }o\IeC {\'s}\IeC {\'c} dla ST VL53L0X i VL6180X (18cm)}}{51}{figure.8.6}}
\newlabel{fig:wykres:3}{{8.6}{51}{Odległość dla ST VL53L0X i VL6180X (18cm)}{figure.8.6}{}}
\@writefile{lof}{\contentsline {figure}{\numberline {8.7}{\ignorespaces Odleg\IeC {\l }o\IeC {\'s}\IeC {\'c} dla ST VL53L0X i VL6180X (15cm)}}{51}{figure.8.7}}
\newlabel{fig:wykres:8}{{8.7}{51}{Odległość dla ST VL53L0X i VL6180X (15cm)}{figure.8.7}{}}
\@writefile{lof}{\contentsline {figure}{\numberline {8.8}{\ignorespaces Nat\IeC {\k e}\IeC {\.z}enie \IeC {\'s}wiat\IeC {\l }a dla ST VL6180X (ALS)}}{52}{figure.8.8}}
\newlabel{fig:wykres:4}{{8.8}{52}{Natężenie światła dla ST VL6180X (ALS)}{figure.8.8}{}}
\@writefile{lof}{\contentsline {figure}{\numberline {8.9}{\ignorespaces Nat\IeC {\k e}\IeC {\.z}enie \IeC {\'s}wiat\IeC {\l }a dla ADPS-9660 (ALS)}}{52}{figure.8.9}}
\newlabel{fig:wykres:6}{{8.9}{52}{Natężenie światła dla ADPS-9660 (ALS)}{figure.8.9}{}}
\@writefile{lof}{\contentsline {figure}{\numberline {8.10}{\ignorespaces Nat\IeC {\k e}\IeC {\.z}enie \IeC {\'s}wiat\IeC {\l }a dla ADPS-9660 (IR)}}{53}{figure.8.10}}
\newlabel{fig:wykres:5}{{8.10}{53}{Natężenie światła dla ADPS-9660 (IR)}{figure.8.10}{}}
\@writefile{lof}{\contentsline {figure}{\numberline {8.11}{\ignorespaces Kolor \IeC {\'s}wiat\IeC {\l }a dla ADPS-9660 (RGB)}}{53}{figure.8.11}}
\newlabel{fig:wykres:7}{{8.11}{53}{Kolor światła dla ADPS-9660 (RGB)}{figure.8.11}{}}
\@writefile{toc}{\contentsline {chapter}{\numberline {9}Podsumowanie i wnioski}{55}{chapter.9}}
\@writefile{lof}{\addvspace {10\p@ }}
\@writefile{lot}{\addvspace {10\p@ }}
\@writefile{toc}{\contentsline {chapter}{\numberline {A}Schematy elektroniczne}{57}{appendix.A}}
\@writefile{lof}{\addvspace {10\p@ }}
\@writefile{lot}{\addvspace {10\p@ }}
\newlabel{RF1}{58}
\@writefile{lof}{\contentsline {figure}{\numberline {A.1}{\ignorespaces Schemat ideowy stanowiska pomiarowego}}{58}{figure.A.1}}
\newlabel{fig:schemat_central}{{A.1}{58}{Schemat ideowy stanowiska pomiarowego}{figure.A.1}{}}
\@writefile{lot}{\contentsline {table}{\numberline {A.1}{\ignorespaces Wykaz element\IeC {\'o}w stanowiska pomiarowego}}{59}{table.A.1}}
\newlabel{tab:schemat_central}{{A.1}{59}{Wykaz elementów stanowiska pomiarowego}{table.A.1}{}}
\newlabel{RF2}{60}
\@writefile{lof}{\contentsline {figure}{\numberline {A.2}{\ignorespaces Schemat ideowy modu\IeC {\l }u \emph  {Master}}}{60}{figure.A.2}}
\newlabel{fig:schemat_master}{{A.2}{60}{Schemat ideowy modułu \emph {Master}}{figure.A.2}{}}
\@writefile{lot}{\contentsline {table}{\numberline {A.2}{\ignorespaces Wykaz element\IeC {\'o}w modu\IeC {\l }u \emph  {Master}}}{61}{table.A.2}}
\newlabel{tab:schemat_master}{{A.2}{61}{Wykaz elementów modułu \emph {Master}}{table.A.2}{}}
\@writefile{lof}{\contentsline {figure}{\numberline {A.3}{\ignorespaces Schemat monta\IeC {\.z}owy PCB modu\IeC {\l }u \emph  {Master} (warstwa F.Cu)}}{62}{figure.A.3}}
\newlabel{fig:pcb:master_pcb_fcu}{{A.3}{62}{Schemat montażowy PCB modułu \emph {Master} (warstwa F.Cu)}{figure.A.3}{}}
\@writefile{lof}{\contentsline {figure}{\numberline {A.4}{\ignorespaces Schemat monta\IeC {\.z}owy PCB modu\IeC {\l }u \emph  {Master} (warstwa B.Cu)}}{62}{figure.A.4}}
\newlabel{fig:pcb:master_pcb_bcu}{{A.4}{62}{Schemat montażowy PCB modułu \emph {Master} (warstwa B.Cu)}{figure.A.4}{}}
\@writefile{lof}{\contentsline {figure}{\numberline {A.5}{\ignorespaces Widok PCB modu\IeC {\l }u \emph  {Master} (warstwa F.Cu)}}{63}{figure.A.5}}
\newlabel{fig:master_pcb_fcu}{{A.5}{63}{Widok PCB modułu \emph {Master} (warstwa F.Cu)}{figure.A.5}{}}
\@writefile{lof}{\contentsline {figure}{\numberline {A.6}{\ignorespaces Widok PCB modu\IeC {\l }u \emph  {Master} (warstwa B.Cu)}}{63}{figure.A.6}}
\newlabel{fig:master_pcb_bcu}{{A.6}{63}{Widok PCB modułu \emph {Master} (warstwa B.Cu)}{figure.A.6}{}}
\newlabel{RF3}{64}
\@writefile{lof}{\contentsline {figure}{\numberline {A.7}{\ignorespaces Schemat ideowy modu\IeC {\l }u \emph  {Slave}}}{64}{figure.A.7}}
\newlabel{fig:schemat_slave}{{A.7}{64}{Schemat ideowy modułu \emph {Slave}}{figure.A.7}{}}
\@writefile{lot}{\contentsline {table}{\numberline {A.3}{\ignorespaces Wykaz element\IeC {\'o}w modu\IeC {\l }u \emph  {Slave}}}{65}{table.A.3}}
\newlabel{tab:schemat_slave}{{A.3}{65}{Wykaz elementów modułu \emph {Slave}}{table.A.3}{}}
\@writefile{lof}{\contentsline {figure}{\numberline {A.8}{\ignorespaces Schemat monta\IeC {\.z}owy PCB modu\IeC {\l }u \emph  {Slave} (warstwa F.Cu)}}{66}{figure.A.8}}
\newlabel{fig:pcb:slave_pcb_fcu}{{A.8}{66}{Schemat montażowy PCB modułu \emph {Slave} (warstwa F.Cu)}{figure.A.8}{}}
\@writefile{lof}{\contentsline {figure}{\numberline {A.9}{\ignorespaces Schemat monta\IeC {\.z}owy PCB modu\IeC {\l }u \emph  {Slave} (warstwa B.Cu)}}{66}{figure.A.9}}
\newlabel{fig:pcb:slave_pcb_bcu}{{A.9}{66}{Schemat montażowy PCB modułu \emph {Slave} (warstwa B.Cu)}{figure.A.9}{}}
\@writefile{lof}{\contentsline {figure}{\numberline {A.10}{\ignorespaces Widok PCB modu\IeC {\l }u \emph  {Slave} (warstwa F.Cu)}}{67}{figure.A.10}}
\newlabel{fig:slave_pcb_fcu}{{A.10}{67}{Widok PCB modułu \emph {Slave} (warstwa F.Cu)}{figure.A.10}{}}
\@writefile{lof}{\contentsline {figure}{\numberline {A.11}{\ignorespaces Widok PCB modu\IeC {\l }u \emph  {Slave} (warstwa B.Cu)}}{67}{figure.A.11}}
\newlabel{fig:slave_pcb_bcu}{{A.11}{67}{Widok PCB modułu \emph {Slave} (warstwa B.Cu)}{figure.A.11}{}}
\newlabel{RF4}{68}
\@writefile{lof}{\contentsline {figure}{\numberline {A.12}{\ignorespaces Schemat ideowy modu\IeC {\l }u \emph  {IR}}}{68}{figure.A.12}}
\newlabel{fig:schemat_ptir}{{A.12}{68}{Schemat ideowy modułu \emph {IR}}{figure.A.12}{}}
\@writefile{lot}{\contentsline {table}{\numberline {A.4}{\ignorespaces Wykaz element\IeC {\'o}w modu\IeC {\l }u \emph  {IR}}}{69}{table.A.4}}
\newlabel{tab:schemat_ptir}{{A.4}{69}{Wykaz elementów modułu \emph {IR}}{table.A.4}{}}
\@writefile{lof}{\contentsline {figure}{\numberline {A.13}{\ignorespaces Schemat monta\IeC {\.z}owy PCB modu\IeC {\l }u \emph  {IR} (warstwa F.Cu)}}{70}{figure.A.13}}
\newlabel{fig:pcb:ptir_pcb_fcu}{{A.13}{70}{Schemat montażowy PCB modułu \emph {IR} (warstwa F.Cu)}{figure.A.13}{}}
\@writefile{lof}{\contentsline {figure}{\numberline {A.14}{\ignorespaces Schemat monta\IeC {\.z}owy PCB modu\IeC {\l }u \emph  {IR} (warstwa B.Cu)}}{70}{figure.A.14}}
\newlabel{fig:pcb:ptir_pcb_bcu}{{A.14}{70}{Schemat montażowy PCB modułu \emph {IR} (warstwa B.Cu)}{figure.A.14}{}}
\@writefile{lof}{\contentsline {figure}{\numberline {A.15}{\ignorespaces Widok PCB modu\IeC {\l }u \emph  {IR} (warstwa F.Cu)}}{71}{figure.A.15}}
\newlabel{fig:ptir_pcb_fcu}{{A.15}{71}{Widok PCB modułu \emph {IR} (warstwa F.Cu)}{figure.A.15}{}}
\@writefile{lof}{\contentsline {figure}{\numberline {A.16}{\ignorespaces Widok PCB modu\IeC {\l }u \emph  {IR} (warstwa B.Cu)}}{71}{figure.A.16}}
\newlabel{fig:ptir_pcb_bcu}{{A.16}{71}{Widok PCB modułu \emph {IR} (warstwa B.Cu)}{figure.A.16}{}}
\newlabel{RF5}{72}
\@writefile{lof}{\contentsline {figure}{\numberline {A.17}{\ignorespaces Schemat ideowy modu\IeC {\l }u \emph  {TR}}}{72}{figure.A.17}}
\newlabel{fig:schemat_sharp}{{A.17}{72}{Schemat ideowy modułu \emph {TR}}{figure.A.17}{}}
\@writefile{lot}{\contentsline {table}{\numberline {A.5}{\ignorespaces Wykaz element\IeC {\'o}w modu\IeC {\l }u \emph  {TR}}}{73}{table.A.5}}
\newlabel{tab:schemat_sharp}{{A.5}{73}{Wykaz elementów modułu \emph {TR}}{table.A.5}{}}
\@writefile{lof}{\contentsline {figure}{\numberline {A.18}{\ignorespaces Schemat monta\IeC {\.z}owy PCB modu\IeC {\l }u \emph  {TR} (warstwa F.Cu)}}{74}{figure.A.18}}
\newlabel{fig:pcb:sharp_pcb_fcu}{{A.18}{74}{Schemat montażowy PCB modułu \emph {TR} (warstwa F.Cu)}{figure.A.18}{}}
\@writefile{lof}{\contentsline {figure}{\numberline {A.19}{\ignorespaces Schemat monta\IeC {\.z}owy PCB modu\IeC {\l }u \emph  {TR} (warstwa B.Cu)}}{74}{figure.A.19}}
\newlabel{fig:pcb:sharp_pcb_bcu}{{A.19}{74}{Schemat montażowy PCB modułu \emph {TR} (warstwa B.Cu)}{figure.A.19}{}}
\@writefile{lof}{\contentsline {figure}{\numberline {A.20}{\ignorespaces Widok PCB modu\IeC {\l }u \emph  {TR} (warstwa F.Cu)}}{75}{figure.A.20}}
\newlabel{fig:sharp_pcb_fcu}{{A.20}{75}{Widok PCB modułu \emph {TR} (warstwa F.Cu)}{figure.A.20}{}}
\@writefile{lof}{\contentsline {figure}{\numberline {A.21}{\ignorespaces Widok PCB modu\IeC {\l }u \emph  {TR} (warstwa B.Cu)}}{75}{figure.A.21}}
\newlabel{fig:sharp_pcb_bcu}{{A.21}{75}{Widok PCB modułu \emph {TR} (warstwa B.Cu)}{figure.A.21}{}}
\newlabel{RF6}{76}
\@writefile{lof}{\contentsline {figure}{\numberline {A.22}{\ignorespaces Schemat ideowy modu\IeC {\l }u \emph  {TOF} }}{76}{figure.A.22}}
\newlabel{fig:schemat_tof}{{A.22}{76}{Schemat ideowy modułu \emph {TOF}}{figure.A.22}{}}
\@writefile{lot}{\contentsline {table}{\numberline {A.6}{\ignorespaces Wykaz element\IeC {\'o}w modu\IeC {\l }u \emph  {TOF} }}{77}{table.A.6}}
\newlabel{tab:schemat_tof}{{A.6}{77}{Wykaz elementów modułu \emph {TOF}}{table.A.6}{}}
\@writefile{lof}{\contentsline {figure}{\numberline {A.23}{\ignorespaces Schemat monta\IeC {\.z}owy PCB modu\IeC {\l }u \emph  {TOF} (warstwa F.Cu)}}{78}{figure.A.23}}
\newlabel{fig:pcb:tof_pcb_fcu}{{A.23}{78}{Schemat montażowy PCB modułu \emph {TOF} (warstwa F.Cu)}{figure.A.23}{}}
\@writefile{lof}{\contentsline {figure}{\numberline {A.24}{\ignorespaces Schemat monta\IeC {\.z}owy PCB modu\IeC {\l }u \emph  {TOF} (warstwa B.Cu)}}{78}{figure.A.24}}
\newlabel{fig:pcb:tof_pcb_bcu}{{A.24}{78}{Schemat montażowy PCB modułu \emph {TOF} (warstwa B.Cu)}{figure.A.24}{}}
\@writefile{lof}{\contentsline {figure}{\numberline {A.25}{\ignorespaces Widok PCB modu\IeC {\l }u \emph  {TOF} (warstwa F.Cu)}}{79}{figure.A.25}}
\newlabel{fig:tof_pcb_fcu}{{A.25}{79}{Widok PCB modułu \emph {TOF} (warstwa F.Cu)}{figure.A.25}{}}
\@writefile{lof}{\contentsline {figure}{\numberline {A.26}{\ignorespaces Widok PCB modu\IeC {\l }u \emph  {TOF} (warstwa B.Cu)}}{79}{figure.A.26}}
\newlabel{fig:tof_pcb_bcu}{{A.26}{79}{Widok PCB modułu \emph {TOF} (warstwa B.Cu)}{figure.A.26}{}}
\newlabel{RF7}{80}
\@writefile{lof}{\contentsline {figure}{\numberline {A.27}{\ignorespaces Schemat ideowy modu\IeC {\l }u \emph  {Laser}}}{80}{figure.A.27}}
\newlabel{fig:schemat_laser}{{A.27}{80}{Schemat ideowy modułu \emph {Laser}}{figure.A.27}{}}
\@writefile{lot}{\contentsline {table}{\numberline {A.7}{\ignorespaces Wykaz element\IeC {\'o}w modu\IeC {\l }u \emph  {Laser}}}{81}{table.A.7}}
\newlabel{tab:schemat_laser}{{A.7}{81}{Wykaz elementów modułu \emph {Laser}}{table.A.7}{}}
\@writefile{lof}{\contentsline {figure}{\numberline {A.28}{\ignorespaces Schemat monta\IeC {\.z}owy PCB modu\IeC {\l }u \emph  {Laser} (warstwa F.Cu)}}{82}{figure.A.28}}
\newlabel{fig:pcb:laser_pcb_fcu}{{A.28}{82}{Schemat montażowy PCB modułu \emph {Laser} (warstwa F.Cu)}{figure.A.28}{}}
\@writefile{lof}{\contentsline {figure}{\numberline {A.29}{\ignorespaces Schemat monta\IeC {\.z}owy PCB modu\IeC {\l }u \emph  {Laser} (warstwa B.Cu)}}{82}{figure.A.29}}
\newlabel{fig:pcb:laser_pcb_bcu}{{A.29}{82}{Schemat montażowy PCB modułu \emph {Laser} (warstwa B.Cu)}{figure.A.29}{}}
\@writefile{lof}{\contentsline {figure}{\numberline {A.30}{\ignorespaces Widok PCB modu\IeC {\l }u \emph  {Laser} (warstwa F.Cu)}}{83}{figure.A.30}}
\newlabel{fig:laser_pcb_fcu}{{A.30}{83}{Widok PCB modułu \emph {Laser} (warstwa F.Cu)}{figure.A.30}{}}
\@writefile{lof}{\contentsline {figure}{\numberline {A.31}{\ignorespaces Widok PCB modu\IeC {\l }u \emph  {Laser} (warstwa B.Cu)}}{83}{figure.A.31}}
\newlabel{fig:laser_pcb_bcu}{{A.31}{83}{Widok PCB modułu \emph {Laser} (warstwa B.Cu)}{figure.A.31}{}}
\newlabel{RF8}{84}
\@writefile{lof}{\contentsline {figure}{\numberline {A.32}{\ignorespaces Schemat ideowy modu\IeC {\l }u \emph  {EndstopLeft/EndstopRight}}}{84}{figure.A.32}}
\newlabel{fig:schemat_endstop}{{A.32}{84}{Schemat ideowy modułu \emph {EndstopLeft/EndstopRight}}{figure.A.32}{}}
\@writefile{lot}{\contentsline {table}{\numberline {A.8}{\ignorespaces Wykaz element\IeC {\'o}w modu\IeC {\l }u \emph  {EndstopLeft/EndstopRight}}}{85}{table.A.8}}
\newlabel{tab:schemat_endstop}{{A.8}{85}{Wykaz elementów modułu \emph {EndstopLeft/EndstopRight}}{table.A.8}{}}
\@writefile{lof}{\contentsline {figure}{\numberline {A.33}{\ignorespaces Schemat monta\IeC {\.z}owy PCB modu\IeC {\l }u \emph  {EndstopLeft} (warstwa F.Cu)}}{86}{figure.A.33}}
\newlabel{fig:pcb:endstopL_pcb_fcu}{{A.33}{86}{Schemat montażowy PCB modułu \emph {EndstopLeft} (warstwa F.Cu)}{figure.A.33}{}}
\@writefile{lof}{\contentsline {figure}{\numberline {A.34}{\ignorespaces Schemat monta\IeC {\.z}owy PCB modu\IeC {\l }u \emph  {EndstopLeft} (warstwa B.Cu)}}{86}{figure.A.34}}
\newlabel{fig:pcb:endstopL_pcb_bcu}{{A.34}{86}{Schemat montażowy PCB modułu \emph {EndstopLeft} (warstwa B.Cu)}{figure.A.34}{}}
\@writefile{lof}{\contentsline {figure}{\numberline {A.35}{\ignorespaces Schemat monta\IeC {\.z}owy PCB modu\IeC {\l }u \emph  {EndstopRight} (warstwa F.Cu)}}{86}{figure.A.35}}
\newlabel{fig:pcb:endstopR_pcb_fcu}{{A.35}{86}{Schemat montażowy PCB modułu \emph {EndstopRight} (warstwa F.Cu)}{figure.A.35}{}}
\@writefile{lof}{\contentsline {figure}{\numberline {A.36}{\ignorespaces Schemat monta\IeC {\.z}owy PCB modu\IeC {\l }u \emph  {EndstopRight} (warstwa B.Cu)}}{86}{figure.A.36}}
\newlabel{fig:pcb:endstopR_pcb_bcu}{{A.36}{86}{Schemat montażowy PCB modułu \emph {EndstopRight} (warstwa B.Cu)}{figure.A.36}{}}
\@writefile{lof}{\contentsline {figure}{\numberline {A.37}{\ignorespaces Widok PCB modu\IeC {\l }u \emph  {EndstopLeft} (warstwa F.Cu)}}{87}{figure.A.37}}
\newlabel{fig:endstopL_pcb_fcu}{{A.37}{87}{Widok PCB modułu \emph {EndstopLeft} (warstwa F.Cu)}{figure.A.37}{}}
\@writefile{lof}{\contentsline {figure}{\numberline {A.38}{\ignorespaces Widok PCB modu\IeC {\l }u \emph  {EndstopLeft} (warstwa B.Cu)}}{87}{figure.A.38}}
\newlabel{fig:endstopL_pcb_bcu}{{A.38}{87}{Widok PCB modułu \emph {EndstopLeft} (warstwa B.Cu)}{figure.A.38}{}}
\@writefile{lof}{\contentsline {figure}{\numberline {A.39}{\ignorespaces Widok PCB modu\IeC {\l }u \emph  {EndstopRight} (warstwa F.Cu)}}{87}{figure.A.39}}
\newlabel{fig:endstopR_pcb_fcu}{{A.39}{87}{Widok PCB modułu \emph {EndstopRight} (warstwa F.Cu)}{figure.A.39}{}}
\@writefile{lof}{\contentsline {figure}{\numberline {A.40}{\ignorespaces Widok PCB modu\IeC {\l }u \emph  {EndstopRight} (warstwa B.Cu)}}{87}{figure.A.40}}
\newlabel{fig:endstopR_pcb_bcu}{{A.40}{87}{Widok PCB modułu \emph {EndstopRight} (warstwa B.Cu)}{figure.A.40}{}}
\bibdata{bibliografia}
\@writefile{toc}{\contentsline {chapter}{Bibliografia}{88}{figure.A.40}}
\bibcite{AutodeskInventor}{1}
\bibcite{APDS-9960}{2}
\bibcite{KAmodVL6180X}{3}
\bibcite{IgusCAD}{4}
\bibcite{DryLin}{5}
\bibcite{KiCAD}{6}
\bibcite{L-53P3BT}{7}
\bibcite{Kreczmer:2008:Protokol:Asymetryczny}{8}
\bibcite{LITEON}{9}
\bibcite{MAX3232}{10}
\bibcite{MeanWell}{11}
\bibcite{MCP6024}{12}
\bibcite{SFH313FA}{13}
\bibcite{SFH4550}{14}
\bibcite{PololuVL53L0X}{15}
\bibcite{WobitSterownik}{16}
\bibcite{WobitZasilacz}{17}
\bibcite{GP2Y0A02YK0F}{18}
\bibcite{SparkFunAPDS-9960}{19}
\bibcite{APDS-9960API}{20}
\bibcite{NUCLEO-F401RE}{21}
\bibcite{STM32F401RE}{22}
\bibcite{VL53L0X}{23}
\bibcite{VL6180X}{24}
\bibcite{STLinkUtility}{25}
\bibcite{STMStudio}{26}
\bibcite{HAL}{27}
\bibcite{STM32CubeMX}{28}
\bibcite{SW4STM32}{29}
\bibcite{VL53L0XAPI}{30}
\bibcite{VL6180XAPI}{31}
\bibcite{ULN2803A}{32}
\bibcite{TSAL6400}{33}
\bibcite{Wnuk:2008:Pomiar:odchylenia}{34}
\bibcite{ZAPKooperacja}{35}
\citation{NUCLEO-F401RE}
\citation{NUCLEO-F401RE}
