(kicad_pcb (version 4) (host pcbnew 4.0.7)

  (general
    (links 26)
    (no_connects 0)
    (area 100.055714 61.954999 193.984286 137.085001)
    (thickness 1.6)
    (drawings 61)
    (tracks 78)
    (zones 0)
    (modules 19)
    (nets 13)
  )

  (page A4)
  (layers
    (0 F.Cu signal)
    (31 B.Cu signal)
    (32 B.Adhes user)
    (33 F.Adhes user)
    (34 B.Paste user)
    (35 F.Paste user)
    (36 B.SilkS user)
    (37 F.SilkS user)
    (38 B.Mask user)
    (39 F.Mask user)
    (40 Dwgs.User user)
    (41 Cmts.User user)
    (42 Eco1.User user)
    (43 Eco2.User user)
    (44 Edge.Cuts user)
    (45 Margin user)
    (46 B.CrtYd user)
    (47 F.CrtYd user)
    (48 B.Fab user hide)
    (49 F.Fab user hide)
  )

  (setup
    (last_trace_width 0.3)
    (trace_clearance 0.25)
    (zone_clearance 0.508)
    (zone_45_only no)
    (trace_min 0.2)
    (segment_width 0.2)
    (edge_width 0.15)
    (via_size 0.6)
    (via_drill 0.4)
    (via_min_size 0.4)
    (via_min_drill 0.3)
    (uvia_size 0.3)
    (uvia_drill 0.1)
    (uvias_allowed no)
    (uvia_min_size 0.2)
    (uvia_min_drill 0.1)
    (pcb_text_width 0.3)
    (pcb_text_size 1.5 1.5)
    (mod_edge_width 0.15)
    (mod_text_size 1 1)
    (mod_text_width 0.15)
    (pad_size 5.6 5.6)
    (pad_drill 3.2)
    (pad_to_mask_clearance 0.2)
    (aux_axis_origin 0 0)
    (visible_elements 7FFFFFFF)
    (pcbplotparams
      (layerselection 0x00030_80000001)
      (usegerberextensions false)
      (excludeedgelayer true)
      (linewidth 0.100000)
      (plotframeref false)
      (viasonmask false)
      (mode 1)
      (useauxorigin false)
      (hpglpennumber 1)
      (hpglpenspeed 20)
      (hpglpendiameter 15)
      (hpglpenoverlay 2)
      (psnegative false)
      (psa4output false)
      (plotreference true)
      (plotvalue true)
      (plotinvisibletext false)
      (padsonsilk false)
      (subtractmaskfromsilk false)
      (outputformat 4)
      (mirror false)
      (drillshape 2)
      (scaleselection 1)
      (outputdirectory ""))
  )

  (net 0 "")
  (net 1 3V3)
  (net 2 GND)
  (net 3 SDA)
  (net 4 SCL)
  (net 5 EN1)
  (net 6 INT1)
  (net 7 EN2)
  (net 8 INT2)
  (net 9 EN3)
  (net 10 ADPS_GND)
  (net 11 INT3)
  (net 12 "Net-(Q1-Pad1)")

  (net_class Default "To jest domyślna klasa połączeń."
    (clearance 0.25)
    (trace_width 0.3)
    (via_dia 0.6)
    (via_drill 0.4)
    (uvia_dia 0.3)
    (uvia_drill 0.1)
    (add_net 3V3)
    (add_net ADPS_GND)
    (add_net EN1)
    (add_net EN2)
    (add_net EN3)
    (add_net GND)
    (add_net INT1)
    (add_net INT2)
    (add_net INT3)
    (add_net "Net-(Q1-Pad1)")
    (add_net SCL)
    (add_net SDA)
  )

  (net_class power ""
    (clearance 0.25)
    (trace_width 0.3)
    (via_dia 0.6)
    (via_drill 0.4)
    (uvia_dia 0.3)
    (uvia_drill 0.1)
  )

  (module Pin_Headers:Pin_Header_Straight_1x06_Pitch2.54mm (layer B.Cu) (tedit 59650532) (tstamp 5A090302)
    (at 133.33 114.58 180)
    (descr "Through hole straight pin header, 1x06, 2.54mm pitch, single row")
    (tags "Through hole pin header THT 1x06 2.54mm single row")
    (path /5A094D02)
    (fp_text reference J2 (at 0 2.33 180) (layer B.SilkS)
      (effects (font (size 1 1) (thickness 0.15)) (justify mirror))
    )
    (fp_text value APDS-9960 (at 0 -15.03 180) (layer B.Fab)
      (effects (font (size 1 1) (thickness 0.15)) (justify mirror))
    )
    (fp_line (start -0.635 1.27) (end 1.27 1.27) (layer B.Fab) (width 0.1))
    (fp_line (start 1.27 1.27) (end 1.27 -13.97) (layer B.Fab) (width 0.1))
    (fp_line (start 1.27 -13.97) (end -1.27 -13.97) (layer B.Fab) (width 0.1))
    (fp_line (start -1.27 -13.97) (end -1.27 0.635) (layer B.Fab) (width 0.1))
    (fp_line (start -1.27 0.635) (end -0.635 1.27) (layer B.Fab) (width 0.1))
    (fp_line (start -1.33 -14.03) (end 1.33 -14.03) (layer B.SilkS) (width 0.12))
    (fp_line (start -1.33 -1.27) (end -1.33 -14.03) (layer B.SilkS) (width 0.12))
    (fp_line (start 1.33 -1.27) (end 1.33 -14.03) (layer B.SilkS) (width 0.12))
    (fp_line (start -1.33 -1.27) (end 1.33 -1.27) (layer B.SilkS) (width 0.12))
    (fp_line (start -1.33 0) (end -1.33 1.33) (layer B.SilkS) (width 0.12))
    (fp_line (start -1.33 1.33) (end 0 1.33) (layer B.SilkS) (width 0.12))
    (fp_line (start -1.8 1.8) (end -1.8 -14.5) (layer B.CrtYd) (width 0.05))
    (fp_line (start -1.8 -14.5) (end 1.8 -14.5) (layer B.CrtYd) (width 0.05))
    (fp_line (start 1.8 -14.5) (end 1.8 1.8) (layer B.CrtYd) (width 0.05))
    (fp_line (start 1.8 1.8) (end -1.8 1.8) (layer B.CrtYd) (width 0.05))
    (fp_text user %R (at 0 -6.35 450) (layer B.Fab)
      (effects (font (size 1 1) (thickness 0.15)) (justify mirror))
    )
    (pad 1 thru_hole rect (at 0 0 180) (size 1.7 1.7) (drill 1) (layers *.Cu *.Mask))
    (pad 2 thru_hole oval (at 0 -2.54 180) (size 1.7 1.7) (drill 1) (layers *.Cu *.Mask)
      (net 10 ADPS_GND))
    (pad 3 thru_hole oval (at 0 -5.08 180) (size 1.7 1.7) (drill 1) (layers *.Cu *.Mask)
      (net 1 3V3))
    (pad 4 thru_hole oval (at 0 -7.62 180) (size 1.7 1.7) (drill 1) (layers *.Cu *.Mask)
      (net 3 SDA))
    (pad 5 thru_hole oval (at 0 -10.16 180) (size 1.7 1.7) (drill 1) (layers *.Cu *.Mask)
      (net 4 SCL))
    (pad 6 thru_hole oval (at 0 -12.7 180) (size 1.7 1.7) (drill 1) (layers *.Cu *.Mask)
      (net 11 INT3))
    (model ${KISYS3DMOD}/Pin_Headers.3dshapes/Pin_Header_Straight_1x06_Pitch2.54mm.wrl
      (at (xyz 0 0 0))
      (scale (xyz 1 1 1))
      (rotate (xyz 0 0 0))
    )
  )

  (module Mounting_Holes:MountingHole_3.2mm_M3_DIN965_Pad (layer F.Cu) (tedit 5A090430) (tstamp 5A0906CC)
    (at 114.52 132.03)
    (descr "Mounting Hole 3.2mm, M3, DIN965")
    (tags "mounting hole 3.2mm m3 din965")
    (attr virtual)
    (fp_text reference REF** (at 0 -3.8) (layer F.SilkS)
      (effects (font (size 1 1) (thickness 0.15)))
    )
    (fp_text value MountingHole_3.2mm_M3_DIN965_Pad (at 0 3.8) (layer F.Fab)
      (effects (font (size 1 1) (thickness 0.15)))
    )
    (fp_text user %R (at 0.3 0) (layer F.Fab)
      (effects (font (size 1 1) (thickness 0.15)))
    )
    (fp_circle (center 0 0) (end 2.8 0) (layer Cmts.User) (width 0.15))
    (fp_circle (center 0 0) (end 3.05 0) (layer F.CrtYd) (width 0.05))
    (pad 1 thru_hole circle (at 0.02 0) (size 5.6 5.6) (drill 3.2) (layers *.Cu *.Mask))
  )

  (module Mounting_Holes:MountingHole_3.2mm_M3_DIN965_Pad (layer F.Cu) (tedit 5A090430) (tstamp 5A0906C5)
    (at 179.52 132.03)
    (descr "Mounting Hole 3.2mm, M3, DIN965")
    (tags "mounting hole 3.2mm m3 din965")
    (attr virtual)
    (fp_text reference REF** (at 0 -3.8) (layer F.SilkS)
      (effects (font (size 1 1) (thickness 0.15)))
    )
    (fp_text value MountingHole_3.2mm_M3_DIN965_Pad (at 0 3.8) (layer F.Fab)
      (effects (font (size 1 1) (thickness 0.15)))
    )
    (fp_text user %R (at 0.3 0) (layer F.Fab)
      (effects (font (size 1 1) (thickness 0.15)))
    )
    (fp_circle (center 0 0) (end 2.8 0) (layer Cmts.User) (width 0.15))
    (fp_circle (center 0 0) (end 3.05 0) (layer F.CrtYd) (width 0.05))
    (pad 1 thru_hole circle (at 0.02 0) (size 5.6 5.6) (drill 3.2) (layers *.Cu *.Mask))
  )

  (module Mounting_Holes:MountingHole_3.2mm_M3_DIN965_Pad (layer F.Cu) (tedit 5A090430) (tstamp 5A0906BE)
    (at 179.52 67.03)
    (descr "Mounting Hole 3.2mm, M3, DIN965")
    (tags "mounting hole 3.2mm m3 din965")
    (attr virtual)
    (fp_text reference REF** (at 0 -3.8) (layer F.SilkS)
      (effects (font (size 1 1) (thickness 0.15)))
    )
    (fp_text value MountingHole_3.2mm_M3_DIN965_Pad (at 0 3.8) (layer F.Fab)
      (effects (font (size 1 1) (thickness 0.15)))
    )
    (fp_text user %R (at 0.3 0) (layer F.Fab)
      (effects (font (size 1 1) (thickness 0.15)))
    )
    (fp_circle (center 0 0) (end 2.8 0) (layer Cmts.User) (width 0.15))
    (fp_circle (center 0 0) (end 3.05 0) (layer F.CrtYd) (width 0.05))
    (pad 1 thru_hole circle (at 0.02 0) (size 5.6 5.6) (drill 3.2) (layers *.Cu *.Mask))
  )

  (module Mounting_Holes:MountingHole_3.2mm_M3_DIN965_Pad (layer F.Cu) (tedit 5A090430) (tstamp 5A09064A)
    (at 114.52 67.03)
    (descr "Mounting Hole 3.2mm, M3, DIN965")
    (tags "mounting hole 3.2mm m3 din965")
    (attr virtual)
    (fp_text reference REF** (at 0 -3.8) (layer F.SilkS)
      (effects (font (size 1 1) (thickness 0.15)))
    )
    (fp_text value MountingHole_3.2mm_M3_DIN965_Pad (at 0 3.8) (layer F.Fab)
      (effects (font (size 1 1) (thickness 0.15)))
    )
    (fp_text user %R (at 0.3 0) (layer F.Fab)
      (effects (font (size 1 1) (thickness 0.15)))
    )
    (fp_circle (center 0 0) (end 2.8 0) (layer Cmts.User) (width 0.15))
    (fp_circle (center 0 0) (end 3.05 0) (layer F.CrtYd) (width 0.05))
    (pad 1 thru_hole circle (at 0.02 0) (size 5.6 5.6) (drill 3.2) (layers *.Cu *.Mask))
  )

  (module Mounting_Holes:MountingHole_3.2mm_M3_DIN965_Pad (layer F.Cu) (tedit 5A090616) (tstamp 5A090638)
    (at 147.39 89.7)
    (descr "Mounting Hole 3.2mm, M3, DIN965")
    (tags "mounting hole 3.2mm m3 din965")
    (attr virtual)
    (fp_text reference REF** (at 0 -3.8) (layer F.SilkS)
      (effects (font (size 1 1) (thickness 0.15)))
    )
    (fp_text value MountingHole_3.2mm_M3_DIN965_Pad (at 0 3.8) (layer F.Fab)
      (effects (font (size 1 1) (thickness 0.15)))
    )
    (fp_text user %R (at 0.3 0) (layer F.Fab)
      (effects (font (size 1 1) (thickness 0.15)))
    )
    (fp_circle (center 0 0) (end 2.8 0) (layer Cmts.User) (width 0.15))
    (fp_circle (center 0 0) (end 3.05 0) (layer F.CrtYd) (width 0.05))
    (pad 1 thru_hole circle (at 0.05 0) (size 5.6 5.6) (drill 3.2) (layers *.Cu *.Mask))
  )

  (module Mounting_Holes:MountingHole_3.2mm_M3_DIN965_Pad (layer F.Cu) (tedit 5A090430) (tstamp 5A0905AF)
    (at 147.42 71.92)
    (descr "Mounting Hole 3.2mm, M3, DIN965")
    (tags "mounting hole 3.2mm m3 din965")
    (attr virtual)
    (fp_text reference REF** (at 0 -3.8) (layer F.SilkS)
      (effects (font (size 1 1) (thickness 0.15)))
    )
    (fp_text value MountingHole_3.2mm_M3_DIN965_Pad (at 0 3.8) (layer F.Fab)
      (effects (font (size 1 1) (thickness 0.15)))
    )
    (fp_text user %R (at 0.3 0) (layer F.Fab)
      (effects (font (size 1 1) (thickness 0.15)))
    )
    (fp_circle (center 0 0) (end 2.8 0) (layer Cmts.User) (width 0.15))
    (fp_circle (center 0 0) (end 3.05 0) (layer F.CrtYd) (width 0.05))
    (pad 1 thru_hole circle (at 0.02 0) (size 5.6 5.6) (drill 3.2) (layers *.Cu *.Mask))
  )

  (module Mounting_Holes:MountingHole_2.2mm_M2_DIN965_Pad (layer F.Cu) (tedit 5A09056E) (tstamp 5A09054E)
    (at 150.31 109.425)
    (descr "Mounting Hole 2.2mm, M2, DIN965")
    (tags "mounting hole 2.2mm m2 din965")
    (attr virtual)
    (fp_text reference REF** (at 0 -2.9) (layer F.SilkS)
      (effects (font (size 1 1) (thickness 0.15)))
    )
    (fp_text value MountingHole_2.2mm_M2_DIN965_Pad (at 0 2.9) (layer F.Fab)
      (effects (font (size 1 1) (thickness 0.15)))
    )
    (fp_text user %R (at 0.3 0) (layer F.Fab)
      (effects (font (size 1 1) (thickness 0.15)))
    )
    (fp_circle (center 0 0) (end 1.9 0) (layer Cmts.User) (width 0.15))
    (fp_circle (center 0 0) (end 2.15 0) (layer F.CrtYd) (width 0.05))
    (pad 1 thru_hole circle (at 0.025 0) (size 3.8 3.8) (drill 2.2) (layers *.Cu *.Mask))
  )

  (module Mounting_Holes:MountingHole_3.2mm_M3_DIN965_Pad (layer F.Cu) (tedit 5A0903AE) (tstamp 5A090411)
    (at 149.57 126)
    (descr "Mounting Hole 3.2mm, M3, DIN965")
    (tags "mounting hole 3.2mm m3 din965")
    (attr virtual)
    (fp_text reference REF** (at 0 -3.8) (layer F.SilkS)
      (effects (font (size 1 1) (thickness 0.15)))
    )
    (fp_text value MountingHole_3.2mm_M3_DIN965_Pad (at 0 3.8) (layer F.Fab)
      (effects (font (size 1 1) (thickness 0.15)))
    )
    (fp_text user %R (at 0.3 0) (layer F.Fab)
      (effects (font (size 1 1) (thickness 0.15)))
    )
    (fp_circle (center 0 0) (end 2.8 0) (layer Cmts.User) (width 0.15))
    (fp_circle (center 0 0) (end 3.05 0) (layer F.CrtYd) (width 0.05))
    (pad 1 thru_hole circle (at 0 0) (size 5.6 5.6) (drill 3.2) (layers *.Cu *.Mask))
  )

  (module Pin_Headers:Pin_Header_Straight_1x10_Pitch2.54mm (layer F.Cu) (tedit 59650532) (tstamp 5A0902F8)
    (at 121.37 97.94)
    (descr "Through hole straight pin header, 1x10, 2.54mm pitch, single row")
    (tags "Through hole pin header THT 1x10 2.54mm single row")
    (path /5A095CFC)
    (fp_text reference J1 (at 0 -2.33) (layer F.SilkS)
      (effects (font (size 1 1) (thickness 0.15)))
    )
    (fp_text value Conn_01x10 (at 0 25.19) (layer F.Fab)
      (effects (font (size 1 1) (thickness 0.15)))
    )
    (fp_line (start -0.635 -1.27) (end 1.27 -1.27) (layer F.Fab) (width 0.1))
    (fp_line (start 1.27 -1.27) (end 1.27 24.13) (layer F.Fab) (width 0.1))
    (fp_line (start 1.27 24.13) (end -1.27 24.13) (layer F.Fab) (width 0.1))
    (fp_line (start -1.27 24.13) (end -1.27 -0.635) (layer F.Fab) (width 0.1))
    (fp_line (start -1.27 -0.635) (end -0.635 -1.27) (layer F.Fab) (width 0.1))
    (fp_line (start -1.33 24.19) (end 1.33 24.19) (layer F.SilkS) (width 0.12))
    (fp_line (start -1.33 1.27) (end -1.33 24.19) (layer F.SilkS) (width 0.12))
    (fp_line (start 1.33 1.27) (end 1.33 24.19) (layer F.SilkS) (width 0.12))
    (fp_line (start -1.33 1.27) (end 1.33 1.27) (layer F.SilkS) (width 0.12))
    (fp_line (start -1.33 0) (end -1.33 -1.33) (layer F.SilkS) (width 0.12))
    (fp_line (start -1.33 -1.33) (end 0 -1.33) (layer F.SilkS) (width 0.12))
    (fp_line (start -1.8 -1.8) (end -1.8 24.65) (layer F.CrtYd) (width 0.05))
    (fp_line (start -1.8 24.65) (end 1.8 24.65) (layer F.CrtYd) (width 0.05))
    (fp_line (start 1.8 24.65) (end 1.8 -1.8) (layer F.CrtYd) (width 0.05))
    (fp_line (start 1.8 -1.8) (end -1.8 -1.8) (layer F.CrtYd) (width 0.05))
    (fp_text user %R (at 0 11.43 90) (layer F.Fab)
      (effects (font (size 1 1) (thickness 0.15)))
    )
    (pad 1 thru_hole rect (at 0 0) (size 1.7 1.7) (drill 1) (layers *.Cu *.Mask)
      (net 1 3V3))
    (pad 2 thru_hole oval (at 0 2.54) (size 1.7 1.7) (drill 1) (layers *.Cu *.Mask)
      (net 2 GND))
    (pad 3 thru_hole oval (at 0 5.08) (size 1.7 1.7) (drill 1) (layers *.Cu *.Mask)
      (net 3 SDA))
    (pad 4 thru_hole oval (at 0 7.62) (size 1.7 1.7) (drill 1) (layers *.Cu *.Mask)
      (net 4 SCL))
    (pad 5 thru_hole oval (at 0 10.16) (size 1.7 1.7) (drill 1) (layers *.Cu *.Mask)
      (net 5 EN1))
    (pad 6 thru_hole oval (at 0 12.7) (size 1.7 1.7) (drill 1) (layers *.Cu *.Mask)
      (net 6 INT1))
    (pad 7 thru_hole oval (at 0 15.24) (size 1.7 1.7) (drill 1) (layers *.Cu *.Mask)
      (net 7 EN2))
    (pad 8 thru_hole oval (at 0 17.78) (size 1.7 1.7) (drill 1) (layers *.Cu *.Mask)
      (net 8 INT2))
    (pad 9 thru_hole oval (at 0 20.32) (size 1.7 1.7) (drill 1) (layers *.Cu *.Mask)
      (net 9 EN3))
    (pad 10 thru_hole oval (at 0 22.86) (size 1.7 1.7) (drill 1) (layers *.Cu *.Mask)
      (net 11 INT3))
    (model ${KISYS3DMOD}/Pin_Headers.3dshapes/Pin_Header_Straight_1x10_Pitch2.54mm.wrl
      (at (xyz 0 0 0))
      (scale (xyz 1 1 1))
      (rotate (xyz 0 0 0))
    )
  )

  (module Pin_Headers:Pin_Header_Straight_1x06_Pitch2.54mm (layer B.Cu) (tedit 59650532) (tstamp 5A09030C)
    (at 136.94 74.53 180)
    (descr "Through hole straight pin header, 1x06, 2.54mm pitch, single row")
    (tags "Through hole pin header THT 1x06 2.54mm single row")
    (path /5A0949DB)
    (fp_text reference J3 (at 0 2.33 180) (layer B.SilkS)
      (effects (font (size 1 1) (thickness 0.15)) (justify mirror))
    )
    (fp_text value VL6180X (at 0 -15.03 180) (layer B.Fab)
      (effects (font (size 1 1) (thickness 0.15)) (justify mirror))
    )
    (fp_line (start -0.635 1.27) (end 1.27 1.27) (layer B.Fab) (width 0.1))
    (fp_line (start 1.27 1.27) (end 1.27 -13.97) (layer B.Fab) (width 0.1))
    (fp_line (start 1.27 -13.97) (end -1.27 -13.97) (layer B.Fab) (width 0.1))
    (fp_line (start -1.27 -13.97) (end -1.27 0.635) (layer B.Fab) (width 0.1))
    (fp_line (start -1.27 0.635) (end -0.635 1.27) (layer B.Fab) (width 0.1))
    (fp_line (start -1.33 -14.03) (end 1.33 -14.03) (layer B.SilkS) (width 0.12))
    (fp_line (start -1.33 -1.27) (end -1.33 -14.03) (layer B.SilkS) (width 0.12))
    (fp_line (start 1.33 -1.27) (end 1.33 -14.03) (layer B.SilkS) (width 0.12))
    (fp_line (start -1.33 -1.27) (end 1.33 -1.27) (layer B.SilkS) (width 0.12))
    (fp_line (start -1.33 0) (end -1.33 1.33) (layer B.SilkS) (width 0.12))
    (fp_line (start -1.33 1.33) (end 0 1.33) (layer B.SilkS) (width 0.12))
    (fp_line (start -1.8 1.8) (end -1.8 -14.5) (layer B.CrtYd) (width 0.05))
    (fp_line (start -1.8 -14.5) (end 1.8 -14.5) (layer B.CrtYd) (width 0.05))
    (fp_line (start 1.8 -14.5) (end 1.8 1.8) (layer B.CrtYd) (width 0.05))
    (fp_line (start 1.8 1.8) (end -1.8 1.8) (layer B.CrtYd) (width 0.05))
    (fp_text user %R (at 0 -6.35 450) (layer B.Fab)
      (effects (font (size 1 1) (thickness 0.15)) (justify mirror))
    )
    (pad 1 thru_hole rect (at 0 0 180) (size 1.7 1.7) (drill 1) (layers *.Cu *.Mask)
      (net 2 GND))
    (pad 2 thru_hole oval (at 0 -2.54 180) (size 1.7 1.7) (drill 1) (layers *.Cu *.Mask)
      (net 1 3V3))
    (pad 3 thru_hole oval (at 0 -5.08 180) (size 1.7 1.7) (drill 1) (layers *.Cu *.Mask)
      (net 3 SDA))
    (pad 4 thru_hole oval (at 0 -7.62 180) (size 1.7 1.7) (drill 1) (layers *.Cu *.Mask)
      (net 4 SCL))
    (pad 5 thru_hole oval (at 0 -10.16 180) (size 1.7 1.7) (drill 1) (layers *.Cu *.Mask)
      (net 7 EN2))
    (pad 6 thru_hole oval (at 0 -12.7 180) (size 1.7 1.7) (drill 1) (layers *.Cu *.Mask)
      (net 8 INT2))
    (model ${KISYS3DMOD}/Pin_Headers.3dshapes/Pin_Header_Straight_1x06_Pitch2.54mm.wrl
      (at (xyz 0 0 0))
      (scale (xyz 1 1 1))
      (rotate (xyz 0 0 0))
    )
  )

  (module Pin_Headers:Pin_Header_Straight_1x07_Pitch2.54mm (layer B.Cu) (tedit 59650532) (tstamp 5A090317)
    (at 141.41 95.4 180)
    (descr "Through hole straight pin header, 1x07, 2.54mm pitch, single row")
    (tags "Through hole pin header THT 1x07 2.54mm single row")
    (path /5A0941CE)
    (fp_text reference J4 (at 0 2.33 180) (layer B.SilkS)
      (effects (font (size 1 1) (thickness 0.15)) (justify mirror))
    )
    (fp_text value VL53L0X (at 0 -17.57 180) (layer B.Fab)
      (effects (font (size 1 1) (thickness 0.15)) (justify mirror))
    )
    (fp_line (start -0.635 1.27) (end 1.27 1.27) (layer B.Fab) (width 0.1))
    (fp_line (start 1.27 1.27) (end 1.27 -16.51) (layer B.Fab) (width 0.1))
    (fp_line (start 1.27 -16.51) (end -1.27 -16.51) (layer B.Fab) (width 0.1))
    (fp_line (start -1.27 -16.51) (end -1.27 0.635) (layer B.Fab) (width 0.1))
    (fp_line (start -1.27 0.635) (end -0.635 1.27) (layer B.Fab) (width 0.1))
    (fp_line (start -1.33 -16.57) (end 1.33 -16.57) (layer B.SilkS) (width 0.12))
    (fp_line (start -1.33 -1.27) (end -1.33 -16.57) (layer B.SilkS) (width 0.12))
    (fp_line (start 1.33 -1.27) (end 1.33 -16.57) (layer B.SilkS) (width 0.12))
    (fp_line (start -1.33 -1.27) (end 1.33 -1.27) (layer B.SilkS) (width 0.12))
    (fp_line (start -1.33 0) (end -1.33 1.33) (layer B.SilkS) (width 0.12))
    (fp_line (start -1.33 1.33) (end 0 1.33) (layer B.SilkS) (width 0.12))
    (fp_line (start -1.8 1.8) (end -1.8 -17.05) (layer B.CrtYd) (width 0.05))
    (fp_line (start -1.8 -17.05) (end 1.8 -17.05) (layer B.CrtYd) (width 0.05))
    (fp_line (start 1.8 -17.05) (end 1.8 1.8) (layer B.CrtYd) (width 0.05))
    (fp_line (start 1.8 1.8) (end -1.8 1.8) (layer B.CrtYd) (width 0.05))
    (fp_text user %R (at 0 -7.62 450) (layer B.Fab)
      (effects (font (size 1 1) (thickness 0.15)) (justify mirror))
    )
    (pad 1 thru_hole rect (at 0 0 180) (size 1.7 1.7) (drill 1) (layers *.Cu *.Mask))
    (pad 2 thru_hole oval (at 0 -2.54 180) (size 1.7 1.7) (drill 1) (layers *.Cu *.Mask)
      (net 1 3V3))
    (pad 3 thru_hole oval (at 0 -5.08 180) (size 1.7 1.7) (drill 1) (layers *.Cu *.Mask)
      (net 2 GND))
    (pad 4 thru_hole oval (at 0 -7.62 180) (size 1.7 1.7) (drill 1) (layers *.Cu *.Mask)
      (net 3 SDA))
    (pad 5 thru_hole oval (at 0 -10.16 180) (size 1.7 1.7) (drill 1) (layers *.Cu *.Mask)
      (net 4 SCL))
    (pad 6 thru_hole oval (at 0 -12.7 180) (size 1.7 1.7) (drill 1) (layers *.Cu *.Mask)
      (net 5 EN1))
    (pad 7 thru_hole oval (at 0 -15.24 180) (size 1.7 1.7) (drill 1) (layers *.Cu *.Mask)
      (net 6 INT1))
    (model ${KISYS3DMOD}/Pin_Headers.3dshapes/Pin_Header_Straight_1x07_Pitch2.54mm.wrl
      (at (xyz 0 0 0))
      (scale (xyz 1 1 1))
      (rotate (xyz 0 0 0))
    )
  )

  (module TO_SOT_Packages_SMD:SOT-23_Handsoldering (layer B.Cu) (tedit 58CE4E7E) (tstamp 5A09031E)
    (at 128.694 117.702 270)
    (descr "SOT-23, Handsoldering")
    (tags SOT-23)
    (path /5A0916E1)
    (attr smd)
    (fp_text reference Q1 (at 0 2.5 270) (layer B.SilkS)
      (effects (font (size 1 1) (thickness 0.15)) (justify mirror))
    )
    (fp_text value Q_NMOS_GSD (at 0 -2.5 270) (layer B.Fab)
      (effects (font (size 1 1) (thickness 0.15)) (justify mirror))
    )
    (fp_text user %R (at 0 0 540) (layer B.Fab)
      (effects (font (size 0.5 0.5) (thickness 0.075)) (justify mirror))
    )
    (fp_line (start 0.76 -1.58) (end 0.76 -0.65) (layer B.SilkS) (width 0.12))
    (fp_line (start 0.76 1.58) (end 0.76 0.65) (layer B.SilkS) (width 0.12))
    (fp_line (start -2.7 1.75) (end 2.7 1.75) (layer B.CrtYd) (width 0.05))
    (fp_line (start 2.7 1.75) (end 2.7 -1.75) (layer B.CrtYd) (width 0.05))
    (fp_line (start 2.7 -1.75) (end -2.7 -1.75) (layer B.CrtYd) (width 0.05))
    (fp_line (start -2.7 -1.75) (end -2.7 1.75) (layer B.CrtYd) (width 0.05))
    (fp_line (start 0.76 1.58) (end -2.4 1.58) (layer B.SilkS) (width 0.12))
    (fp_line (start -0.7 0.95) (end -0.7 -1.5) (layer B.Fab) (width 0.1))
    (fp_line (start -0.15 1.52) (end 0.7 1.52) (layer B.Fab) (width 0.1))
    (fp_line (start -0.7 0.95) (end -0.15 1.52) (layer B.Fab) (width 0.1))
    (fp_line (start 0.7 1.52) (end 0.7 -1.52) (layer B.Fab) (width 0.1))
    (fp_line (start -0.7 -1.52) (end 0.7 -1.52) (layer B.Fab) (width 0.1))
    (fp_line (start 0.76 -1.58) (end -0.7 -1.58) (layer B.SilkS) (width 0.12))
    (pad 1 smd rect (at -1.5 0.95 270) (size 1.9 0.8) (layers B.Cu B.Paste B.Mask)
      (net 12 "Net-(Q1-Pad1)"))
    (pad 2 smd rect (at -1.5 -0.95 270) (size 1.9 0.8) (layers B.Cu B.Paste B.Mask)
      (net 2 GND))
    (pad 3 smd rect (at 1.5 0 270) (size 1.9 0.8) (layers B.Cu B.Paste B.Mask)
      (net 10 ADPS_GND))
    (model ${KISYS3DMOD}/TO_SOT_Packages_SMD.3dshapes\SOT-23.wrl
      (at (xyz 0 0 0))
      (scale (xyz 1 1 1))
      (rotate (xyz 0 0 0))
    )
  )

  (module Resistors_SMD:R_1206_HandSoldering (layer B.Cu) (tedit 58E0A804) (tstamp 5A090324)
    (at 125.138 118.21 270)
    (descr "Resistor SMD 1206, hand soldering")
    (tags "resistor 1206")
    (path /5A0916FB)
    (attr smd)
    (fp_text reference R1 (at 0 1.85 270) (layer B.SilkS)
      (effects (font (size 1 1) (thickness 0.15)) (justify mirror))
    )
    (fp_text value 0R (at 0 -1.9 270) (layer B.Fab)
      (effects (font (size 1 1) (thickness 0.15)) (justify mirror))
    )
    (fp_text user %R (at 0 0 270) (layer B.Fab)
      (effects (font (size 0.7 0.7) (thickness 0.105)) (justify mirror))
    )
    (fp_line (start -1.6 -0.8) (end -1.6 0.8) (layer B.Fab) (width 0.1))
    (fp_line (start 1.6 -0.8) (end -1.6 -0.8) (layer B.Fab) (width 0.1))
    (fp_line (start 1.6 0.8) (end 1.6 -0.8) (layer B.Fab) (width 0.1))
    (fp_line (start -1.6 0.8) (end 1.6 0.8) (layer B.Fab) (width 0.1))
    (fp_line (start 1 -1.07) (end -1 -1.07) (layer B.SilkS) (width 0.12))
    (fp_line (start -1 1.07) (end 1 1.07) (layer B.SilkS) (width 0.12))
    (fp_line (start -3.25 1.11) (end 3.25 1.11) (layer B.CrtYd) (width 0.05))
    (fp_line (start -3.25 1.11) (end -3.25 -1.1) (layer B.CrtYd) (width 0.05))
    (fp_line (start 3.25 -1.1) (end 3.25 1.11) (layer B.CrtYd) (width 0.05))
    (fp_line (start 3.25 -1.1) (end -3.25 -1.1) (layer B.CrtYd) (width 0.05))
    (pad 1 smd rect (at -2 0 270) (size 2 1.7) (layers B.Cu B.Paste B.Mask)
      (net 12 "Net-(Q1-Pad1)"))
    (pad 2 smd rect (at 2 0 270) (size 2 1.7) (layers B.Cu B.Paste B.Mask)
      (net 9 EN3))
    (model ${KISYS3DMOD}/Resistors_SMD.3dshapes/R_1206.wrl
      (at (xyz 0 0 0))
      (scale (xyz 1 1 1))
      (rotate (xyz 0 0 0))
    )
  )

  (module Resistors_SMD:R_1206_HandSoldering (layer B.Cu) (tedit 58E0A804) (tstamp 5A09032A)
    (at 144.7 101.01 270)
    (descr "Resistor SMD 1206, hand soldering")
    (tags "resistor 1206")
    (path /5A0960C0)
    (attr smd)
    (fp_text reference R2 (at 0 1.85 270) (layer B.SilkS)
      (effects (font (size 1 1) (thickness 0.15)) (justify mirror))
    )
    (fp_text value 4k7 (at 0 -1.9 270) (layer B.Fab)
      (effects (font (size 1 1) (thickness 0.15)) (justify mirror))
    )
    (fp_text user %R (at 0 0 270) (layer B.Fab)
      (effects (font (size 0.7 0.7) (thickness 0.105)) (justify mirror))
    )
    (fp_line (start -1.6 -0.8) (end -1.6 0.8) (layer B.Fab) (width 0.1))
    (fp_line (start 1.6 -0.8) (end -1.6 -0.8) (layer B.Fab) (width 0.1))
    (fp_line (start 1.6 0.8) (end 1.6 -0.8) (layer B.Fab) (width 0.1))
    (fp_line (start -1.6 0.8) (end 1.6 0.8) (layer B.Fab) (width 0.1))
    (fp_line (start 1 -1.07) (end -1 -1.07) (layer B.SilkS) (width 0.12))
    (fp_line (start -1 1.07) (end 1 1.07) (layer B.SilkS) (width 0.12))
    (fp_line (start -3.25 1.11) (end 3.25 1.11) (layer B.CrtYd) (width 0.05))
    (fp_line (start -3.25 1.11) (end -3.25 -1.1) (layer B.CrtYd) (width 0.05))
    (fp_line (start 3.25 -1.1) (end 3.25 1.11) (layer B.CrtYd) (width 0.05))
    (fp_line (start 3.25 -1.1) (end -3.25 -1.1) (layer B.CrtYd) (width 0.05))
    (pad 1 smd rect (at -2 0 270) (size 2 1.7) (layers B.Cu B.Paste B.Mask)
      (net 1 3V3))
    (pad 2 smd rect (at 2 0 270) (size 2 1.7) (layers B.Cu B.Paste B.Mask)
      (net 3 SDA))
    (model ${KISYS3DMOD}/Resistors_SMD.3dshapes/R_1206.wrl
      (at (xyz 0 0 0))
      (scale (xyz 1 1 1))
      (rotate (xyz 0 0 0))
    )
  )

  (module Resistors_SMD:R_1206_HandSoldering (layer B.Cu) (tedit 58E0A804) (tstamp 5A090330)
    (at 148.336 103.124 270)
    (descr "Resistor SMD 1206, hand soldering")
    (tags "resistor 1206")
    (path /5A096208)
    (attr smd)
    (fp_text reference R3 (at 0 1.85 270) (layer B.SilkS)
      (effects (font (size 1 1) (thickness 0.15)) (justify mirror))
    )
    (fp_text value 4k7 (at 0 -1.9 270) (layer B.Fab)
      (effects (font (size 1 1) (thickness 0.15)) (justify mirror))
    )
    (fp_text user %R (at 0 0 270) (layer B.Fab)
      (effects (font (size 0.7 0.7) (thickness 0.105)) (justify mirror))
    )
    (fp_line (start -1.6 -0.8) (end -1.6 0.8) (layer B.Fab) (width 0.1))
    (fp_line (start 1.6 -0.8) (end -1.6 -0.8) (layer B.Fab) (width 0.1))
    (fp_line (start 1.6 0.8) (end 1.6 -0.8) (layer B.Fab) (width 0.1))
    (fp_line (start -1.6 0.8) (end 1.6 0.8) (layer B.Fab) (width 0.1))
    (fp_line (start 1 -1.07) (end -1 -1.07) (layer B.SilkS) (width 0.12))
    (fp_line (start -1 1.07) (end 1 1.07) (layer B.SilkS) (width 0.12))
    (fp_line (start -3.25 1.11) (end 3.25 1.11) (layer B.CrtYd) (width 0.05))
    (fp_line (start -3.25 1.11) (end -3.25 -1.1) (layer B.CrtYd) (width 0.05))
    (fp_line (start 3.25 -1.1) (end 3.25 1.11) (layer B.CrtYd) (width 0.05))
    (fp_line (start 3.25 -1.1) (end -3.25 -1.1) (layer B.CrtYd) (width 0.05))
    (pad 1 smd rect (at -2 0 270) (size 2 1.7) (layers B.Cu B.Paste B.Mask)
      (net 1 3V3))
    (pad 2 smd rect (at 2 0 270) (size 2 1.7) (layers B.Cu B.Paste B.Mask)
      (net 4 SCL))
    (model ${KISYS3DMOD}/Resistors_SMD.3dshapes/R_1206.wrl
      (at (xyz 0 0 0))
      (scale (xyz 1 1 1))
      (rotate (xyz 0 0 0))
    )
  )

  (module Resistors_SMD:R_0805_HandSoldering (layer B.Cu) (tedit 58E0A804) (tstamp 5A090336)
    (at 126.492 113.792)
    (descr "Resistor SMD 0805, hand soldering")
    (tags "resistor 0805")
    (path /5A0916E7)
    (attr smd)
    (fp_text reference R4 (at 0 1.7) (layer B.SilkS)
      (effects (font (size 1 1) (thickness 0.15)) (justify mirror))
    )
    (fp_text value 100K (at 0 -1.75) (layer B.Fab)
      (effects (font (size 1 1) (thickness 0.15)) (justify mirror))
    )
    (fp_text user %R (at 0 0) (layer B.Fab)
      (effects (font (size 0.5 0.5) (thickness 0.075)) (justify mirror))
    )
    (fp_line (start -1 -0.62) (end -1 0.62) (layer B.Fab) (width 0.1))
    (fp_line (start 1 -0.62) (end -1 -0.62) (layer B.Fab) (width 0.1))
    (fp_line (start 1 0.62) (end 1 -0.62) (layer B.Fab) (width 0.1))
    (fp_line (start -1 0.62) (end 1 0.62) (layer B.Fab) (width 0.1))
    (fp_line (start 0.6 -0.88) (end -0.6 -0.88) (layer B.SilkS) (width 0.12))
    (fp_line (start -0.6 0.88) (end 0.6 0.88) (layer B.SilkS) (width 0.12))
    (fp_line (start -2.35 0.9) (end 2.35 0.9) (layer B.CrtYd) (width 0.05))
    (fp_line (start -2.35 0.9) (end -2.35 -0.9) (layer B.CrtYd) (width 0.05))
    (fp_line (start 2.35 -0.9) (end 2.35 0.9) (layer B.CrtYd) (width 0.05))
    (fp_line (start 2.35 -0.9) (end -2.35 -0.9) (layer B.CrtYd) (width 0.05))
    (pad 1 smd rect (at -1.35 0) (size 1.5 1.3) (layers B.Cu B.Paste B.Mask)
      (net 12 "Net-(Q1-Pad1)"))
    (pad 2 smd rect (at 1.35 0) (size 1.5 1.3) (layers B.Cu B.Paste B.Mask)
      (net 2 GND))
    (model ${KISYS3DMOD}/Resistors_SMD.3dshapes/R_0805.wrl
      (at (xyz 0 0 0))
      (scale (xyz 1 1 1))
      (rotate (xyz 0 0 0))
    )
  )

  (module Mounting_Holes:MountingHole_3.2mm_M3_DIN965_Pad (layer F.Cu) (tedit 5A090430) (tstamp 5A0903F6)
    (at 149.55 115.85)
    (descr "Mounting Hole 3.2mm, M3, DIN965")
    (tags "mounting hole 3.2mm m3 din965")
    (attr virtual)
    (fp_text reference REF** (at 0 -3.8) (layer F.SilkS)
      (effects (font (size 1 1) (thickness 0.15)))
    )
    (fp_text value MountingHole_3.2mm_M3_DIN965_Pad (at 0 3.8) (layer F.Fab)
      (effects (font (size 1 1) (thickness 0.15)))
    )
    (fp_text user %R (at 0.3 0) (layer F.Fab)
      (effects (font (size 1 1) (thickness 0.15)))
    )
    (fp_circle (center 0 0) (end 2.8 0) (layer Cmts.User) (width 0.15))
    (fp_circle (center 0 0) (end 3.05 0) (layer F.CrtYd) (width 0.05))
    (pad 1 thru_hole circle (at 0.02 0) (size 5.6 5.6) (drill 3.2) (layers *.Cu *.Mask))
  )

  (module Mounting_Holes:MountingHole_2.2mm_M2_DIN965_Pad (layer F.Cu) (tedit 56D1B4CB) (tstamp 5A090516)
    (at 150.335 96.625)
    (descr "Mounting Hole 2.2mm, M2, DIN965")
    (tags "mounting hole 2.2mm m2 din965")
    (attr virtual)
    (fp_text reference REF** (at 0 -2.9) (layer F.SilkS)
      (effects (font (size 1 1) (thickness 0.15)))
    )
    (fp_text value MountingHole_2.2mm_M2_DIN965_Pad (at 0 2.9) (layer F.Fab)
      (effects (font (size 1 1) (thickness 0.15)))
    )
    (fp_text user %R (at 0.3 0) (layer F.Fab)
      (effects (font (size 1 1) (thickness 0.15)))
    )
    (fp_circle (center 0 0) (end 1.9 0) (layer Cmts.User) (width 0.15))
    (fp_circle (center 0 0) (end 2.15 0) (layer F.CrtYd) (width 0.05))
    (pad 1 thru_hole circle (at 0 0) (size 3.8 3.8) (drill 2.2) (layers *.Cu *.Mask))
  )

  (gr_line (start 109.54 137.01) (end 109.54 62.03) (layer Edge.Cuts) (width 0.15))
  (gr_line (start 184.53 137.01) (end 109.54 137.01) (layer Edge.Cuts) (width 0.15))
  (gr_line (start 184.54 62.03) (end 184.53 137.01) (layer Edge.Cuts) (width 0.15))
  (gr_line (start 109.54 62.03) (end 184.54 62.03) (layer Edge.Cuts) (width 0.15))
  (gr_circle (center 114.54 132.02) (end 116.04 132.02) (layer Dwgs.User) (width 0.1))
  (gr_line (start 152.11 113.302) (end 131.79 113.302) (layer Dwgs.User) (width 0.1))
  (gr_line (start 149.01 122.102) (end 149.01 119.742) (layer Dwgs.User) (width 0.1))
  (gr_circle (center 136.94 79.6) (end 137.45 79.6) (layer Dwgs.User) (width 0.1))
  (gr_line (start 152.84 94.12) (end 140.14 94.12) (layer Dwgs.User) (width 0.1))
  (gr_circle (center 136.94 74.52) (end 137.45 74.52) (layer Dwgs.User) (width 0.1))
  (gr_line (start 149.24 104.22) (end 149.24 101.82) (layer Dwgs.User) (width 0.1))
  (gr_circle (center 133.337 122.192) (end 133.847 122.192) (layer Dwgs.User) (width 0.1))
  (gr_circle (center 147.44 71.92) (end 148.84 71.92) (layer Dwgs.User) (width 0.1))
  (gr_line (start 134.94 68.92) (end 134.94 92.72) (layer Dwgs.User) (width 0.1))
  (gr_line (start 152.11 128.542) (end 152.11 113.302) (layer Dwgs.User) (width 0.1))
  (gr_line (start 131.79 113.302) (end 131.79 128.542) (layer Dwgs.User) (width 0.1))
  (gr_line (start 131.79 128.542) (end 152.11 128.542) (layer Dwgs.User) (width 0.1))
  (gr_circle (center 133.337 124.732) (end 133.847 124.732) (layer Dwgs.User) (width 0.1))
  (gr_circle (center 136.94 87.22) (end 137.45 87.22) (layer Dwgs.User) (width 0.1))
  (gr_line (start 145.07 119.742) (end 145.07 122.102) (layer Dwgs.User) (width 0.1))
  (gr_line (start 140.14 111.92) (end 152.84 111.92) (layer Dwgs.User) (width 0.1))
  (gr_circle (center 141.41 100.47) (end 141.92 100.47) (layer Dwgs.User) (width 0.1))
  (gr_circle (center 150.34 109.42) (end 151.44 109.42) (layer Dwgs.User) (width 0.1))
  (gr_circle (center 141.41 110.63) (end 141.92 110.63) (layer Dwgs.User) (width 0.1))
  (gr_circle (center 147.44 89.72) (end 148.84 89.72) (layer Dwgs.User) (width 0.1))
  (gr_circle (center 133.337 114.572) (end 133.847 114.572) (layer Dwgs.User) (width 0.1))
  (gr_circle (center 133.337 117.112) (end 133.847 117.112) (layer Dwgs.User) (width 0.1))
  (gr_line (start 144.84 101.82) (end 144.84 104.22) (layer Dwgs.User) (width 0.1))
  (gr_circle (center 141.41 103.01) (end 141.92 103.01) (layer Dwgs.User) (width 0.1))
  (gr_line (start 134.94 92.72) (end 150.44 92.72) (layer Dwgs.User) (width 0.1))
  (gr_circle (center 149.57 126.002) (end 151.07 126.002) (layer Dwgs.User) (width 0.1))
  (gr_line (start 149.44 80.62) (end 144.64 80.62) (layer Dwgs.User) (width 0.1))
  (gr_circle (center 133.337 119.652) (end 133.847 119.652) (layer Dwgs.User) (width 0.1))
  (gr_circle (center 136.94 84.68) (end 137.45 84.68) (layer Dwgs.User) (width 0.1))
  (gr_circle (center 133.337 127.272) (end 133.847 127.272) (layer Dwgs.User) (width 0.1))
  (gr_circle (center 136.94 82.14) (end 137.45 82.14) (layer Dwgs.User) (width 0.1))
  (gr_circle (center 136.94 77.06) (end 137.45 77.06) (layer Dwgs.User) (width 0.1))
  (gr_circle (center 149.57 115.842) (end 151.07 115.842) (layer Dwgs.User) (width 0.1))
  (gr_circle (center 141.41 105.55) (end 141.92 105.55) (layer Dwgs.User) (width 0.1))
  (gr_circle (center 141.41 108.09) (end 141.92 108.09) (layer Dwgs.User) (width 0.1))
  (gr_line (start 150.44 92.72) (end 150.44 68.92) (layer Dwgs.User) (width 0.1))
  (gr_circle (center 141.41 97.93) (end 141.92 97.93) (layer Dwgs.User) (width 0.1))
  (gr_line (start 145.07 122.102) (end 149.01 122.102) (layer Dwgs.User) (width 0.1))
  (gr_circle (center 141.41 95.39) (end 141.92 95.39) (layer Dwgs.User) (width 0.1))
  (gr_line (start 149.24 101.82) (end 144.84 101.82) (layer Dwgs.User) (width 0.1))
  (gr_line (start 150.44 68.92) (end 134.94 68.92) (layer Dwgs.User) (width 0.1))
  (gr_line (start 152.84 111.92) (end 152.84 94.12) (layer Dwgs.User) (width 0.1))
  (gr_line (start 144.84 104.22) (end 149.24 104.22) (layer Dwgs.User) (width 0.1))
  (gr_circle (center 150.34 96.62) (end 151.44 96.62) (layer Dwgs.User) (width 0.1))
  (gr_line (start 149.01 119.742) (end 145.07 119.742) (layer Dwgs.User) (width 0.1))
  (gr_line (start 140.14 94.12) (end 140.14 111.92) (layer Dwgs.User) (width 0.1))
  (gr_line (start 149.44 83.42) (end 149.44 80.62) (layer Dwgs.User) (width 0.1))
  (gr_line (start 109.54 137.02) (end 184.54 137.02) (layer Dwgs.User) (width 0.1))
  (gr_line (start 184.54 62.02) (end 109.54 62.02) (layer Dwgs.User) (width 0.1))
  (gr_circle (center 179.54 67.02) (end 181.04 67.02) (layer Dwgs.User) (width 0.1))
  (gr_line (start 109.54 62.02) (end 109.54 137.02) (layer Dwgs.User) (width 0.1))
  (gr_circle (center 179.54 132.02) (end 181.04 132.02) (layer Dwgs.User) (width 0.1))
  (gr_circle (center 114.54 67.02) (end 116.04 67.02) (layer Dwgs.User) (width 0.1))
  (gr_line (start 184.54 137.02) (end 184.54 62.02) (layer Dwgs.User) (width 0.1))
  (gr_line (start 144.64 80.62) (end 144.64 83.42) (layer Dwgs.User) (width 0.1))
  (gr_line (start 144.64 83.42) (end 149.44 83.42) (layer Dwgs.User) (width 0.1))

  (segment (start 136.94 77.07) (end 138.43 77.07) (width 0.8) (layer B.Cu) (net 1))
  (segment (start 138.43 77.07) (end 139.192 77.832) (width 0.8) (layer B.Cu) (net 1))
  (segment (start 139.192 77.832) (end 139.192 97.94) (width 0.8) (layer B.Cu) (net 1))
  (segment (start 138.43 97.94) (end 139.192 97.94) (width 0.8) (layer B.Cu) (net 1))
  (segment (start 139.192 97.94) (end 141.090002 97.94) (width 0.8) (layer B.Cu) (net 1))
  (segment (start 121.37 97.94) (end 138.43 97.94) (width 0.8) (layer B.Cu) (net 1))
  (segment (start 138.290001 97.800001) (end 138.43 97.94) (width 0.5) (layer B.Cu) (net 1))
  (segment (start 144.7 99.01) (end 143.352 99.01) (width 0.5) (layer B.Cu) (net 1))
  (segment (start 143.352 99.01) (end 142.282 97.94) (width 0.5) (layer B.Cu) (net 1))
  (segment (start 142.282 97.94) (end 141.41 97.94) (width 0.5) (layer B.Cu) (net 1))
  (segment (start 148.336 101.5) (end 148.336 100) (width 0.5) (layer B.Cu) (net 1))
  (segment (start 147.346 99.01) (end 146.05 99.01) (width 0.5) (layer B.Cu) (net 1))
  (segment (start 148.336 100) (end 147.346 99.01) (width 0.5) (layer B.Cu) (net 1))
  (segment (start 146.05 99.01) (end 144.7 99.01) (width 0.5) (layer B.Cu) (net 1))
  (segment (start 141.41 97.94) (end 139.152 97.94) (width 0.8) (layer F.Cu) (net 1))
  (segment (start 139.152 97.94) (end 136.018 101.074) (width 0.8) (layer F.Cu) (net 1))
  (segment (start 136.018 118.854) (end 135.212 119.66) (width 0.8) (layer F.Cu) (net 1))
  (segment (start 136.018 101.074) (end 136.018 118.854) (width 0.8) (layer F.Cu) (net 1))
  (segment (start 135.212 119.66) (end 133.33 119.66) (width 0.8) (layer F.Cu) (net 1))
  (segment (start 141.92 97.94) (end 141.41 97.94) (width 0.8) (layer B.Cu) (net 1))
  (segment (start 141.090002 97.94) (end 141.41 97.94) (width 0.8) (layer B.Cu) (net 1))
  (segment (start 136.94 79.61) (end 132.682 79.61) (width 0.5) (layer F.Cu) (net 3))
  (segment (start 132.682 79.61) (end 124.07 88.222) (width 0.5) (layer F.Cu) (net 3))
  (segment (start 124.07 88.222) (end 124.07 102.446315) (width 0.5) (layer F.Cu) (net 3))
  (segment (start 124.07 102.446315) (end 124.07 103.012) (width 0.5) (layer F.Cu) (net 3))
  (segment (start 124.062 103.02) (end 124.07 103.012) (width 0.5) (layer B.Cu) (net 3))
  (segment (start 121.37 103.02) (end 124.062 103.02) (width 0.5) (layer B.Cu) (net 3))
  (segment (start 124.078 103.02) (end 124.07 103.012) (width 0.5) (layer B.Cu) (net 3))
  (segment (start 141.41 103.02) (end 124.078 103.02) (width 0.5) (layer B.Cu) (net 3))
  (via (at 124.07 103.012) (size 0.8) (drill 0.4) (layers F.Cu B.Cu) (net 3))
  (segment (start 144.7 103.01) (end 141.42 103.01) (width 0.5) (layer B.Cu) (net 3))
  (segment (start 141.42 103.01) (end 141.41 103.02) (width 0.5) (layer B.Cu) (net 3))
  (segment (start 133.33 122.2) (end 135.466 122.2) (width 0.5) (layer F.Cu) (net 3))
  (segment (start 135.466 122.2) (end 137.542 120.124) (width 0.5) (layer F.Cu) (net 3))
  (segment (start 137.542 120.124) (end 137.542 104.884) (width 0.5) (layer F.Cu) (net 3))
  (segment (start 137.542 104.884) (end 139.406 103.02) (width 0.5) (layer F.Cu) (net 3))
  (segment (start 139.406 103.02) (end 141.41 103.02) (width 0.5) (layer F.Cu) (net 3))
  (segment (start 136.94 82.15) (end 133.65 82.15) (width 0.5) (layer F.Cu) (net 4))
  (segment (start 133.65 82.15) (end 126.85 88.95) (width 0.5) (layer F.Cu) (net 4))
  (segment (start 126.85 88.95) (end 126.85 104.996315) (width 0.5) (layer F.Cu) (net 4))
  (segment (start 126.85 104.996315) (end 126.85 105.562) (width 0.5) (layer F.Cu) (net 4))
  (segment (start 141.41 105.56) (end 126.852 105.56) (width 0.5) (layer B.Cu) (net 4))
  (segment (start 126.848 105.56) (end 126.85 105.562) (width 0.5) (layer B.Cu) (net 4))
  (segment (start 121.37 105.56) (end 126.848 105.56) (width 0.5) (layer B.Cu) (net 4))
  (segment (start 126.852 105.56) (end 126.85 105.562) (width 0.5) (layer B.Cu) (net 4))
  (via (at 126.85 105.562) (size 0.8) (drill 0.4) (layers F.Cu B.Cu) (net 4))
  (segment (start 141.41 105.56) (end 147.9 105.56) (width 0.5) (layer B.Cu) (net 4))
  (segment (start 147.9 105.56) (end 148.336 105.124) (width 0.5) (layer B.Cu) (net 4))
  (segment (start 141.47 105.5) (end 141.41 105.56) (width 0.5) (layer B.Cu) (net 4))
  (segment (start 133.33 124.74) (end 135.72 124.74) (width 0.5) (layer F.Cu) (net 4))
  (segment (start 135.72 124.74) (end 138.812 121.648) (width 0.5) (layer F.Cu) (net 4))
  (segment (start 138.812 121.648) (end 138.812 106.154) (width 0.5) (layer F.Cu) (net 4))
  (segment (start 138.812 106.154) (end 139.406 105.56) (width 0.5) (layer F.Cu) (net 4))
  (segment (start 139.406 105.56) (end 141.41 105.56) (width 0.5) (layer F.Cu) (net 4))
  (segment (start 121.37 108.1) (end 141.41 108.1) (width 0.5) (layer B.Cu) (net 5))
  (segment (start 121.37 110.64) (end 141.41 110.64) (width 0.5) (layer B.Cu) (net 6))
  (segment (start 121.37 113.18) (end 125.69 113.18) (width 0.5) (layer F.Cu) (net 7))
  (segment (start 125.69 113.18) (end 128.398 110.472) (width 0.5) (layer F.Cu) (net 7))
  (segment (start 128.398 110.472) (end 128.398 89.894) (width 0.5) (layer F.Cu) (net 7))
  (segment (start 128.398 89.894) (end 133.602 84.69) (width 0.5) (layer F.Cu) (net 7))
  (segment (start 133.602 84.69) (end 136.94 84.69) (width 0.5) (layer F.Cu) (net 7))
  (segment (start 121.37 115.72) (end 125.944 115.72) (width 0.5) (layer F.Cu) (net 8))
  (segment (start 125.944 115.72) (end 130.08 111.584) (width 0.5) (layer F.Cu) (net 8))
  (segment (start 130.08 91.012) (end 133.862 87.23) (width 0.5) (layer F.Cu) (net 8))
  (segment (start 130.08 111.584) (end 130.08 91.012) (width 0.5) (layer F.Cu) (net 8))
  (segment (start 133.862 87.23) (end 136.94 87.23) (width 0.5) (layer F.Cu) (net 8))
  (segment (start 125.138 120.21) (end 123.32 120.21) (width 0.8) (layer B.Cu) (net 9))
  (segment (start 123.32 120.21) (end 121.37 118.26) (width 0.8) (layer B.Cu) (net 9))
  (segment (start 128.694 119.202) (end 130.844 119.202) (width 0.8) (layer B.Cu) (net 10))
  (segment (start 130.844 119.202) (end 132.926 117.12) (width 0.8) (layer B.Cu) (net 10))
  (segment (start 132.926 117.12) (end 133.33 117.12) (width 0.8) (layer B.Cu) (net 10))
  (segment (start 133.33 127.28) (end 126.71 127.28) (width 0.8) (layer B.Cu) (net 11))
  (segment (start 126.71 127.28) (end 121.37 121.94) (width 0.8) (layer B.Cu) (net 11))
  (segment (start 121.37 121.94) (end 121.37 120.8) (width 0.8) (layer B.Cu) (net 11))
  (segment (start 125.138 116.21) (end 125.138 113.796) (width 0.8) (layer B.Cu) (net 12))
  (segment (start 125.138 113.796) (end 125.142 113.792) (width 0.8) (layer B.Cu) (net 12))
  (segment (start 127.744 116.202) (end 125.146 116.202) (width 0.8) (layer B.Cu) (net 12))
  (segment (start 125.146 116.202) (end 125.138 116.21) (width 0.8) (layer B.Cu) (net 12))

  (zone (net 2) (net_name GND) (layer F.Cu) (tstamp 0) (hatch edge 0.508)
    (connect_pads (clearance 0.508))
    (min_thickness 0.254)
    (fill yes (arc_segments 16) (thermal_gap 0.508) (thermal_bridge_width 0.508))
    (polygon
      (pts
        (xy 109.54 62.03) (xy 184.54 62.03) (xy 184.54 137.01) (xy 109.54 137)
      )
    )
    (filled_polygon
      (pts
        (xy 183.820095 136.3) (xy 110.25 136.3) (xy 110.25 132.710266) (xy 111.104405 132.710266) (xy 111.62625 133.973229)
        (xy 112.591688 134.940354) (xy 113.853739 135.464403) (xy 115.220266 135.465595) (xy 116.483229 134.94375) (xy 117.450354 133.978312)
        (xy 117.974403 132.716261) (xy 117.974408 132.710266) (xy 176.104405 132.710266) (xy 176.62625 133.973229) (xy 177.591688 134.940354)
        (xy 178.853739 135.464403) (xy 180.220266 135.465595) (xy 181.483229 134.94375) (xy 182.450354 133.978312) (xy 182.974403 132.716261)
        (xy 182.975595 131.349734) (xy 182.45375 130.086771) (xy 181.488312 129.119646) (xy 180.226261 128.595597) (xy 178.859734 128.594405)
        (xy 177.596771 129.11625) (xy 176.629646 130.081688) (xy 176.105597 131.343739) (xy 176.104405 132.710266) (xy 117.974408 132.710266)
        (xy 117.975595 131.349734) (xy 117.45375 130.086771) (xy 116.488312 129.119646) (xy 115.226261 128.595597) (xy 113.859734 128.594405)
        (xy 112.596771 129.11625) (xy 111.629646 130.081688) (xy 111.105597 131.343739) (xy 111.104405 132.710266) (xy 110.25 132.710266)
        (xy 110.25 103.02) (xy 119.855907 103.02) (xy 119.968946 103.588285) (xy 120.290853 104.070054) (xy 120.620026 104.29)
        (xy 120.290853 104.509946) (xy 119.968946 104.991715) (xy 119.855907 105.56) (xy 119.968946 106.128285) (xy 120.290853 106.610054)
        (xy 120.620026 106.83) (xy 120.290853 107.049946) (xy 119.968946 107.531715) (xy 119.855907 108.1) (xy 119.968946 108.668285)
        (xy 120.290853 109.150054) (xy 120.620026 109.37) (xy 120.290853 109.589946) (xy 119.968946 110.071715) (xy 119.855907 110.64)
        (xy 119.968946 111.208285) (xy 120.290853 111.690054) (xy 120.620026 111.91) (xy 120.290853 112.129946) (xy 119.968946 112.611715)
        (xy 119.855907 113.18) (xy 119.968946 113.748285) (xy 120.290853 114.230054) (xy 120.620026 114.45) (xy 120.290853 114.669946)
        (xy 119.968946 115.151715) (xy 119.855907 115.72) (xy 119.968946 116.288285) (xy 120.290853 116.770054) (xy 120.620026 116.99)
        (xy 120.290853 117.209946) (xy 119.968946 117.691715) (xy 119.855907 118.26) (xy 119.968946 118.828285) (xy 120.290853 119.310054)
        (xy 120.620026 119.53) (xy 120.290853 119.749946) (xy 119.968946 120.231715) (xy 119.855907 120.8) (xy 119.968946 121.368285)
        (xy 120.290853 121.850054) (xy 120.772622 122.171961) (xy 121.340907 122.285) (xy 121.399093 122.285) (xy 121.967378 122.171961)
        (xy 122.449147 121.850054) (xy 122.771054 121.368285) (xy 122.884093 120.8) (xy 122.771054 120.231715) (xy 122.449147 119.749946)
        (xy 122.119974 119.53) (xy 122.449147 119.310054) (xy 122.771054 118.828285) (xy 122.884093 118.26) (xy 122.771054 117.691715)
        (xy 122.449147 117.209946) (xy 122.314534 117.12) (xy 131.815907 117.12) (xy 131.928946 117.688285) (xy 132.250853 118.170054)
        (xy 132.580026 118.39) (xy 132.250853 118.609946) (xy 131.928946 119.091715) (xy 131.815907 119.66) (xy 131.928946 120.228285)
        (xy 132.250853 120.710054) (xy 132.580026 120.93) (xy 132.250853 121.149946) (xy 131.928946 121.631715) (xy 131.815907 122.2)
        (xy 131.928946 122.768285) (xy 132.250853 123.250054) (xy 132.580026 123.47) (xy 132.250853 123.689946) (xy 131.928946 124.171715)
        (xy 131.815907 124.74) (xy 131.928946 125.308285) (xy 132.250853 125.790054) (xy 132.580026 126.01) (xy 132.250853 126.229946)
        (xy 131.928946 126.711715) (xy 131.815907 127.28) (xy 131.928946 127.848285) (xy 132.250853 128.330054) (xy 132.732622 128.651961)
        (xy 133.300907 128.765) (xy 133.359093 128.765) (xy 133.927378 128.651961) (xy 134.409147 128.330054) (xy 134.731054 127.848285)
        (xy 134.844093 127.28) (xy 134.731054 126.711715) (xy 134.710041 126.680266) (xy 146.134405 126.680266) (xy 146.65625 127.943229)
        (xy 147.621688 128.910354) (xy 148.883739 129.434403) (xy 150.250266 129.435595) (xy 151.513229 128.91375) (xy 152.480354 127.948312)
        (xy 153.004403 126.686261) (xy 153.005595 125.319734) (xy 152.48375 124.056771) (xy 151.518312 123.089646) (xy 150.256261 122.565597)
        (xy 148.889734 122.564405) (xy 147.626771 123.08625) (xy 146.659646 124.051688) (xy 146.135597 125.313739) (xy 146.134405 126.680266)
        (xy 134.710041 126.680266) (xy 134.409147 126.229946) (xy 134.079974 126.01) (xy 134.409147 125.790054) (xy 134.519432 125.625)
        (xy 135.719995 125.625) (xy 135.72 125.625001) (xy 136.002484 125.56881) (xy 136.058675 125.557633) (xy 136.34579 125.36579)
        (xy 139.437787 122.273792) (xy 139.43779 122.27379) (xy 139.629633 121.986675) (xy 139.697 121.648) (xy 139.697 116.530266)
        (xy 146.134405 116.530266) (xy 146.65625 117.793229) (xy 147.621688 118.760354) (xy 148.883739 119.284403) (xy 150.250266 119.285595)
        (xy 151.513229 118.76375) (xy 152.480354 117.798312) (xy 153.004403 116.536261) (xy 153.005595 115.169734) (xy 152.48375 113.906771)
        (xy 151.518312 112.939646) (xy 150.256261 112.415597) (xy 148.889734 112.414405) (xy 147.626771 112.93625) (xy 146.659646 113.901688)
        (xy 146.135597 115.163739) (xy 146.134405 116.530266) (xy 139.697 116.530266) (xy 139.697 106.52058) (xy 139.772579 106.445)
        (xy 140.220568 106.445) (xy 140.330853 106.610054) (xy 140.660026 106.83) (xy 140.330853 107.049946) (xy 140.008946 107.531715)
        (xy 139.895907 108.1) (xy 140.008946 108.668285) (xy 140.330853 109.150054) (xy 140.660026 109.37) (xy 140.330853 109.589946)
        (xy 140.008946 110.071715) (xy 139.895907 110.64) (xy 140.008946 111.208285) (xy 140.330853 111.690054) (xy 140.812622 112.011961)
        (xy 141.380907 112.125) (xy 141.439093 112.125) (xy 142.007378 112.011961) (xy 142.489147 111.690054) (xy 142.811054 111.208285)
        (xy 142.924093 110.64) (xy 142.811054 110.071715) (xy 142.71438 109.927031) (xy 147.799561 109.927031) (xy 148.184678 110.859086)
        (xy 148.897163 111.572816) (xy 149.828545 111.959559) (xy 150.837031 111.960439) (xy 151.769086 111.575322) (xy 152.482816 110.862837)
        (xy 152.869559 109.931455) (xy 152.870439 108.922969) (xy 152.485322 107.990914) (xy 151.772837 107.277184) (xy 150.841455 106.890441)
        (xy 149.832969 106.889561) (xy 148.900914 107.274678) (xy 148.187184 107.987163) (xy 147.800441 108.918545) (xy 147.799561 109.927031)
        (xy 142.71438 109.927031) (xy 142.489147 109.589946) (xy 142.159974 109.37) (xy 142.489147 109.150054) (xy 142.811054 108.668285)
        (xy 142.924093 108.1) (xy 142.811054 107.531715) (xy 142.489147 107.049946) (xy 142.159974 106.83) (xy 142.489147 106.610054)
        (xy 142.811054 106.128285) (xy 142.924093 105.56) (xy 142.811054 104.991715) (xy 142.489147 104.509946) (xy 142.159974 104.29)
        (xy 142.489147 104.070054) (xy 142.811054 103.588285) (xy 142.924093 103.02) (xy 142.811054 102.451715) (xy 142.489147 101.969946)
        (xy 142.148447 101.742298) (xy 142.291358 101.675183) (xy 142.681645 101.246924) (xy 142.851476 100.83689) (xy 142.730155 100.607)
        (xy 141.537 100.607) (xy 141.537 100.627) (xy 141.283 100.627) (xy 141.283 100.607) (xy 140.089845 100.607)
        (xy 139.968524 100.83689) (xy 140.138355 101.246924) (xy 140.528642 101.675183) (xy 140.671553 101.742298) (xy 140.330853 101.969946)
        (xy 140.220568 102.135) (xy 139.406005 102.135) (xy 139.406 102.134999) (xy 139.067325 102.202367) (xy 138.78021 102.39421)
        (xy 138.780208 102.394213) (xy 137.053 104.12142) (xy 137.053 101.502712) (xy 139.580711 98.975) (xy 140.320794 98.975)
        (xy 140.330853 98.990054) (xy 140.671553 99.217702) (xy 140.528642 99.284817) (xy 140.138355 99.713076) (xy 139.968524 100.12311)
        (xy 140.089845 100.353) (xy 141.283 100.353) (xy 141.283 100.333) (xy 141.537 100.333) (xy 141.537 100.353)
        (xy 142.730155 100.353) (xy 142.851476 100.12311) (xy 142.681645 99.713076) (xy 142.291358 99.284817) (xy 142.148447 99.217702)
        (xy 142.489147 98.990054) (xy 142.811054 98.508285) (xy 142.924093 97.94) (xy 142.811054 97.371715) (xy 142.647562 97.127031)
        (xy 147.799561 97.127031) (xy 148.184678 98.059086) (xy 148.897163 98.772816) (xy 149.828545 99.159559) (xy 150.837031 99.160439)
        (xy 151.769086 98.775322) (xy 152.482816 98.062837) (xy 152.869559 97.131455) (xy 152.870439 96.122969) (xy 152.485322 95.190914)
        (xy 151.772837 94.477184) (xy 150.841455 94.090441) (xy 149.832969 94.089561) (xy 148.900914 94.474678) (xy 148.187184 95.187163)
        (xy 147.800441 96.118545) (xy 147.799561 97.127031) (xy 142.647562 97.127031) (xy 142.489147 96.889946) (xy 142.447548 96.86215)
        (xy 142.495317 96.853162) (xy 142.711441 96.71409) (xy 142.856431 96.50189) (xy 142.90744 96.25) (xy 142.90744 94.55)
        (xy 142.863162 94.314683) (xy 142.72409 94.098559) (xy 142.51189 93.953569) (xy 142.26 93.90256) (xy 140.56 93.90256)
        (xy 140.324683 93.946838) (xy 140.108559 94.08591) (xy 139.963569 94.29811) (xy 139.91256 94.55) (xy 139.91256 96.25)
        (xy 139.956838 96.485317) (xy 140.09591 96.701441) (xy 140.30811 96.846431) (xy 140.375541 96.860086) (xy 140.330853 96.889946)
        (xy 140.320794 96.905) (xy 139.152 96.905) (xy 138.755922 96.983785) (xy 138.621429 97.073651) (xy 138.420144 97.208144)
        (xy 138.420142 97.208147) (xy 135.286144 100.342144) (xy 135.061785 100.677923) (xy 134.982999 101.074) (xy 134.983 101.074005)
        (xy 134.983 118.425289) (xy 134.783288 118.625) (xy 134.419206 118.625) (xy 134.409147 118.609946) (xy 134.079974 118.39)
        (xy 134.409147 118.170054) (xy 134.731054 117.688285) (xy 134.844093 117.12) (xy 134.731054 116.551715) (xy 134.409147 116.069946)
        (xy 134.367548 116.04215) (xy 134.415317 116.033162) (xy 134.631441 115.89409) (xy 134.776431 115.68189) (xy 134.82744 115.43)
        (xy 134.82744 113.73) (xy 134.783162 113.494683) (xy 134.64409 113.278559) (xy 134.43189 113.133569) (xy 134.18 113.08256)
        (xy 132.48 113.08256) (xy 132.244683 113.126838) (xy 132.028559 113.26591) (xy 131.883569 113.47811) (xy 131.83256 113.73)
        (xy 131.83256 115.43) (xy 131.876838 115.665317) (xy 132.01591 115.881441) (xy 132.22811 116.026431) (xy 132.295541 116.040086)
        (xy 132.250853 116.069946) (xy 131.928946 116.551715) (xy 131.815907 117.12) (xy 122.314534 117.12) (xy 122.119974 116.99)
        (xy 122.449147 116.770054) (xy 122.559432 116.605) (xy 125.943995 116.605) (xy 125.944 116.605001) (xy 126.226484 116.54881)
        (xy 126.282675 116.537633) (xy 126.56979 116.34579) (xy 130.705787 112.209792) (xy 130.70579 112.20979) (xy 130.897633 111.922675)
        (xy 130.965 111.584) (xy 130.965 91.37858) (xy 131.963313 90.380266) (xy 144.004405 90.380266) (xy 144.52625 91.643229)
        (xy 145.491688 92.610354) (xy 146.753739 93.134403) (xy 148.120266 93.135595) (xy 149.383229 92.61375) (xy 150.350354 91.648312)
        (xy 150.874403 90.386261) (xy 150.875595 89.019734) (xy 150.35375 87.756771) (xy 149.388312 86.789646) (xy 148.126261 86.265597)
        (xy 146.759734 86.264405) (xy 145.496771 86.78625) (xy 144.529646 87.751688) (xy 144.005597 89.013739) (xy 144.004405 90.380266)
        (xy 131.963313 90.380266) (xy 134.228579 88.115) (xy 135.750568 88.115) (xy 135.860853 88.280054) (xy 136.342622 88.601961)
        (xy 136.910907 88.715) (xy 136.969093 88.715) (xy 137.537378 88.601961) (xy 138.019147 88.280054) (xy 138.341054 87.798285)
        (xy 138.454093 87.23) (xy 138.341054 86.661715) (xy 138.019147 86.179946) (xy 137.689974 85.96) (xy 138.019147 85.740054)
        (xy 138.341054 85.258285) (xy 138.454093 84.69) (xy 138.341054 84.121715) (xy 138.019147 83.639946) (xy 137.689974 83.42)
        (xy 138.019147 83.200054) (xy 138.341054 82.718285) (xy 138.454093 82.15) (xy 138.341054 81.581715) (xy 138.019147 81.099946)
        (xy 137.689974 80.88) (xy 138.019147 80.660054) (xy 138.341054 80.178285) (xy 138.454093 79.61) (xy 138.341054 79.041715)
        (xy 138.019147 78.559946) (xy 137.689974 78.34) (xy 138.019147 78.120054) (xy 138.341054 77.638285) (xy 138.454093 77.07)
        (xy 138.341054 76.501715) (xy 138.019147 76.019946) (xy 137.975223 75.990597) (xy 138.149698 75.918327) (xy 138.328327 75.739699)
        (xy 138.425 75.50631) (xy 138.425 74.81575) (xy 138.26625 74.657) (xy 137.067 74.657) (xy 137.067 74.677)
        (xy 136.813 74.677) (xy 136.813 74.657) (xy 135.61375 74.657) (xy 135.455 74.81575) (xy 135.455 75.50631)
        (xy 135.551673 75.739699) (xy 135.730302 75.918327) (xy 135.904777 75.990597) (xy 135.860853 76.019946) (xy 135.538946 76.501715)
        (xy 135.425907 77.07) (xy 135.538946 77.638285) (xy 135.860853 78.120054) (xy 136.190026 78.34) (xy 135.860853 78.559946)
        (xy 135.750568 78.725) (xy 132.682005 78.725) (xy 132.682 78.724999) (xy 132.343325 78.792367) (xy 132.05621 78.98421)
        (xy 132.056208 78.984213) (xy 123.44421 87.59621) (xy 123.252367 87.883325) (xy 123.252367 87.883326) (xy 123.184999 88.222)
        (xy 123.185 88.222005) (xy 123.185 102.444415) (xy 123.03518 102.805223) (xy 123.034821 103.216971) (xy 123.192058 103.597515)
        (xy 123.482954 103.888919) (xy 123.863223 104.04682) (xy 124.274971 104.047179) (xy 124.655515 103.889942) (xy 124.946919 103.599046)
        (xy 125.10482 103.218777) (xy 125.105179 102.807029) (xy 124.955 102.443567) (xy 124.955 88.58858) (xy 133.048579 80.495)
        (xy 135.750568 80.495) (xy 135.860853 80.660054) (xy 136.190026 80.88) (xy 135.860853 81.099946) (xy 135.750568 81.265)
        (xy 133.650005 81.265) (xy 133.65 81.264999) (xy 133.311325 81.332367) (xy 133.02421 81.52421) (xy 133.024208 81.524213)
        (xy 126.22421 88.32421) (xy 126.032367 88.611325) (xy 126.032367 88.611326) (xy 125.964999 88.95) (xy 125.965 88.950005)
        (xy 125.965 104.994415) (xy 125.81518 105.355223) (xy 125.814821 105.766971) (xy 125.972058 106.147515) (xy 126.262954 106.438919)
        (xy 126.643223 106.59682) (xy 127.054971 106.597179) (xy 127.435515 106.439942) (xy 127.513 106.362592) (xy 127.513 110.105421)
        (xy 125.32342 112.295) (xy 122.559432 112.295) (xy 122.449147 112.129946) (xy 122.119974 111.91) (xy 122.449147 111.690054)
        (xy 122.771054 111.208285) (xy 122.884093 110.64) (xy 122.771054 110.071715) (xy 122.449147 109.589946) (xy 122.119974 109.37)
        (xy 122.449147 109.150054) (xy 122.771054 108.668285) (xy 122.884093 108.1) (xy 122.771054 107.531715) (xy 122.449147 107.049946)
        (xy 122.119974 106.83) (xy 122.449147 106.610054) (xy 122.771054 106.128285) (xy 122.884093 105.56) (xy 122.771054 104.991715)
        (xy 122.449147 104.509946) (xy 122.119974 104.29) (xy 122.449147 104.070054) (xy 122.771054 103.588285) (xy 122.884093 103.02)
        (xy 122.771054 102.451715) (xy 122.449147 101.969946) (xy 122.108447 101.742298) (xy 122.251358 101.675183) (xy 122.641645 101.246924)
        (xy 122.811476 100.83689) (xy 122.690155 100.607) (xy 121.497 100.607) (xy 121.497 100.627) (xy 121.243 100.627)
        (xy 121.243 100.607) (xy 120.049845 100.607) (xy 119.928524 100.83689) (xy 120.098355 101.246924) (xy 120.488642 101.675183)
        (xy 120.631553 101.742298) (xy 120.290853 101.969946) (xy 119.968946 102.451715) (xy 119.855907 103.02) (xy 110.25 103.02)
        (xy 110.25 97.09) (xy 119.87256 97.09) (xy 119.87256 98.79) (xy 119.916838 99.025317) (xy 120.05591 99.241441)
        (xy 120.26811 99.386431) (xy 120.376107 99.408301) (xy 120.098355 99.713076) (xy 119.928524 100.12311) (xy 120.049845 100.353)
        (xy 121.243 100.353) (xy 121.243 100.333) (xy 121.497 100.333) (xy 121.497 100.353) (xy 122.690155 100.353)
        (xy 122.811476 100.12311) (xy 122.641645 99.713076) (xy 122.365499 99.410063) (xy 122.455317 99.393162) (xy 122.671441 99.25409)
        (xy 122.816431 99.04189) (xy 122.86744 98.79) (xy 122.86744 97.09) (xy 122.823162 96.854683) (xy 122.68409 96.638559)
        (xy 122.47189 96.493569) (xy 122.22 96.44256) (xy 120.52 96.44256) (xy 120.284683 96.486838) (xy 120.068559 96.62591)
        (xy 119.923569 96.83811) (xy 119.87256 97.09) (xy 110.25 97.09) (xy 110.25 73.55369) (xy 135.455 73.55369)
        (xy 135.455 74.24425) (xy 135.61375 74.403) (xy 136.813 74.403) (xy 136.813 73.20375) (xy 137.067 73.20375)
        (xy 137.067 74.403) (xy 138.26625 74.403) (xy 138.425 74.24425) (xy 138.425 73.55369) (xy 138.328327 73.320301)
        (xy 138.149698 73.141673) (xy 137.916309 73.045) (xy 137.22575 73.045) (xy 137.067 73.20375) (xy 136.813 73.20375)
        (xy 136.65425 73.045) (xy 135.963691 73.045) (xy 135.730302 73.141673) (xy 135.551673 73.320301) (xy 135.455 73.55369)
        (xy 110.25 73.55369) (xy 110.25 72.600266) (xy 144.004405 72.600266) (xy 144.52625 73.863229) (xy 145.491688 74.830354)
        (xy 146.753739 75.354403) (xy 148.120266 75.355595) (xy 149.383229 74.83375) (xy 150.350354 73.868312) (xy 150.874403 72.606261)
        (xy 150.875595 71.239734) (xy 150.35375 69.976771) (xy 149.388312 69.009646) (xy 148.126261 68.485597) (xy 146.759734 68.484405)
        (xy 145.496771 69.00625) (xy 144.529646 69.971688) (xy 144.005597 71.233739) (xy 144.004405 72.600266) (xy 110.25 72.600266)
        (xy 110.25 67.710266) (xy 111.104405 67.710266) (xy 111.62625 68.973229) (xy 112.591688 69.940354) (xy 113.853739 70.464403)
        (xy 115.220266 70.465595) (xy 116.483229 69.94375) (xy 117.450354 68.978312) (xy 117.974403 67.716261) (xy 117.974408 67.710266)
        (xy 176.104405 67.710266) (xy 176.62625 68.973229) (xy 177.591688 69.940354) (xy 178.853739 70.464403) (xy 180.220266 70.465595)
        (xy 181.483229 69.94375) (xy 182.450354 68.978312) (xy 182.974403 67.716261) (xy 182.975595 66.349734) (xy 182.45375 65.086771)
        (xy 181.488312 64.119646) (xy 180.226261 63.595597) (xy 178.859734 63.594405) (xy 177.596771 64.11625) (xy 176.629646 65.081688)
        (xy 176.105597 66.343739) (xy 176.104405 67.710266) (xy 117.974408 67.710266) (xy 117.975595 66.349734) (xy 117.45375 65.086771)
        (xy 116.488312 64.119646) (xy 115.226261 63.595597) (xy 113.859734 63.594405) (xy 112.596771 64.11625) (xy 111.629646 65.081688)
        (xy 111.105597 66.343739) (xy 111.104405 67.710266) (xy 110.25 67.710266) (xy 110.25 62.74) (xy 183.829905 62.74)
      )
    )
  )
  (zone (net 2) (net_name GND) (layer B.Cu) (tstamp 0) (hatch edge 0.508)
    (connect_pads (clearance 0.508))
    (min_thickness 0.254)
    (fill yes (arc_segments 16) (thermal_gap 0.508) (thermal_bridge_width 0.508))
    (polygon
      (pts
        (xy 109.54 62.03) (xy 184.54 62.03) (xy 184.53 137.01) (xy 109.54 136.99)
      )
    )
    (filled_polygon
      (pts
        (xy 183.820095 136.3) (xy 110.25 136.3) (xy 110.25 132.710266) (xy 111.104405 132.710266) (xy 111.62625 133.973229)
        (xy 112.591688 134.940354) (xy 113.853739 135.464403) (xy 115.220266 135.465595) (xy 116.483229 134.94375) (xy 117.450354 133.978312)
        (xy 117.974403 132.716261) (xy 117.974408 132.710266) (xy 176.104405 132.710266) (xy 176.62625 133.973229) (xy 177.591688 134.940354)
        (xy 178.853739 135.464403) (xy 180.220266 135.465595) (xy 181.483229 134.94375) (xy 182.450354 133.978312) (xy 182.974403 132.716261)
        (xy 182.975595 131.349734) (xy 182.45375 130.086771) (xy 181.488312 129.119646) (xy 180.226261 128.595597) (xy 178.859734 128.594405)
        (xy 177.596771 129.11625) (xy 176.629646 130.081688) (xy 176.105597 131.343739) (xy 176.104405 132.710266) (xy 117.974408 132.710266)
        (xy 117.975595 131.349734) (xy 117.45375 130.086771) (xy 116.488312 129.119646) (xy 115.226261 128.595597) (xy 113.859734 128.594405)
        (xy 112.596771 129.11625) (xy 111.629646 130.081688) (xy 111.105597 131.343739) (xy 111.104405 132.710266) (xy 110.25 132.710266)
        (xy 110.25 103.02) (xy 119.855907 103.02) (xy 119.968946 103.588285) (xy 120.290853 104.070054) (xy 120.620026 104.29)
        (xy 120.290853 104.509946) (xy 119.968946 104.991715) (xy 119.855907 105.56) (xy 119.968946 106.128285) (xy 120.290853 106.610054)
        (xy 120.620026 106.83) (xy 120.290853 107.049946) (xy 119.968946 107.531715) (xy 119.855907 108.1) (xy 119.968946 108.668285)
        (xy 120.290853 109.150054) (xy 120.620026 109.37) (xy 120.290853 109.589946) (xy 119.968946 110.071715) (xy 119.855907 110.64)
        (xy 119.968946 111.208285) (xy 120.290853 111.690054) (xy 120.620026 111.91) (xy 120.290853 112.129946) (xy 119.968946 112.611715)
        (xy 119.855907 113.18) (xy 119.968946 113.748285) (xy 120.290853 114.230054) (xy 120.620026 114.45) (xy 120.290853 114.669946)
        (xy 119.968946 115.151715) (xy 119.855907 115.72) (xy 119.968946 116.288285) (xy 120.290853 116.770054) (xy 120.620026 116.99)
        (xy 120.290853 117.209946) (xy 119.968946 117.691715) (xy 119.855907 118.26) (xy 119.968946 118.828285) (xy 120.290853 119.310054)
        (xy 120.620026 119.53) (xy 120.290853 119.749946) (xy 119.968946 120.231715) (xy 119.855907 120.8) (xy 119.968946 121.368285)
        (xy 120.290853 121.850054) (xy 120.335 121.879552) (xy 120.335 121.939995) (xy 120.334999 121.94) (xy 120.413785 122.336077)
        (xy 120.638144 122.671856) (xy 125.978142 128.011853) (xy 125.978144 128.011856) (xy 126.179429 128.146349) (xy 126.313922 128.236215)
        (xy 126.71 128.315) (xy 132.240794 128.315) (xy 132.250853 128.330054) (xy 132.732622 128.651961) (xy 133.300907 128.765)
        (xy 133.359093 128.765) (xy 133.927378 128.651961) (xy 134.409147 128.330054) (xy 134.731054 127.848285) (xy 134.844093 127.28)
        (xy 134.731054 126.711715) (xy 134.710041 126.680266) (xy 146.134405 126.680266) (xy 146.65625 127.943229) (xy 147.621688 128.910354)
        (xy 148.883739 129.434403) (xy 150.250266 129.435595) (xy 151.513229 128.91375) (xy 152.480354 127.948312) (xy 153.004403 126.686261)
        (xy 153.005595 125.319734) (xy 152.48375 124.056771) (xy 151.518312 123.089646) (xy 150.256261 122.565597) (xy 148.889734 122.564405)
        (xy 147.626771 123.08625) (xy 146.659646 124.051688) (xy 146.135597 125.313739) (xy 146.134405 126.680266) (xy 134.710041 126.680266)
        (xy 134.409147 126.229946) (xy 134.079974 126.01) (xy 134.409147 125.790054) (xy 134.731054 125.308285) (xy 134.844093 124.74)
        (xy 134.731054 124.171715) (xy 134.409147 123.689946) (xy 134.079974 123.47) (xy 134.409147 123.250054) (xy 134.731054 122.768285)
        (xy 134.844093 122.2) (xy 134.731054 121.631715) (xy 134.409147 121.149946) (xy 134.079974 120.93) (xy 134.409147 120.710054)
        (xy 134.731054 120.228285) (xy 134.844093 119.66) (xy 134.731054 119.091715) (xy 134.409147 118.609946) (xy 134.079974 118.39)
        (xy 134.409147 118.170054) (xy 134.731054 117.688285) (xy 134.844093 117.12) (xy 134.731054 116.551715) (xy 134.716723 116.530266)
        (xy 146.134405 116.530266) (xy 146.65625 117.793229) (xy 147.621688 118.760354) (xy 148.883739 119.284403) (xy 150.250266 119.285595)
        (xy 151.513229 118.76375) (xy 152.480354 117.798312) (xy 153.004403 116.536261) (xy 153.005595 115.169734) (xy 152.48375 113.906771)
        (xy 151.518312 112.939646) (xy 150.256261 112.415597) (xy 148.889734 112.414405) (xy 147.626771 112.93625) (xy 146.659646 113.901688)
        (xy 146.135597 115.163739) (xy 146.134405 116.530266) (xy 134.716723 116.530266) (xy 134.409147 116.069946) (xy 134.367548 116.04215)
        (xy 134.415317 116.033162) (xy 134.631441 115.89409) (xy 134.776431 115.68189) (xy 134.82744 115.43) (xy 134.82744 113.73)
        (xy 134.783162 113.494683) (xy 134.64409 113.278559) (xy 134.43189 113.133569) (xy 134.18 113.08256) (xy 132.48 113.08256)
        (xy 132.244683 113.126838) (xy 132.028559 113.26591) (xy 131.883569 113.47811) (xy 131.83256 113.73) (xy 131.83256 115.43)
        (xy 131.876838 115.665317) (xy 132.01591 115.881441) (xy 132.22811 116.026431) (xy 132.295541 116.040086) (xy 132.250853 116.069946)
        (xy 131.928946 116.551715) (xy 131.903711 116.678577) (xy 130.415288 118.167) (xy 129.725446 118.167) (xy 129.697162 118.016683)
        (xy 129.55809 117.800559) (xy 129.431314 117.713936) (xy 129.517 117.62825) (xy 129.517 116.329) (xy 129.771 116.329)
        (xy 129.771 117.62825) (xy 129.92975 117.787) (xy 130.17031 117.787) (xy 130.403699 117.690327) (xy 130.582327 117.511698)
        (xy 130.679 117.278309) (xy 130.679 116.48775) (xy 130.52025 116.329) (xy 129.771 116.329) (xy 129.517 116.329)
        (xy 129.497 116.329) (xy 129.497 116.075) (xy 129.517 116.075) (xy 129.517 114.77575) (xy 129.771 114.77575)
        (xy 129.771 116.075) (xy 130.52025 116.075) (xy 130.679 115.91625) (xy 130.679 115.125691) (xy 130.582327 114.892302)
        (xy 130.403699 114.713673) (xy 130.17031 114.617) (xy 129.92975 114.617) (xy 129.771 114.77575) (xy 129.517 114.77575)
        (xy 129.35825 114.617) (xy 129.206832 114.617) (xy 129.227 114.56831) (xy 129.227 114.07775) (xy 129.06825 113.919)
        (xy 127.969 113.919) (xy 127.969 113.939) (xy 127.715 113.939) (xy 127.715 113.919) (xy 127.695 113.919)
        (xy 127.695 113.665) (xy 127.715 113.665) (xy 127.715 112.66575) (xy 127.969 112.66575) (xy 127.969 113.665)
        (xy 129.06825 113.665) (xy 129.227 113.50625) (xy 129.227 113.01569) (xy 129.130327 112.782301) (xy 128.951698 112.603673)
        (xy 128.718309 112.507) (xy 128.12775 112.507) (xy 127.969 112.66575) (xy 127.715 112.66575) (xy 127.55625 112.507)
        (xy 126.965691 112.507) (xy 126.732302 112.603673) (xy 126.553673 112.782301) (xy 126.497346 112.918287) (xy 126.495162 112.906683)
        (xy 126.35609 112.690559) (xy 126.14389 112.545569) (xy 125.892 112.49456) (xy 124.392 112.49456) (xy 124.156683 112.538838)
        (xy 123.940559 112.67791) (xy 123.795569 112.89011) (xy 123.74456 113.142) (xy 123.74456 114.442) (xy 123.788838 114.677317)
        (xy 123.834714 114.74861) (xy 123.691569 114.95811) (xy 123.64056 115.21) (xy 123.64056 117.21) (xy 123.684838 117.445317)
        (xy 123.82391 117.661441) (xy 124.03611 117.806431) (xy 124.288 117.85744) (xy 125.988 117.85744) (xy 126.223317 117.813162)
        (xy 126.439441 117.67409) (xy 126.584431 117.46189) (xy 126.629972 117.237) (xy 126.712554 117.237) (xy 126.740838 117.387317)
        (xy 126.87991 117.603441) (xy 127.09211 117.748431) (xy 127.344 117.79944) (xy 127.834681 117.79944) (xy 127.697569 118.00011)
        (xy 127.64656 118.252) (xy 127.64656 120.152) (xy 127.690838 120.387317) (xy 127.82991 120.603441) (xy 128.04211 120.748431)
        (xy 128.294 120.79944) (xy 129.094 120.79944) (xy 129.329317 120.755162) (xy 129.545441 120.61609) (xy 129.690431 120.40389)
        (xy 129.724227 120.237) (xy 130.843995 120.237) (xy 130.844 120.237001) (xy 131.240077 120.158215) (xy 131.575856 119.933856)
        (xy 131.821516 119.688196) (xy 131.928946 120.228285) (xy 132.250853 120.710054) (xy 132.580026 120.93) (xy 132.250853 121.149946)
        (xy 131.928946 121.631715) (xy 131.815907 122.2) (xy 131.928946 122.768285) (xy 132.250853 123.250054) (xy 132.580026 123.47)
        (xy 132.250853 123.689946) (xy 131.928946 124.171715) (xy 131.815907 124.74) (xy 131.928946 125.308285) (xy 132.250853 125.790054)
        (xy 132.580026 126.01) (xy 132.250853 126.229946) (xy 132.240794 126.245) (xy 127.138711 126.245) (xy 122.567155 121.673443)
        (xy 122.771054 121.368285) (xy 122.824467 121.099761) (xy 122.923922 121.166215) (xy 123.32 121.245) (xy 123.647146 121.245)
        (xy 123.684838 121.445317) (xy 123.82391 121.661441) (xy 124.03611 121.806431) (xy 124.288 121.85744) (xy 125.988 121.85744)
        (xy 126.223317 121.813162) (xy 126.439441 121.67409) (xy 126.584431 121.46189) (xy 126.63544 121.21) (xy 126.63544 119.21)
        (xy 126.591162 118.974683) (xy 126.45209 118.758559) (xy 126.23989 118.613569) (xy 125.988 118.56256) (xy 124.288 118.56256)
        (xy 124.052683 118.606838) (xy 123.836559 118.74591) (xy 123.691569 118.95811) (xy 123.664667 119.090956) (xy 122.875734 118.302023)
        (xy 122.884093 118.26) (xy 122.771054 117.691715) (xy 122.449147 117.209946) (xy 122.119974 116.99) (xy 122.449147 116.770054)
        (xy 122.771054 116.288285) (xy 122.884093 115.72) (xy 122.771054 115.151715) (xy 122.449147 114.669946) (xy 122.119974 114.45)
        (xy 122.449147 114.230054) (xy 122.771054 113.748285) (xy 122.884093 113.18) (xy 122.771054 112.611715) (xy 122.449147 112.129946)
        (xy 122.119974 111.91) (xy 122.449147 111.690054) (xy 122.559432 111.525) (xy 140.220568 111.525) (xy 140.330853 111.690054)
        (xy 140.812622 112.011961) (xy 141.380907 112.125) (xy 141.439093 112.125) (xy 142.007378 112.011961) (xy 142.489147 111.690054)
        (xy 142.811054 111.208285) (xy 142.924093 110.64) (xy 142.811054 110.071715) (xy 142.71438 109.927031) (xy 147.799561 109.927031)
        (xy 148.184678 110.859086) (xy 148.897163 111.572816) (xy 149.828545 111.959559) (xy 150.837031 111.960439) (xy 151.769086 111.575322)
        (xy 152.482816 110.862837) (xy 152.869559 109.931455) (xy 152.870439 108.922969) (xy 152.485322 107.990914) (xy 151.772837 107.277184)
        (xy 150.841455 106.890441) (xy 149.832969 106.889561) (xy 148.900914 107.274678) (xy 148.187184 107.987163) (xy 147.800441 108.918545)
        (xy 147.799561 109.927031) (xy 142.71438 109.927031) (xy 142.489147 109.589946) (xy 142.159974 109.37) (xy 142.489147 109.150054)
        (xy 142.811054 108.668285) (xy 142.924093 108.1) (xy 142.811054 107.531715) (xy 142.489147 107.049946) (xy 142.159974 106.83)
        (xy 142.489147 106.610054) (xy 142.599432 106.445) (xy 146.937974 106.445) (xy 147.02191 106.575441) (xy 147.23411 106.720431)
        (xy 147.486 106.77144) (xy 149.186 106.77144) (xy 149.421317 106.727162) (xy 149.637441 106.58809) (xy 149.782431 106.37589)
        (xy 149.83344 106.124) (xy 149.83344 104.124) (xy 149.789162 103.888683) (xy 149.65009 103.672559) (xy 149.43789 103.527569)
        (xy 149.186 103.47656) (xy 147.486 103.47656) (xy 147.250683 103.520838) (xy 147.034559 103.65991) (xy 146.889569 103.87211)
        (xy 146.83856 104.124) (xy 146.83856 104.675) (xy 142.599432 104.675) (xy 142.489147 104.509946) (xy 142.159974 104.29)
        (xy 142.489147 104.070054) (xy 142.606114 103.895) (xy 143.20256 103.895) (xy 143.20256 104.01) (xy 143.246838 104.245317)
        (xy 143.38591 104.461441) (xy 143.59811 104.606431) (xy 143.85 104.65744) (xy 145.55 104.65744) (xy 145.785317 104.613162)
        (xy 146.001441 104.47409) (xy 146.146431 104.26189) (xy 146.19744 104.01) (xy 146.19744 102.01) (xy 146.153162 101.774683)
        (xy 146.01409 101.558559) (xy 145.80189 101.413569) (xy 145.55 101.36256) (xy 143.85 101.36256) (xy 143.614683 101.406838)
        (xy 143.398559 101.54591) (xy 143.253569 101.75811) (xy 143.20256 102.01) (xy 143.20256 102.125) (xy 142.592751 102.125)
        (xy 142.489147 101.969946) (xy 142.148447 101.742298) (xy 142.291358 101.675183) (xy 142.681645 101.246924) (xy 142.851476 100.83689)
        (xy 142.730155 100.607) (xy 141.537 100.607) (xy 141.537 100.627) (xy 141.283 100.627) (xy 141.283 100.607)
        (xy 140.089845 100.607) (xy 139.968524 100.83689) (xy 140.138355 101.246924) (xy 140.528642 101.675183) (xy 140.671553 101.742298)
        (xy 140.330853 101.969946) (xy 140.220568 102.135) (xy 124.656851 102.135) (xy 124.276777 101.97718) (xy 123.865029 101.976821)
        (xy 123.484485 102.134058) (xy 123.483541 102.135) (xy 122.559432 102.135) (xy 122.449147 101.969946) (xy 122.108447 101.742298)
        (xy 122.251358 101.675183) (xy 122.641645 101.246924) (xy 122.811476 100.83689) (xy 122.690155 100.607) (xy 121.497 100.607)
        (xy 121.497 100.627) (xy 121.243 100.627) (xy 121.243 100.607) (xy 120.049845 100.607) (xy 119.928524 100.83689)
        (xy 120.098355 101.246924) (xy 120.488642 101.675183) (xy 120.631553 101.742298) (xy 120.290853 101.969946) (xy 119.968946 102.451715)
        (xy 119.855907 103.02) (xy 110.25 103.02) (xy 110.25 97.09) (xy 119.87256 97.09) (xy 119.87256 98.79)
        (xy 119.916838 99.025317) (xy 120.05591 99.241441) (xy 120.26811 99.386431) (xy 120.376107 99.408301) (xy 120.098355 99.713076)
        (xy 119.928524 100.12311) (xy 120.049845 100.353) (xy 121.243 100.353) (xy 121.243 100.333) (xy 121.497 100.333)
        (xy 121.497 100.353) (xy 122.690155 100.353) (xy 122.811476 100.12311) (xy 122.641645 99.713076) (xy 122.365499 99.410063)
        (xy 122.455317 99.393162) (xy 122.671441 99.25409) (xy 122.816431 99.04189) (xy 122.829977 98.975) (xy 140.320794 98.975)
        (xy 140.330853 98.990054) (xy 140.671553 99.217702) (xy 140.528642 99.284817) (xy 140.138355 99.713076) (xy 139.968524 100.12311)
        (xy 140.089845 100.353) (xy 141.283 100.353) (xy 141.283 100.333) (xy 141.537 100.333) (xy 141.537 100.353)
        (xy 142.730155 100.353) (xy 142.851476 100.12311) (xy 142.681645 99.713076) (xy 142.291358 99.284817) (xy 142.148447 99.217702)
        (xy 142.244166 99.153745) (xy 142.726208 99.635787) (xy 142.72621 99.63579) (xy 142.918054 99.763975) (xy 143.013326 99.827634)
        (xy 143.20256 99.865275) (xy 143.20256 100.01) (xy 143.246838 100.245317) (xy 143.38591 100.461441) (xy 143.59811 100.606431)
        (xy 143.85 100.65744) (xy 145.55 100.65744) (xy 145.785317 100.613162) (xy 146.001441 100.47409) (xy 146.146431 100.26189)
        (xy 146.19744 100.01) (xy 146.19744 99.895) (xy 146.884934 99.895) (xy 146.83856 100.124) (xy 146.83856 102.124)
        (xy 146.882838 102.359317) (xy 147.02191 102.575441) (xy 147.23411 102.720431) (xy 147.486 102.77144) (xy 149.186 102.77144)
        (xy 149.421317 102.727162) (xy 149.637441 102.58809) (xy 149.782431 102.37589) (xy 149.83344 102.124) (xy 149.83344 100.124)
        (xy 149.789162 99.888683) (xy 149.65009 99.672559) (xy 149.43789 99.527569) (xy 149.186 99.47656) (xy 149.030178 99.47656)
        (xy 148.96179 99.37421) (xy 148.961787 99.374208) (xy 147.97179 98.38421) (xy 147.899753 98.336077) (xy 147.684675 98.192367)
        (xy 147.628484 98.18119) (xy 147.346 98.124999) (xy 147.345995 98.125) (xy 146.19744 98.125) (xy 146.19744 98.01)
        (xy 146.153162 97.774683) (xy 146.01409 97.558559) (xy 145.80189 97.413569) (xy 145.55 97.36256) (xy 143.85 97.36256)
        (xy 143.614683 97.406838) (xy 143.398559 97.54591) (xy 143.293398 97.699818) (xy 142.90779 97.31421) (xy 142.698265 97.174211)
        (xy 142.663617 97.15106) (xy 142.647562 97.127031) (xy 147.799561 97.127031) (xy 148.184678 98.059086) (xy 148.897163 98.772816)
        (xy 149.828545 99.159559) (xy 150.837031 99.160439) (xy 151.769086 98.775322) (xy 152.482816 98.062837) (xy 152.869559 97.131455)
        (xy 152.870439 96.122969) (xy 152.485322 95.190914) (xy 151.772837 94.477184) (xy 150.841455 94.090441) (xy 149.832969 94.089561)
        (xy 148.900914 94.474678) (xy 148.187184 95.187163) (xy 147.800441 96.118545) (xy 147.799561 97.127031) (xy 142.647562 97.127031)
        (xy 142.489147 96.889946) (xy 142.447548 96.86215) (xy 142.495317 96.853162) (xy 142.711441 96.71409) (xy 142.856431 96.50189)
        (xy 142.90744 96.25) (xy 142.90744 94.55) (xy 142.863162 94.314683) (xy 142.72409 94.098559) (xy 142.51189 93.953569)
        (xy 142.26 93.90256) (xy 140.56 93.90256) (xy 140.324683 93.946838) (xy 140.227 94.009695) (xy 140.227 90.380266)
        (xy 144.004405 90.380266) (xy 144.52625 91.643229) (xy 145.491688 92.610354) (xy 146.753739 93.134403) (xy 148.120266 93.135595)
        (xy 149.383229 92.61375) (xy 150.350354 91.648312) (xy 150.874403 90.386261) (xy 150.875595 89.019734) (xy 150.35375 87.756771)
        (xy 149.388312 86.789646) (xy 148.126261 86.265597) (xy 146.759734 86.264405) (xy 145.496771 86.78625) (xy 144.529646 87.751688)
        (xy 144.005597 89.013739) (xy 144.004405 90.380266) (xy 140.227 90.380266) (xy 140.227 77.832005) (xy 140.227001 77.832)
        (xy 140.148215 77.435923) (xy 139.923856 77.100144) (xy 139.923853 77.100142) (xy 139.161856 76.338144) (xy 138.826077 76.113785)
        (xy 138.43 76.034999) (xy 138.429995 76.035) (xy 138.029206 76.035) (xy 138.019147 76.019946) (xy 137.975223 75.990597)
        (xy 138.149698 75.918327) (xy 138.328327 75.739699) (xy 138.425 75.50631) (xy 138.425 74.81575) (xy 138.26625 74.657)
        (xy 137.067 74.657) (xy 137.067 74.677) (xy 136.813 74.677) (xy 136.813 74.657) (xy 135.61375 74.657)
        (xy 135.455 74.81575) (xy 135.455 75.50631) (xy 135.551673 75.739699) (xy 135.730302 75.918327) (xy 135.904777 75.990597)
        (xy 135.860853 76.019946) (xy 135.538946 76.501715) (xy 135.425907 77.07) (xy 135.538946 77.638285) (xy 135.860853 78.120054)
        (xy 136.190026 78.34) (xy 135.860853 78.559946) (xy 135.538946 79.041715) (xy 135.425907 79.61) (xy 135.538946 80.178285)
        (xy 135.860853 80.660054) (xy 136.190026 80.88) (xy 135.860853 81.099946) (xy 135.538946 81.581715) (xy 135.425907 82.15)
        (xy 135.538946 82.718285) (xy 135.860853 83.200054) (xy 136.190026 83.42) (xy 135.860853 83.639946) (xy 135.538946 84.121715)
        (xy 135.425907 84.69) (xy 135.538946 85.258285) (xy 135.860853 85.740054) (xy 136.190026 85.96) (xy 135.860853 86.179946)
        (xy 135.538946 86.661715) (xy 135.425907 87.23) (xy 135.538946 87.798285) (xy 135.860853 88.280054) (xy 136.342622 88.601961)
        (xy 136.910907 88.715) (xy 136.969093 88.715) (xy 137.537378 88.601961) (xy 138.019147 88.280054) (xy 138.157 88.073742)
        (xy 138.157 96.905) (xy 122.83263 96.905) (xy 122.823162 96.854683) (xy 122.68409 96.638559) (xy 122.47189 96.493569)
        (xy 122.22 96.44256) (xy 120.52 96.44256) (xy 120.284683 96.486838) (xy 120.068559 96.62591) (xy 119.923569 96.83811)
        (xy 119.87256 97.09) (xy 110.25 97.09) (xy 110.25 73.55369) (xy 135.455 73.55369) (xy 135.455 74.24425)
        (xy 135.61375 74.403) (xy 136.813 74.403) (xy 136.813 73.20375) (xy 137.067 73.20375) (xy 137.067 74.403)
        (xy 138.26625 74.403) (xy 138.425 74.24425) (xy 138.425 73.55369) (xy 138.328327 73.320301) (xy 138.149698 73.141673)
        (xy 137.916309 73.045) (xy 137.22575 73.045) (xy 137.067 73.20375) (xy 136.813 73.20375) (xy 136.65425 73.045)
        (xy 135.963691 73.045) (xy 135.730302 73.141673) (xy 135.551673 73.320301) (xy 135.455 73.55369) (xy 110.25 73.55369)
        (xy 110.25 72.600266) (xy 144.004405 72.600266) (xy 144.52625 73.863229) (xy 145.491688 74.830354) (xy 146.753739 75.354403)
        (xy 148.120266 75.355595) (xy 149.383229 74.83375) (xy 150.350354 73.868312) (xy 150.874403 72.606261) (xy 150.875595 71.239734)
        (xy 150.35375 69.976771) (xy 149.388312 69.009646) (xy 148.126261 68.485597) (xy 146.759734 68.484405) (xy 145.496771 69.00625)
        (xy 144.529646 69.971688) (xy 144.005597 71.233739) (xy 144.004405 72.600266) (xy 110.25 72.600266) (xy 110.25 67.710266)
        (xy 111.104405 67.710266) (xy 111.62625 68.973229) (xy 112.591688 69.940354) (xy 113.853739 70.464403) (xy 115.220266 70.465595)
        (xy 116.483229 69.94375) (xy 117.450354 68.978312) (xy 117.974403 67.716261) (xy 117.974408 67.710266) (xy 176.104405 67.710266)
        (xy 176.62625 68.973229) (xy 177.591688 69.940354) (xy 178.853739 70.464403) (xy 180.220266 70.465595) (xy 181.483229 69.94375)
        (xy 182.450354 68.978312) (xy 182.974403 67.716261) (xy 182.975595 66.349734) (xy 182.45375 65.086771) (xy 181.488312 64.119646)
        (xy 180.226261 63.595597) (xy 178.859734 63.594405) (xy 177.596771 64.11625) (xy 176.629646 65.081688) (xy 176.105597 66.343739)
        (xy 176.104405 67.710266) (xy 117.974408 67.710266) (xy 117.975595 66.349734) (xy 117.45375 65.086771) (xy 116.488312 64.119646)
        (xy 115.226261 63.595597) (xy 113.859734 63.594405) (xy 112.596771 64.11625) (xy 111.629646 65.081688) (xy 111.105597 66.343739)
        (xy 111.104405 67.710266) (xy 110.25 67.710266) (xy 110.25 62.74) (xy 183.829905 62.74)
      )
    )
  )
)
