(kicad_pcb (version 4) (host pcbnew 4.0.7)

  (general
    (links 24)
    (no_connects 0)
    (area 110.624999 57.924999 185.775001 133.075001)
    (thickness 1.6)
    (drawings 90)
    (tracks 42)
    (zones 0)
    (modules 21)
    (nets 11)
  )

  (page A4)
  (layers
    (0 F.Cu signal)
    (31 B.Cu signal)
    (32 B.Adhes user)
    (33 F.Adhes user)
    (34 B.Paste user)
    (35 F.Paste user)
    (36 B.SilkS user)
    (37 F.SilkS user)
    (38 B.Mask user)
    (39 F.Mask user)
    (40 Dwgs.User user)
    (41 Cmts.User user)
    (42 Eco1.User user)
    (43 Eco2.User user)
    (44 Edge.Cuts user)
    (45 Margin user)
    (46 B.CrtYd user)
    (47 F.CrtYd user)
    (48 B.Fab user hide)
    (49 F.Fab user hide)
  )

  (setup
    (last_trace_width 0.3)
    (trace_clearance 0.25)
    (zone_clearance 0.508)
    (zone_45_only no)
    (trace_min 0.2)
    (segment_width 0.2)
    (edge_width 0.15)
    (via_size 0.6)
    (via_drill 0.4)
    (via_min_size 0.4)
    (via_min_drill 0.3)
    (uvia_size 0.3)
    (uvia_drill 0.1)
    (uvias_allowed no)
    (uvia_min_size 0.2)
    (uvia_min_drill 0.1)
    (pcb_text_width 0.3)
    (pcb_text_size 1.5 1.5)
    (mod_edge_width 0.15)
    (mod_text_size 1 1)
    (mod_text_width 0.15)
    (pad_size 1.7 1.7)
    (pad_drill 1)
    (pad_to_mask_clearance 0.2)
    (aux_axis_origin 0 0)
    (visible_elements 7FFFFFFF)
    (pcbplotparams
      (layerselection 0x00030_80000001)
      (usegerberextensions false)
      (excludeedgelayer true)
      (linewidth 0.100000)
      (plotframeref false)
      (viasonmask false)
      (mode 1)
      (useauxorigin false)
      (hpglpennumber 1)
      (hpglpenspeed 20)
      (hpglpendiameter 15)
      (hpglpenoverlay 2)
      (psnegative false)
      (psa4output false)
      (plotreference true)
      (plotvalue true)
      (plotinvisibletext false)
      (padsonsilk false)
      (subtractmaskfromsilk false)
      (outputformat 4)
      (mirror false)
      (drillshape 2)
      (scaleselection 1)
      (outputdirectory ""))
  )

  (net 0 "")
  (net 1 GND)
  (net 2 5V)
  (net 3 SH1_GND)
  (net 4 SH1_ADC)
  (net 5 SH2_ADC)
  (net 6 SH1_ON)
  (net 7 SH2_ON)
  (net 8 SH2_GND)
  (net 9 "Net-(Q1-Pad1)")
  (net 10 "Net-(Q2-Pad1)")

  (net_class Default "To jest domyślna klasa połączeń."
    (clearance 0.25)
    (trace_width 0.3)
    (via_dia 0.6)
    (via_drill 0.4)
    (uvia_dia 0.3)
    (uvia_drill 0.1)
    (add_net 5V)
    (add_net GND)
    (add_net "Net-(Q1-Pad1)")
    (add_net "Net-(Q2-Pad1)")
    (add_net SH1_ADC)
    (add_net SH1_GND)
    (add_net SH1_ON)
    (add_net SH2_ADC)
    (add_net SH2_GND)
    (add_net SH2_ON)
  )

  (net_class power ""
    (clearance 0.25)
    (trace_width 0.3)
    (via_dia 0.6)
    (via_drill 0.4)
    (uvia_dia 0.3)
    (uvia_drill 0.1)
  )

  (module Mounting_Holes:MountingHole_3.2mm_M3_DIN965_Pad (layer F.Cu) (tedit 56D1B4CB) (tstamp 5A08ED57)
    (at 148.2 99.75)
    (descr "Mounting Hole 3.2mm, M3, DIN965")
    (tags "mounting hole 3.2mm m3 din965")
    (attr virtual)
    (fp_text reference REF** (at 0 -3.8) (layer F.SilkS)
      (effects (font (size 1 1) (thickness 0.15)))
    )
    (fp_text value MountingHole_3.2mm_M3_DIN965_Pad (at 0 3.8) (layer F.Fab)
      (effects (font (size 1 1) (thickness 0.15)))
    )
    (fp_text user %R (at 0.3 0) (layer F.Fab)
      (effects (font (size 1 1) (thickness 0.15)))
    )
    (fp_circle (center 0 0) (end 2.8 0) (layer Cmts.User) (width 0.15))
    (fp_circle (center 0 0) (end 3.05 0) (layer F.CrtYd) (width 0.05))
    (pad 1 thru_hole circle (at 0 0) (size 5.6 5.6) (drill 3.2) (layers *.Cu *.Mask))
  )

  (module Mounting_Holes:MountingHole_3.2mm_M3_DIN965_Pad (layer F.Cu) (tedit 56D1B4CB) (tstamp 5A08ED53)
    (at 157.2 112)
    (descr "Mounting Hole 3.2mm, M3, DIN965")
    (tags "mounting hole 3.2mm m3 din965")
    (attr virtual)
    (fp_text reference REF** (at 0 -3.8) (layer F.SilkS)
      (effects (font (size 1 1) (thickness 0.15)))
    )
    (fp_text value MountingHole_3.2mm_M3_DIN965_Pad (at 0 3.8) (layer F.Fab)
      (effects (font (size 1 1) (thickness 0.15)))
    )
    (fp_text user %R (at 0.3 0) (layer F.Fab)
      (effects (font (size 1 1) (thickness 0.15)))
    )
    (fp_circle (center 0 0) (end 2.8 0) (layer Cmts.User) (width 0.15))
    (fp_circle (center 0 0) (end 3.05 0) (layer F.CrtYd) (width 0.05))
    (pad 1 thru_hole circle (at 0 0) (size 5.6 5.6) (drill 3.2) (layers *.Cu *.Mask))
  )

  (module Mounting_Holes:MountingHole_3.2mm_M3_DIN965_Pad (layer F.Cu) (tedit 56D1B4CB) (tstamp 5A08ED4E)
    (at 120.2 112)
    (descr "Mounting Hole 3.2mm, M3, DIN965")
    (tags "mounting hole 3.2mm m3 din965")
    (attr virtual)
    (fp_text reference REF** (at 0 -3.8) (layer F.SilkS)
      (effects (font (size 1 1) (thickness 0.15)))
    )
    (fp_text value MountingHole_3.2mm_M3_DIN965_Pad (at 0 3.8) (layer F.Fab)
      (effects (font (size 1 1) (thickness 0.15)))
    )
    (fp_text user %R (at 0.3 0) (layer F.Fab)
      (effects (font (size 1 1) (thickness 0.15)))
    )
    (fp_circle (center 0 0) (end 2.8 0) (layer Cmts.User) (width 0.15))
    (fp_circle (center 0 0) (end 3.05 0) (layer F.CrtYd) (width 0.05))
    (pad 1 thru_hole circle (at 0 0) (size 5.6 5.6) (drill 3.2) (layers *.Cu *.Mask))
  )

  (module Mounting_Holes:MountingHole_3.2mm_M3_DIN965_Pad (layer F.Cu) (tedit 56D1B4CB) (tstamp 5A08ED4A)
    (at 115.7 128)
    (descr "Mounting Hole 3.2mm, M3, DIN965")
    (tags "mounting hole 3.2mm m3 din965")
    (attr virtual)
    (fp_text reference REF** (at 0 -3.8) (layer F.SilkS)
      (effects (font (size 1 1) (thickness 0.15)))
    )
    (fp_text value MountingHole_3.2mm_M3_DIN965_Pad (at 0 3.8) (layer F.Fab)
      (effects (font (size 1 1) (thickness 0.15)))
    )
    (fp_text user %R (at 0.3 0) (layer F.Fab)
      (effects (font (size 1 1) (thickness 0.15)))
    )
    (fp_circle (center 0 0) (end 2.8 0) (layer Cmts.User) (width 0.15))
    (fp_circle (center 0 0) (end 3.05 0) (layer F.CrtYd) (width 0.05))
    (pad 1 thru_hole circle (at 0 0) (size 5.6 5.6) (drill 3.2) (layers *.Cu *.Mask))
  )

  (module Mounting_Holes:MountingHole_3.2mm_M3_DIN965_Pad (layer F.Cu) (tedit 56D1B4CB) (tstamp 5A08ED3E)
    (at 180.7 128)
    (descr "Mounting Hole 3.2mm, M3, DIN965")
    (tags "mounting hole 3.2mm m3 din965")
    (attr virtual)
    (fp_text reference REF** (at 0 -3.8) (layer F.SilkS)
      (effects (font (size 1 1) (thickness 0.15)))
    )
    (fp_text value MountingHole_3.2mm_M3_DIN965_Pad (at 0 3.8) (layer F.Fab)
      (effects (font (size 1 1) (thickness 0.15)))
    )
    (fp_text user %R (at 0.3 0) (layer F.Fab)
      (effects (font (size 1 1) (thickness 0.15)))
    )
    (fp_circle (center 0 0) (end 2.8 0) (layer Cmts.User) (width 0.15))
    (fp_circle (center 0 0) (end 3.05 0) (layer F.CrtYd) (width 0.05))
    (pad 1 thru_hole circle (at 0 0) (size 5.6 5.6) (drill 3.2) (layers *.Cu *.Mask))
  )

  (module Mounting_Holes:MountingHole_3.2mm_M3_DIN965_Pad (layer F.Cu) (tedit 56D1B4CB) (tstamp 5A08ED3A)
    (at 180.7 63)
    (descr "Mounting Hole 3.2mm, M3, DIN965")
    (tags "mounting hole 3.2mm m3 din965")
    (attr virtual)
    (fp_text reference REF** (at 0 -3.8) (layer F.SilkS)
      (effects (font (size 1 1) (thickness 0.15)))
    )
    (fp_text value MountingHole_3.2mm_M3_DIN965_Pad (at 0 3.8) (layer F.Fab)
      (effects (font (size 1 1) (thickness 0.15)))
    )
    (fp_text user %R (at 0.3 0) (layer F.Fab)
      (effects (font (size 1 1) (thickness 0.15)))
    )
    (fp_circle (center 0 0) (end 2.8 0) (layer Cmts.User) (width 0.15))
    (fp_circle (center 0 0) (end 3.05 0) (layer F.CrtYd) (width 0.05))
    (pad 1 thru_hole circle (at 0 0) (size 5.6 5.6) (drill 3.2) (layers *.Cu *.Mask))
  )

  (module Mounting_Holes:MountingHole_3.2mm_M3_DIN965_Pad (layer F.Cu) (tedit 56D1B4CB) (tstamp 5A08ED33)
    (at 148.2 62.75)
    (descr "Mounting Hole 3.2mm, M3, DIN965")
    (tags "mounting hole 3.2mm m3 din965")
    (attr virtual)
    (fp_text reference REF** (at 0 -3.8) (layer F.SilkS)
      (effects (font (size 1 1) (thickness 0.15)))
    )
    (fp_text value MountingHole_3.2mm_M3_DIN965_Pad (at 0 3.8) (layer F.Fab)
      (effects (font (size 1 1) (thickness 0.15)))
    )
    (fp_text user %R (at 0.3 0) (layer F.Fab)
      (effects (font (size 1 1) (thickness 0.15)))
    )
    (fp_circle (center 0 0) (end 2.8 0) (layer Cmts.User) (width 0.15))
    (fp_circle (center 0 0) (end 3.05 0) (layer F.CrtYd) (width 0.05))
    (pad 1 thru_hole circle (at 0 0) (size 5.6 5.6) (drill 3.2) (layers *.Cu *.Mask))
  )

  (module Capacitors_SMD:C_0805_HandSoldering (layer B.Cu) (tedit 58AA84A8) (tstamp 5A08E9DF)
    (at 174.244 79.014 90)
    (descr "Capacitor SMD 0805, hand soldering")
    (tags "capacitor 0805")
    (path /5A08F534)
    (attr smd)
    (fp_text reference C1 (at 0 1.75 90) (layer B.SilkS)
      (effects (font (size 1 1) (thickness 0.15)) (justify mirror))
    )
    (fp_text value 100n (at 0 -1.75 90) (layer B.Fab)
      (effects (font (size 1 1) (thickness 0.15)) (justify mirror))
    )
    (fp_text user %R (at 0 1.75 90) (layer B.Fab)
      (effects (font (size 1 1) (thickness 0.15)) (justify mirror))
    )
    (fp_line (start -1 -0.62) (end -1 0.62) (layer B.Fab) (width 0.1))
    (fp_line (start 1 -0.62) (end -1 -0.62) (layer B.Fab) (width 0.1))
    (fp_line (start 1 0.62) (end 1 -0.62) (layer B.Fab) (width 0.1))
    (fp_line (start -1 0.62) (end 1 0.62) (layer B.Fab) (width 0.1))
    (fp_line (start 0.5 0.85) (end -0.5 0.85) (layer B.SilkS) (width 0.12))
    (fp_line (start -0.5 -0.85) (end 0.5 -0.85) (layer B.SilkS) (width 0.12))
    (fp_line (start -2.25 0.88) (end 2.25 0.88) (layer B.CrtYd) (width 0.05))
    (fp_line (start -2.25 0.88) (end -2.25 -0.87) (layer B.CrtYd) (width 0.05))
    (fp_line (start 2.25 -0.87) (end 2.25 0.88) (layer B.CrtYd) (width 0.05))
    (fp_line (start 2.25 -0.87) (end -2.25 -0.87) (layer B.CrtYd) (width 0.05))
    (pad 1 smd rect (at -1.25 0 90) (size 1.5 1.25) (layers B.Cu B.Paste B.Mask)
      (net 2 5V))
    (pad 2 smd rect (at 1.25 0 90) (size 1.5 1.25) (layers B.Cu B.Paste B.Mask)
      (net 1 GND))
    (model Capacitors_SMD.3dshapes/C_0805.wrl
      (at (xyz 0 0 0))
      (scale (xyz 1 1 1))
      (rotate (xyz 0 0 0))
    )
  )

  (module Capacitors_Tantalum_SMD:CP_Tantalum_Case-A_EIA-3216-18_Hand (layer B.Cu) (tedit 58CC8C08) (tstamp 5A08E9E5)
    (at 166.37 82.55 270)
    (descr "Tantalum capacitor, Case A, EIA 3216-18, 3.2x1.6x1.6mm, Hand soldering footprint")
    (tags "capacitor tantalum smd")
    (path /5A087DF7)
    (attr smd)
    (fp_text reference C2 (at 0 2.55 270) (layer B.SilkS)
      (effects (font (size 1 1) (thickness 0.15)) (justify mirror))
    )
    (fp_text value 10uF (at 0 -2.55 270) (layer B.Fab)
      (effects (font (size 1 1) (thickness 0.15)) (justify mirror))
    )
    (fp_text user %R (at 0 0 270) (layer B.Fab)
      (effects (font (size 0.7 0.7) (thickness 0.105)) (justify mirror))
    )
    (fp_line (start -4 1.2) (end -4 -1.2) (layer B.CrtYd) (width 0.05))
    (fp_line (start -4 -1.2) (end 4 -1.2) (layer B.CrtYd) (width 0.05))
    (fp_line (start 4 -1.2) (end 4 1.2) (layer B.CrtYd) (width 0.05))
    (fp_line (start 4 1.2) (end -4 1.2) (layer B.CrtYd) (width 0.05))
    (fp_line (start -1.6 0.8) (end -1.6 -0.8) (layer B.Fab) (width 0.1))
    (fp_line (start -1.6 -0.8) (end 1.6 -0.8) (layer B.Fab) (width 0.1))
    (fp_line (start 1.6 -0.8) (end 1.6 0.8) (layer B.Fab) (width 0.1))
    (fp_line (start 1.6 0.8) (end -1.6 0.8) (layer B.Fab) (width 0.1))
    (fp_line (start -1.28 0.8) (end -1.28 -0.8) (layer B.Fab) (width 0.1))
    (fp_line (start -1.12 0.8) (end -1.12 -0.8) (layer B.Fab) (width 0.1))
    (fp_line (start -3.9 1.05) (end 1.6 1.05) (layer B.SilkS) (width 0.12))
    (fp_line (start -3.9 -1.05) (end 1.6 -1.05) (layer B.SilkS) (width 0.12))
    (fp_line (start -3.9 1.05) (end -3.9 -1.05) (layer B.SilkS) (width 0.12))
    (pad 1 smd rect (at -2 0 270) (size 3.2 1.5) (layers B.Cu B.Paste B.Mask)
      (net 2 5V))
    (pad 2 smd rect (at 2 0 270) (size 3.2 1.5) (layers B.Cu B.Paste B.Mask)
      (net 1 GND))
    (model Capacitors_Tantalum_SMD.3dshapes/CP_Tantalum_Case-A_EIA-3216-18.wrl
      (at (xyz 0 0 0))
      (scale (xyz 1 1 1))
      (rotate (xyz 0 0 0))
    )
  )

  (module Capacitors_SMD:C_0805_HandSoldering (layer B.Cu) (tedit 58AA84A8) (tstamp 5A08E9EB)
    (at 175.26 109.728)
    (descr "Capacitor SMD 0805, hand soldering")
    (tags "capacitor 0805")
    (path /5A090DF9)
    (attr smd)
    (fp_text reference C3 (at 0 1.75) (layer B.SilkS)
      (effects (font (size 1 1) (thickness 0.15)) (justify mirror))
    )
    (fp_text value 100n (at 0 -1.75) (layer B.Fab)
      (effects (font (size 1 1) (thickness 0.15)) (justify mirror))
    )
    (fp_text user %R (at 0 1.75) (layer B.Fab)
      (effects (font (size 1 1) (thickness 0.15)) (justify mirror))
    )
    (fp_line (start -1 -0.62) (end -1 0.62) (layer B.Fab) (width 0.1))
    (fp_line (start 1 -0.62) (end -1 -0.62) (layer B.Fab) (width 0.1))
    (fp_line (start 1 0.62) (end 1 -0.62) (layer B.Fab) (width 0.1))
    (fp_line (start -1 0.62) (end 1 0.62) (layer B.Fab) (width 0.1))
    (fp_line (start 0.5 0.85) (end -0.5 0.85) (layer B.SilkS) (width 0.12))
    (fp_line (start -0.5 -0.85) (end 0.5 -0.85) (layer B.SilkS) (width 0.12))
    (fp_line (start -2.25 0.88) (end 2.25 0.88) (layer B.CrtYd) (width 0.05))
    (fp_line (start -2.25 0.88) (end -2.25 -0.87) (layer B.CrtYd) (width 0.05))
    (fp_line (start 2.25 -0.87) (end 2.25 0.88) (layer B.CrtYd) (width 0.05))
    (fp_line (start 2.25 -0.87) (end -2.25 -0.87) (layer B.CrtYd) (width 0.05))
    (pad 1 smd rect (at -1.25 0) (size 1.5 1.25) (layers B.Cu B.Paste B.Mask)
      (net 2 5V))
    (pad 2 smd rect (at 1.25 0) (size 1.5 1.25) (layers B.Cu B.Paste B.Mask)
      (net 1 GND))
    (model Capacitors_SMD.3dshapes/C_0805.wrl
      (at (xyz 0 0 0))
      (scale (xyz 1 1 1))
      (rotate (xyz 0 0 0))
    )
  )

  (module Capacitors_Tantalum_SMD:CP_Tantalum_Case-A_EIA-3216-18_Hand (layer B.Cu) (tedit 58CC8C08) (tstamp 5A08E9F1)
    (at 171.958 112.776)
    (descr "Tantalum capacitor, Case A, EIA 3216-18, 3.2x1.6x1.6mm, Hand soldering footprint")
    (tags "capacitor tantalum smd")
    (path /5A090DED)
    (attr smd)
    (fp_text reference C4 (at 0 2.55) (layer B.SilkS)
      (effects (font (size 1 1) (thickness 0.15)) (justify mirror))
    )
    (fp_text value 10uF (at 0 -2.55) (layer B.Fab)
      (effects (font (size 1 1) (thickness 0.15)) (justify mirror))
    )
    (fp_text user %R (at 0 0) (layer B.Fab)
      (effects (font (size 0.7 0.7) (thickness 0.105)) (justify mirror))
    )
    (fp_line (start -4 1.2) (end -4 -1.2) (layer B.CrtYd) (width 0.05))
    (fp_line (start -4 -1.2) (end 4 -1.2) (layer B.CrtYd) (width 0.05))
    (fp_line (start 4 -1.2) (end 4 1.2) (layer B.CrtYd) (width 0.05))
    (fp_line (start 4 1.2) (end -4 1.2) (layer B.CrtYd) (width 0.05))
    (fp_line (start -1.6 0.8) (end -1.6 -0.8) (layer B.Fab) (width 0.1))
    (fp_line (start -1.6 -0.8) (end 1.6 -0.8) (layer B.Fab) (width 0.1))
    (fp_line (start 1.6 -0.8) (end 1.6 0.8) (layer B.Fab) (width 0.1))
    (fp_line (start 1.6 0.8) (end -1.6 0.8) (layer B.Fab) (width 0.1))
    (fp_line (start -1.28 0.8) (end -1.28 -0.8) (layer B.Fab) (width 0.1))
    (fp_line (start -1.12 0.8) (end -1.12 -0.8) (layer B.Fab) (width 0.1))
    (fp_line (start -3.9 1.05) (end 1.6 1.05) (layer B.SilkS) (width 0.12))
    (fp_line (start -3.9 -1.05) (end 1.6 -1.05) (layer B.SilkS) (width 0.12))
    (fp_line (start -3.9 1.05) (end -3.9 -1.05) (layer B.SilkS) (width 0.12))
    (pad 1 smd rect (at -2 0) (size 3.2 1.5) (layers B.Cu B.Paste B.Mask)
      (net 2 5V))
    (pad 2 smd rect (at 2 0) (size 3.2 1.5) (layers B.Cu B.Paste B.Mask)
      (net 1 GND))
    (model Capacitors_Tantalum_SMD.3dshapes/CP_Tantalum_Case-A_EIA-3216-18.wrl
      (at (xyz 0 0 0))
      (scale (xyz 1 1 1))
      (rotate (xyz 0 0 0))
    )
  )

  (module Pin_Headers:Pin_Header_Straight_1x03_Pitch2.54mm (layer B.Cu) (tedit 5A08EF0C) (tstamp 5A08E9F8)
    (at 170.45 80.57 180)
    (descr "Through hole straight pin header, 1x03, 2.54mm pitch, single row")
    (tags "Through hole pin header THT 1x03 2.54mm single row")
    (path /5A08E937)
    (fp_text reference J1 (at 0 2.33 180) (layer B.SilkS)
      (effects (font (size 1 1) (thickness 0.15)) (justify mirror))
    )
    (fp_text value SHARP_1 (at 0 -7.41 180) (layer B.Fab)
      (effects (font (size 1 1) (thickness 0.15)) (justify mirror))
    )
    (fp_line (start -0.635 1.27) (end 1.27 1.27) (layer B.Fab) (width 0.1))
    (fp_line (start 1.27 1.27) (end 1.27 -6.35) (layer B.Fab) (width 0.1))
    (fp_line (start 1.27 -6.35) (end -1.27 -6.35) (layer B.Fab) (width 0.1))
    (fp_line (start -1.27 -6.35) (end -1.27 0.635) (layer B.Fab) (width 0.1))
    (fp_line (start -1.27 0.635) (end -0.635 1.27) (layer B.Fab) (width 0.1))
    (fp_line (start -1.33 -6.41) (end 1.33 -6.41) (layer B.SilkS) (width 0.12))
    (fp_line (start -1.33 -1.27) (end -1.33 -6.41) (layer B.SilkS) (width 0.12))
    (fp_line (start 1.33 -1.27) (end 1.33 -6.41) (layer B.SilkS) (width 0.12))
    (fp_line (start -1.33 -1.27) (end 1.33 -1.27) (layer B.SilkS) (width 0.12))
    (fp_line (start -1.33 0) (end -1.33 1.33) (layer B.SilkS) (width 0.12))
    (fp_line (start -1.33 1.33) (end 0 1.33) (layer B.SilkS) (width 0.12))
    (fp_line (start -1.8 1.8) (end -1.8 -6.85) (layer B.CrtYd) (width 0.05))
    (fp_line (start -1.8 -6.85) (end 1.8 -6.85) (layer B.CrtYd) (width 0.05))
    (fp_line (start 1.8 -6.85) (end 1.8 1.8) (layer B.CrtYd) (width 0.05))
    (fp_line (start 1.8 1.8) (end -1.8 1.8) (layer B.CrtYd) (width 0.05))
    (fp_text user %R (at 0 -2.54 450) (layer B.Fab)
      (effects (font (size 1 1) (thickness 0.15)) (justify mirror))
    )
    (pad 1 thru_hole oval (at 0 0 180) (size 1.7 1.7) (drill 1) (layers *.Cu *.Mask)
      (net 2 5V))
    (pad 2 thru_hole rect (at 0 -2.54 180) (size 1.7 1.7) (drill 1) (layers *.Cu *.Mask)
      (net 3 SH1_GND))
    (pad 3 thru_hole oval (at 0 -5.08 180) (size 1.7 1.7) (drill 1) (layers *.Cu *.Mask)
      (net 4 SH1_ADC))
    (model ${KISYS3DMOD}/Pin_Headers.3dshapes/Pin_Header_Straight_1x03_Pitch2.54mm.wrl
      (at (xyz 0 0 0))
      (scale (xyz 1 1 1))
      (rotate (xyz 0 0 0))
    )
  )

  (module Pin_Headers:Pin_Header_Straight_1x06_Pitch2.54mm (layer B.Cu) (tedit 5A08EF15) (tstamp 5A08EA02)
    (at 165.98 94.95 270)
    (descr "Through hole straight pin header, 1x06, 2.54mm pitch, single row")
    (tags "Through hole pin header THT 1x06 2.54mm single row")
    (path /5A09229D)
    (fp_text reference J2 (at 0 2.33 270) (layer B.SilkS)
      (effects (font (size 1 1) (thickness 0.15)) (justify mirror))
    )
    (fp_text value Conn_01x06 (at 0 -15.03 270) (layer B.Fab)
      (effects (font (size 1 1) (thickness 0.15)) (justify mirror))
    )
    (fp_line (start -0.635 1.27) (end 1.27 1.27) (layer B.Fab) (width 0.1))
    (fp_line (start 1.27 1.27) (end 1.27 -13.97) (layer B.Fab) (width 0.1))
    (fp_line (start 1.27 -13.97) (end -1.27 -13.97) (layer B.Fab) (width 0.1))
    (fp_line (start -1.27 -13.97) (end -1.27 0.635) (layer B.Fab) (width 0.1))
    (fp_line (start -1.27 0.635) (end -0.635 1.27) (layer B.Fab) (width 0.1))
    (fp_line (start -1.33 -14.03) (end 1.33 -14.03) (layer B.SilkS) (width 0.12))
    (fp_line (start -1.33 -1.27) (end -1.33 -14.03) (layer B.SilkS) (width 0.12))
    (fp_line (start 1.33 -1.27) (end 1.33 -14.03) (layer B.SilkS) (width 0.12))
    (fp_line (start -1.33 -1.27) (end 1.33 -1.27) (layer B.SilkS) (width 0.12))
    (fp_line (start -1.33 0) (end -1.33 1.33) (layer B.SilkS) (width 0.12))
    (fp_line (start -1.33 1.33) (end 0 1.33) (layer B.SilkS) (width 0.12))
    (fp_line (start -1.8 1.8) (end -1.8 -14.5) (layer B.CrtYd) (width 0.05))
    (fp_line (start -1.8 -14.5) (end 1.8 -14.5) (layer B.CrtYd) (width 0.05))
    (fp_line (start 1.8 -14.5) (end 1.8 1.8) (layer B.CrtYd) (width 0.05))
    (fp_line (start 1.8 1.8) (end -1.8 1.8) (layer B.CrtYd) (width 0.05))
    (fp_text user %R (at 0 -6.35 540) (layer B.Fab)
      (effects (font (size 1 1) (thickness 0.15)) (justify mirror))
    )
    (pad 1 thru_hole oval (at 0 0 270) (size 1.7 1.7) (drill 1) (layers *.Cu *.Mask)
      (net 2 5V))
    (pad 2 thru_hole rect (at 0 -2.54 270) (size 1.7 1.7) (drill 1) (layers *.Cu *.Mask)
      (net 1 GND))
    (pad 3 thru_hole oval (at 0 -5.08 270) (size 1.7 1.7) (drill 1) (layers *.Cu *.Mask)
      (net 4 SH1_ADC))
    (pad 4 thru_hole oval (at 0 -7.62 270) (size 1.7 1.7) (drill 1) (layers *.Cu *.Mask)
      (net 5 SH2_ADC))
    (pad 5 thru_hole oval (at 0 -10.16 270) (size 1.7 1.7) (drill 1) (layers *.Cu *.Mask)
      (net 6 SH1_ON))
    (pad 6 thru_hole oval (at 0 -12.7 270) (size 1.7 1.7) (drill 1) (layers *.Cu *.Mask)
      (net 7 SH2_ON))
    (model ${KISYS3DMOD}/Pin_Headers.3dshapes/Pin_Header_Straight_1x06_Pitch2.54mm.wrl
      (at (xyz 0 0 0))
      (scale (xyz 1 1 1))
      (rotate (xyz 0 0 0))
    )
  )

  (module Pin_Headers:Pin_Header_Straight_1x03_Pitch2.54mm (layer B.Cu) (tedit 5A08F2E5) (tstamp 5A08EA09)
    (at 169.75 109.34)
    (descr "Through hole straight pin header, 1x03, 2.54mm pitch, single row")
    (tags "Through hole pin header THT 1x03 2.54mm single row")
    (path /5A091015)
    (fp_text reference J3 (at 0 2.33) (layer B.SilkS)
      (effects (font (size 1 1) (thickness 0.15)) (justify mirror))
    )
    (fp_text value SHARP_2 (at 0 -7.41) (layer B.Fab)
      (effects (font (size 1 1) (thickness 0.15)) (justify mirror))
    )
    (fp_line (start -0.635 1.27) (end 1.27 1.27) (layer B.Fab) (width 0.1))
    (fp_line (start 1.27 1.27) (end 1.27 -6.35) (layer B.Fab) (width 0.1))
    (fp_line (start 1.27 -6.35) (end -1.27 -6.35) (layer B.Fab) (width 0.1))
    (fp_line (start -1.27 -6.35) (end -1.27 0.635) (layer B.Fab) (width 0.1))
    (fp_line (start -1.27 0.635) (end -0.635 1.27) (layer B.Fab) (width 0.1))
    (fp_line (start -1.33 -6.41) (end 1.33 -6.41) (layer B.SilkS) (width 0.12))
    (fp_line (start -1.33 -1.27) (end -1.33 -6.41) (layer B.SilkS) (width 0.12))
    (fp_line (start 1.33 -1.27) (end 1.33 -6.41) (layer B.SilkS) (width 0.12))
    (fp_line (start -1.33 -1.27) (end 1.33 -1.27) (layer B.SilkS) (width 0.12))
    (fp_line (start -1.33 0) (end -1.33 1.33) (layer B.SilkS) (width 0.12))
    (fp_line (start -1.33 1.33) (end 0 1.33) (layer B.SilkS) (width 0.12))
    (fp_line (start -1.8 1.8) (end -1.8 -6.85) (layer B.CrtYd) (width 0.05))
    (fp_line (start -1.8 -6.85) (end 1.8 -6.85) (layer B.CrtYd) (width 0.05))
    (fp_line (start 1.8 -6.85) (end 1.8 1.8) (layer B.CrtYd) (width 0.05))
    (fp_line (start 1.8 1.8) (end -1.8 1.8) (layer B.CrtYd) (width 0.05))
    (fp_text user %R (at 0 -2.54 270) (layer B.Fab)
      (effects (font (size 1 1) (thickness 0.15)) (justify mirror))
    )
    (pad 1 thru_hole oval (at 0 0) (size 1.7 1.7) (drill 1) (layers *.Cu *.Mask)
      (net 2 5V))
    (pad 2 thru_hole rect (at 0 -2.54) (size 1.7 1.7) (drill 1) (layers *.Cu *.Mask)
      (net 8 SH2_GND))
    (pad 3 thru_hole oval (at 0 -5.08) (size 1.7 1.7) (drill 1) (layers *.Cu *.Mask)
      (net 5 SH2_ADC))
    (model ${KISYS3DMOD}/Pin_Headers.3dshapes/Pin_Header_Straight_1x03_Pitch2.54mm.wrl
      (at (xyz 0 0 0))
      (scale (xyz 1 1 1))
      (rotate (xyz 0 0 0))
    )
  )

  (module TO_SOT_Packages_SMD:SOT-23_Handsoldering (layer B.Cu) (tedit 58CE4E7E) (tstamp 5A08EA10)
    (at 175.55 83.1 180)
    (descr "SOT-23, Handsoldering")
    (tags SOT-23)
    (path /5A088B9B)
    (attr smd)
    (fp_text reference Q1 (at 0 2.5 180) (layer B.SilkS)
      (effects (font (size 1 1) (thickness 0.15)) (justify mirror))
    )
    (fp_text value Q_NMOS_GSD (at 0 -2.5 180) (layer B.Fab)
      (effects (font (size 1 1) (thickness 0.15)) (justify mirror))
    )
    (fp_text user %R (at 0 0 450) (layer B.Fab)
      (effects (font (size 0.5 0.5) (thickness 0.075)) (justify mirror))
    )
    (fp_line (start 0.76 -1.58) (end 0.76 -0.65) (layer B.SilkS) (width 0.12))
    (fp_line (start 0.76 1.58) (end 0.76 0.65) (layer B.SilkS) (width 0.12))
    (fp_line (start -2.7 1.75) (end 2.7 1.75) (layer B.CrtYd) (width 0.05))
    (fp_line (start 2.7 1.75) (end 2.7 -1.75) (layer B.CrtYd) (width 0.05))
    (fp_line (start 2.7 -1.75) (end -2.7 -1.75) (layer B.CrtYd) (width 0.05))
    (fp_line (start -2.7 -1.75) (end -2.7 1.75) (layer B.CrtYd) (width 0.05))
    (fp_line (start 0.76 1.58) (end -2.4 1.58) (layer B.SilkS) (width 0.12))
    (fp_line (start -0.7 0.95) (end -0.7 -1.5) (layer B.Fab) (width 0.1))
    (fp_line (start -0.15 1.52) (end 0.7 1.52) (layer B.Fab) (width 0.1))
    (fp_line (start -0.7 0.95) (end -0.15 1.52) (layer B.Fab) (width 0.1))
    (fp_line (start 0.7 1.52) (end 0.7 -1.52) (layer B.Fab) (width 0.1))
    (fp_line (start -0.7 -1.52) (end 0.7 -1.52) (layer B.Fab) (width 0.1))
    (fp_line (start 0.76 -1.58) (end -0.7 -1.58) (layer B.SilkS) (width 0.12))
    (pad 1 smd rect (at -1.5 0.95 180) (size 1.9 0.8) (layers B.Cu B.Paste B.Mask)
      (net 9 "Net-(Q1-Pad1)"))
    (pad 2 smd rect (at -1.5 -0.95 180) (size 1.9 0.8) (layers B.Cu B.Paste B.Mask)
      (net 1 GND))
    (pad 3 smd rect (at 1.5 0 180) (size 1.9 0.8) (layers B.Cu B.Paste B.Mask)
      (net 3 SH1_GND))
    (model ${KISYS3DMOD}/TO_SOT_Packages_SMD.3dshapes\SOT-23.wrl
      (at (xyz 0 0 0))
      (scale (xyz 1 1 1))
      (rotate (xyz 0 0 0))
    )
  )

  (module TO_SOT_Packages_SMD:SOT-23_Handsoldering (layer B.Cu) (tedit 58CE4E7E) (tstamp 5A08EA17)
    (at 175.55 106.8 180)
    (descr "SOT-23, Handsoldering")
    (tags SOT-23)
    (path /5A0916E1)
    (attr smd)
    (fp_text reference Q2 (at 0 2.5 180) (layer B.SilkS)
      (effects (font (size 1 1) (thickness 0.15)) (justify mirror))
    )
    (fp_text value Q_NMOS_GSD (at 0 -2.5 180) (layer B.Fab)
      (effects (font (size 1 1) (thickness 0.15)) (justify mirror))
    )
    (fp_text user %R (at 0 0 450) (layer B.Fab)
      (effects (font (size 0.5 0.5) (thickness 0.075)) (justify mirror))
    )
    (fp_line (start 0.76 -1.58) (end 0.76 -0.65) (layer B.SilkS) (width 0.12))
    (fp_line (start 0.76 1.58) (end 0.76 0.65) (layer B.SilkS) (width 0.12))
    (fp_line (start -2.7 1.75) (end 2.7 1.75) (layer B.CrtYd) (width 0.05))
    (fp_line (start 2.7 1.75) (end 2.7 -1.75) (layer B.CrtYd) (width 0.05))
    (fp_line (start 2.7 -1.75) (end -2.7 -1.75) (layer B.CrtYd) (width 0.05))
    (fp_line (start -2.7 -1.75) (end -2.7 1.75) (layer B.CrtYd) (width 0.05))
    (fp_line (start 0.76 1.58) (end -2.4 1.58) (layer B.SilkS) (width 0.12))
    (fp_line (start -0.7 0.95) (end -0.7 -1.5) (layer B.Fab) (width 0.1))
    (fp_line (start -0.15 1.52) (end 0.7 1.52) (layer B.Fab) (width 0.1))
    (fp_line (start -0.7 0.95) (end -0.15 1.52) (layer B.Fab) (width 0.1))
    (fp_line (start 0.7 1.52) (end 0.7 -1.52) (layer B.Fab) (width 0.1))
    (fp_line (start -0.7 -1.52) (end 0.7 -1.52) (layer B.Fab) (width 0.1))
    (fp_line (start 0.76 -1.58) (end -0.7 -1.58) (layer B.SilkS) (width 0.12))
    (pad 1 smd rect (at -1.5 0.95 180) (size 1.9 0.8) (layers B.Cu B.Paste B.Mask)
      (net 10 "Net-(Q2-Pad1)"))
    (pad 2 smd rect (at -1.5 -0.95 180) (size 1.9 0.8) (layers B.Cu B.Paste B.Mask)
      (net 1 GND))
    (pad 3 smd rect (at 1.5 0 180) (size 1.9 0.8) (layers B.Cu B.Paste B.Mask)
      (net 8 SH2_GND))
    (model ${KISYS3DMOD}/TO_SOT_Packages_SMD.3dshapes\SOT-23.wrl
      (at (xyz 0 0 0))
      (scale (xyz 1 1 1))
      (rotate (xyz 0 0 0))
    )
  )

  (module Resistors_SMD:R_0805_HandSoldering (layer B.Cu) (tedit 58E0A804) (tstamp 5A08EA23)
    (at 177.01 79 90)
    (descr "Resistor SMD 0805, hand soldering")
    (tags "resistor 0805")
    (path /5A088E29)
    (attr smd)
    (fp_text reference R2 (at 0 1.7 90) (layer B.SilkS)
      (effects (font (size 1 1) (thickness 0.15)) (justify mirror))
    )
    (fp_text value 100K (at 0 -1.75 90) (layer B.Fab)
      (effects (font (size 1 1) (thickness 0.15)) (justify mirror))
    )
    (fp_text user %R (at 0 0 90) (layer B.Fab)
      (effects (font (size 0.5 0.5) (thickness 0.075)) (justify mirror))
    )
    (fp_line (start -1 -0.62) (end -1 0.62) (layer B.Fab) (width 0.1))
    (fp_line (start 1 -0.62) (end -1 -0.62) (layer B.Fab) (width 0.1))
    (fp_line (start 1 0.62) (end 1 -0.62) (layer B.Fab) (width 0.1))
    (fp_line (start -1 0.62) (end 1 0.62) (layer B.Fab) (width 0.1))
    (fp_line (start 0.6 -0.88) (end -0.6 -0.88) (layer B.SilkS) (width 0.12))
    (fp_line (start -0.6 0.88) (end 0.6 0.88) (layer B.SilkS) (width 0.12))
    (fp_line (start -2.35 0.9) (end 2.35 0.9) (layer B.CrtYd) (width 0.05))
    (fp_line (start -2.35 0.9) (end -2.35 -0.9) (layer B.CrtYd) (width 0.05))
    (fp_line (start 2.35 -0.9) (end 2.35 0.9) (layer B.CrtYd) (width 0.05))
    (fp_line (start 2.35 -0.9) (end -2.35 -0.9) (layer B.CrtYd) (width 0.05))
    (pad 1 smd rect (at -1.35 0 90) (size 1.5 1.3) (layers B.Cu B.Paste B.Mask)
      (net 9 "Net-(Q1-Pad1)"))
    (pad 2 smd rect (at 1.35 0 90) (size 1.5 1.3) (layers B.Cu B.Paste B.Mask)
      (net 1 GND))
    (model ${KISYS3DMOD}/Resistors_SMD.3dshapes/R_0805.wrl
      (at (xyz 0 0 0))
      (scale (xyz 1 1 1))
      (rotate (xyz 0 0 0))
    )
  )

  (module Resistors_SMD:R_0805_HandSoldering (layer B.Cu) (tedit 58E0A804) (tstamp 5A08EA2F)
    (at 173.96 102.04 90)
    (descr "Resistor SMD 0805, hand soldering")
    (tags "resistor 0805")
    (path /5A0916E7)
    (attr smd)
    (fp_text reference R4 (at 0 1.7 90) (layer B.SilkS)
      (effects (font (size 1 1) (thickness 0.15)) (justify mirror))
    )
    (fp_text value 100K (at 0 -1.75 90) (layer B.Fab)
      (effects (font (size 1 1) (thickness 0.15)) (justify mirror))
    )
    (fp_text user %R (at 0 0 90) (layer B.Fab)
      (effects (font (size 0.5 0.5) (thickness 0.075)) (justify mirror))
    )
    (fp_line (start -1 -0.62) (end -1 0.62) (layer B.Fab) (width 0.1))
    (fp_line (start 1 -0.62) (end -1 -0.62) (layer B.Fab) (width 0.1))
    (fp_line (start 1 0.62) (end 1 -0.62) (layer B.Fab) (width 0.1))
    (fp_line (start -1 0.62) (end 1 0.62) (layer B.Fab) (width 0.1))
    (fp_line (start 0.6 -0.88) (end -0.6 -0.88) (layer B.SilkS) (width 0.12))
    (fp_line (start -0.6 0.88) (end 0.6 0.88) (layer B.SilkS) (width 0.12))
    (fp_line (start -2.35 0.9) (end 2.35 0.9) (layer B.CrtYd) (width 0.05))
    (fp_line (start -2.35 0.9) (end -2.35 -0.9) (layer B.CrtYd) (width 0.05))
    (fp_line (start 2.35 -0.9) (end 2.35 0.9) (layer B.CrtYd) (width 0.05))
    (fp_line (start 2.35 -0.9) (end -2.35 -0.9) (layer B.CrtYd) (width 0.05))
    (pad 1 smd rect (at -1.35 0 90) (size 1.5 1.3) (layers B.Cu B.Paste B.Mask)
      (net 10 "Net-(Q2-Pad1)"))
    (pad 2 smd rect (at 1.35 0 90) (size 1.5 1.3) (layers B.Cu B.Paste B.Mask)
      (net 1 GND))
    (model ${KISYS3DMOD}/Resistors_SMD.3dshapes/R_0805.wrl
      (at (xyz 0 0 0))
      (scale (xyz 1 1 1))
      (rotate (xyz 0 0 0))
    )
  )

  (module Mounting_Holes:MountingHole_3.2mm_M3_DIN965_Pad (layer F.Cu) (tedit 56D1B4CB) (tstamp 5A08ED0E)
    (at 115.7 63)
    (descr "Mounting Hole 3.2mm, M3, DIN965")
    (tags "mounting hole 3.2mm m3 din965")
    (attr virtual)
    (fp_text reference REF** (at 0 -3.8) (layer F.SilkS)
      (effects (font (size 1 1) (thickness 0.15)))
    )
    (fp_text value MountingHole_3.2mm_M3_DIN965_Pad (at 0 3.8) (layer F.Fab)
      (effects (font (size 1 1) (thickness 0.15)))
    )
    (fp_text user %R (at 0.3 0) (layer F.Fab)
      (effects (font (size 1 1) (thickness 0.15)))
    )
    (fp_circle (center 0 0) (end 2.8 0) (layer Cmts.User) (width 0.15))
    (fp_circle (center 0 0) (end 3.05 0) (layer F.CrtYd) (width 0.05))
    (pad 1 thru_hole circle (at 0 0) (size 5.6 5.6) (drill 3.2) (layers *.Cu *.Mask))
  )

  (module Resistors_SMD:R_1206_HandSoldering (layer B.Cu) (tedit 58E0A804) (tstamp 5A08FB68)
    (at 180.34 83.82 270)
    (descr "Resistor SMD 1206, hand soldering")
    (tags "resistor 1206")
    (path /5A08EFFC)
    (attr smd)
    (fp_text reference R1 (at 0 1.85 270) (layer B.SilkS)
      (effects (font (size 1 1) (thickness 0.15)) (justify mirror))
    )
    (fp_text value 0R (at 0 -1.9 270) (layer B.Fab)
      (effects (font (size 1 1) (thickness 0.15)) (justify mirror))
    )
    (fp_text user %R (at 0 0 270) (layer B.Fab)
      (effects (font (size 0.7 0.7) (thickness 0.105)) (justify mirror))
    )
    (fp_line (start -1.6 -0.8) (end -1.6 0.8) (layer B.Fab) (width 0.1))
    (fp_line (start 1.6 -0.8) (end -1.6 -0.8) (layer B.Fab) (width 0.1))
    (fp_line (start 1.6 0.8) (end 1.6 -0.8) (layer B.Fab) (width 0.1))
    (fp_line (start -1.6 0.8) (end 1.6 0.8) (layer B.Fab) (width 0.1))
    (fp_line (start 1 -1.07) (end -1 -1.07) (layer B.SilkS) (width 0.12))
    (fp_line (start -1 1.07) (end 1 1.07) (layer B.SilkS) (width 0.12))
    (fp_line (start -3.25 1.11) (end 3.25 1.11) (layer B.CrtYd) (width 0.05))
    (fp_line (start -3.25 1.11) (end -3.25 -1.1) (layer B.CrtYd) (width 0.05))
    (fp_line (start 3.25 -1.1) (end 3.25 1.11) (layer B.CrtYd) (width 0.05))
    (fp_line (start 3.25 -1.1) (end -3.25 -1.1) (layer B.CrtYd) (width 0.05))
    (pad 1 smd rect (at -2 0 270) (size 2 1.7) (layers B.Cu B.Paste B.Mask)
      (net 9 "Net-(Q1-Pad1)"))
    (pad 2 smd rect (at 2 0 270) (size 2 1.7) (layers B.Cu B.Paste B.Mask)
      (net 6 SH1_ON))
    (model ${KISYS3DMOD}/Resistors_SMD.3dshapes/R_1206.wrl
      (at (xyz 0 0 0))
      (scale (xyz 1 1 1))
      (rotate (xyz 0 0 0))
    )
  )

  (module Resistors_SMD:R_1206_HandSoldering (layer B.Cu) (tedit 58E0A804) (tstamp 5A08FB6D)
    (at 177.038 101.4 90)
    (descr "Resistor SMD 1206, hand soldering")
    (tags "resistor 1206")
    (path /5A0916FB)
    (attr smd)
    (fp_text reference R3 (at 0 1.85 90) (layer B.SilkS)
      (effects (font (size 1 1) (thickness 0.15)) (justify mirror))
    )
    (fp_text value 0R (at 0 -1.9 90) (layer B.Fab)
      (effects (font (size 1 1) (thickness 0.15)) (justify mirror))
    )
    (fp_text user %R (at 0 0 90) (layer B.Fab)
      (effects (font (size 0.7 0.7) (thickness 0.105)) (justify mirror))
    )
    (fp_line (start -1.6 -0.8) (end -1.6 0.8) (layer B.Fab) (width 0.1))
    (fp_line (start 1.6 -0.8) (end -1.6 -0.8) (layer B.Fab) (width 0.1))
    (fp_line (start 1.6 0.8) (end 1.6 -0.8) (layer B.Fab) (width 0.1))
    (fp_line (start -1.6 0.8) (end 1.6 0.8) (layer B.Fab) (width 0.1))
    (fp_line (start 1 -1.07) (end -1 -1.07) (layer B.SilkS) (width 0.12))
    (fp_line (start -1 1.07) (end 1 1.07) (layer B.SilkS) (width 0.12))
    (fp_line (start -3.25 1.11) (end 3.25 1.11) (layer B.CrtYd) (width 0.05))
    (fp_line (start -3.25 1.11) (end -3.25 -1.1) (layer B.CrtYd) (width 0.05))
    (fp_line (start 3.25 -1.1) (end 3.25 1.11) (layer B.CrtYd) (width 0.05))
    (fp_line (start 3.25 -1.1) (end -3.25 -1.1) (layer B.CrtYd) (width 0.05))
    (pad 1 smd rect (at -2 0 90) (size 2 1.7) (layers B.Cu B.Paste B.Mask)
      (net 10 "Net-(Q2-Pad1)"))
    (pad 2 smd rect (at 2 0 90) (size 2 1.7) (layers B.Cu B.Paste B.Mask)
      (net 7 SH2_ON))
    (model ${KISYS3DMOD}/Resistors_SMD.3dshapes/R_1206.wrl
      (at (xyz 0 0 0))
      (scale (xyz 1 1 1))
      (rotate (xyz 0 0 0))
    )
  )

  (gr_line (start 141.7 81) (end 185.7 81) (layer Cmts.User) (width 0.2))
  (gr_line (start 123.93 118.49) (end 123.93 105.5) (layer Edge.Cuts) (width 0.15))
  (gr_line (start 153.43 118.47) (end 123.93 118.49) (layer Edge.Cuts) (width 0.15))
  (gr_line (start 153.43 105.5) (end 153.43 118.47) (layer Edge.Cuts) (width 0.15))
  (gr_line (start 123.93 105.5) (end 153.43 105.5) (layer Edge.Cuts) (width 0.15))
  (gr_line (start 141.7 96) (end 141.7 66.5) (layer Edge.Cuts) (width 0.15))
  (gr_line (start 154.7 96) (end 141.7 96) (layer Edge.Cuts) (width 0.15))
  (gr_line (start 154.7 66.5) (end 154.7 96) (layer Edge.Cuts) (width 0.15))
  (gr_line (start 141.7 66.5) (end 154.7 66.5) (layer Edge.Cuts) (width 0.15))
  (gr_line (start 154.7 95.99) (end 154.7 66.49) (layer Dwgs.User) (width 0.1))
  (gr_line (start 110.7 133) (end 110.7 58) (layer Edge.Cuts) (width 0.15))
  (gr_line (start 185.7 133) (end 110.7 133) (layer Edge.Cuts) (width 0.15))
  (gr_line (start 185.7 58) (end 185.7 133) (layer Edge.Cuts) (width 0.15))
  (gr_line (start 110.7 58) (end 185.7 58) (layer Edge.Cuts) (width 0.15))
  (gr_line (start 110.7 95.5) (end 185.7 95.5) (layer Cmts.User) (width 0.2))
  (gr_line (start 142.25 87.29) (end 142.25 94.24) (layer Dwgs.User) (width 0.1))
  (gr_circle (center 180.7 62.99) (end 182.2 62.99) (layer Dwgs.User) (width 0.1))
  (gr_arc (start 144 73.69) (end 142.25 73.69) (angle -90) (layer Dwgs.User) (width 0.1))
  (gr_line (start 185.7 132.99) (end 185.7 57.99) (layer Dwgs.User) (width 0.1))
  (gr_arc (start 144 94.24) (end 142.25 94.24) (angle -90) (layer Dwgs.User) (width 0.1))
  (gr_line (start 110.7 57.99) (end 110.7 132.99) (layer Dwgs.User) (width 0.1))
  (gr_circle (center 115.7 127.99) (end 117.2 127.99) (layer Dwgs.User) (width 0.1))
  (gr_arc (start 144 68.24) (end 144 66.49) (angle -90) (layer Dwgs.User) (width 0.1))
  (gr_line (start 144 75.44) (end 152.4 75.44) (layer Dwgs.User) (width 0.1))
  (gr_arc (start 144 87.29) (end 144 85.54) (angle -90) (layer Dwgs.User) (width 0.1))
  (gr_circle (center 180.7 127.99) (end 182.2 127.99) (layer Dwgs.User) (width 0.1))
  (gr_circle (center 120.175 111.99) (end 121.775 111.99) (layer Dwgs.User) (width 0.1))
  (gr_line (start 142.25 68.24) (end 142.25 73.69) (layer Dwgs.User) (width 0.1))
  (gr_arc (start 152.4 68.24) (end 154.15 68.24) (angle -90) (layer Dwgs.User) (width 0.1))
  (gr_line (start 110.7 132.99) (end 185.7 132.99) (layer Dwgs.User) (width 0.1))
  (gr_arc (start 152.4 94.24) (end 152.4 95.99) (angle -90) (layer Dwgs.User) (width 0.1))
  (gr_line (start 152.4 85.54) (end 144 85.54) (layer Dwgs.User) (width 0.1))
  (gr_circle (center 148.2 99.74) (end 149.8 99.74) (layer Dwgs.User) (width 0.1))
  (gr_circle (center 157.175 111.99) (end 158.775 111.99) (layer Dwgs.User) (width 0.1))
  (gr_arc (start 152.4 73.69) (end 152.4 75.44) (angle -90) (layer Dwgs.User) (width 0.1))
  (gr_line (start 144 95.99) (end 152.4 95.99) (layer Dwgs.User) (width 0.1))
  (gr_line (start 185.7 57.99) (end 110.7 57.99) (layer Dwgs.User) (width 0.1))
  (gr_line (start 154.15 73.69) (end 154.15 68.24) (layer Dwgs.User) (width 0.1))
  (gr_line (start 152.4 66.49) (end 144 66.49) (layer Dwgs.User) (width 0.1))
  (gr_arc (start 152.4 87.29) (end 154.15 87.29) (angle -90) (layer Dwgs.User) (width 0.1))
  (gr_circle (center 115.7 62.99) (end 117.2 62.99) (layer Dwgs.User) (width 0.1))
  (gr_circle (center 148.2 62.74) (end 149.8 62.74) (layer Dwgs.User) (width 0.1))
  (gr_line (start 154.15 94.24) (end 154.15 87.29) (layer Dwgs.User) (width 0.1))
  (gr_line (start 152.4 95.99) (end 154.7 95.99) (layer Dwgs.User) (width 0.1))
  (gr_line (start 141.7 66.49) (end 141.7 95.99) (layer Dwgs.User) (width 0.1))
  (gr_line (start 143.25 74.44) (end 143.25 67.49) (layer Dwgs.User) (width 0.1))
  (gr_line (start 153.15 74.44) (end 143.25 74.44) (layer Dwgs.User) (width 0.1))
  (gr_line (start 143.25 67.49) (end 153.15 67.49) (layer Dwgs.User) (width 0.1))
  (gr_line (start 153.15 86.54) (end 153.15 94.99) (layer Dwgs.User) (width 0.1))
  (gr_line (start 153.15 94.99) (end 143.25 94.99) (layer Dwgs.User) (width 0.1))
  (gr_line (start 131.125 106.04) (end 125.675 106.04) (layer Dwgs.User) (width 0.1))
  (gr_line (start 142.975 107.79) (end 142.975 116.19) (layer Dwgs.User) (width 0.1))
  (gr_line (start 132.875 116.19) (end 132.875 107.79) (layer Dwgs.User) (width 0.1))
  (gr_line (start 153.425 118.49) (end 153.425 116.19) (layer Dwgs.User) (width 0.1))
  (gr_line (start 153.425 107.79) (end 153.425 105.49) (layer Dwgs.User) (width 0.1))
  (gr_line (start 131.875 107.04) (end 131.875 116.94) (layer Dwgs.User) (width 0.1))
  (gr_line (start 152.425 107.04) (end 152.425 116.94) (layer Dwgs.User) (width 0.1))
  (gr_line (start 142.975 107.79) (end 132.875 107.79) (layer Dwgs.User) (width 0.1))
  (gr_line (start 123.925 116.19) (end 123.925 118.49) (layer Dwgs.User) (width 0.1))
  (gr_line (start 123.925 105.49) (end 123.925 107.79) (layer Dwgs.User) (width 0.1))
  (gr_line (start 123.925 118.49) (end 153.425 118.49) (layer Dwgs.User) (width 0.1))
  (gr_line (start 124.925 116.94) (end 124.925 107.04) (layer Dwgs.User) (width 0.1))
  (gr_line (start 143.975 116.94) (end 143.975 107.04) (layer Dwgs.User) (width 0.1))
  (gr_line (start 124.925 107.04) (end 131.875 107.04) (layer Dwgs.User) (width 0.1))
  (gr_line (start 131.875 116.94) (end 124.925 116.94) (layer Dwgs.User) (width 0.1))
  (gr_line (start 152.425 116.94) (end 143.975 116.94) (layer Dwgs.User) (width 0.1))
  (gr_arc (start 131.125 107.79) (end 132.875 107.79) (angle -90) (layer Dwgs.User) (width 0.1))
  (gr_line (start 123.925 107.79) (end 123.925 116.19) (layer Dwgs.User) (width 0.1))
  (gr_line (start 153.425 116.19) (end 153.425 107.79) (layer Dwgs.User) (width 0.1))
  (gr_line (start 143.975 107.04) (end 152.425 107.04) (layer Dwgs.User) (width 0.1))
  (gr_arc (start 151.675 116.19) (end 151.675 117.94) (angle -90) (layer Dwgs.User) (width 0.1))
  (gr_line (start 141.7 95.99) (end 144 95.99) (layer Dwgs.User) (width 0.1))
  (gr_line (start 154.7 66.49) (end 152.4 66.49) (layer Dwgs.User) (width 0.1))
  (gr_line (start 153.15 67.49) (end 153.15 74.44) (layer Dwgs.User) (width 0.1))
  (gr_line (start 143.25 86.54) (end 153.15 86.54) (layer Dwgs.User) (width 0.1))
  (gr_arc (start 125.675 116.19) (end 123.925 116.19) (angle -90) (layer Dwgs.User) (width 0.1))
  (gr_arc (start 131.125 116.19) (end 131.125 117.94) (angle -90) (layer Dwgs.User) (width 0.1))
  (gr_line (start 125.675 117.94) (end 131.125 117.94) (layer Dwgs.User) (width 0.1))
  (gr_line (start 151.675 106.04) (end 144.725 106.04) (layer Dwgs.User) (width 0.1))
  (gr_line (start 144.725 117.94) (end 151.675 117.94) (layer Dwgs.User) (width 0.1))
  (gr_line (start 144 75.44) (end 144 85.54) (layer Dwgs.User) (width 0.1))
  (gr_line (start 143.25 94.99) (end 143.25 86.54) (layer Dwgs.User) (width 0.1))
  (gr_arc (start 125.675 107.79) (end 125.675 106.04) (angle -90) (layer Dwgs.User) (width 0.1))
  (gr_arc (start 151.675 107.79) (end 153.425 107.79) (angle -90) (layer Dwgs.User) (width 0.1))
  (gr_arc (start 144.725 116.19) (end 142.975 116.19) (angle -90) (layer Dwgs.User) (width 0.1))
  (gr_line (start 132.875 116.19) (end 142.975 116.19) (layer Dwgs.User) (width 0.1))
  (gr_line (start 153.425 105.49) (end 123.925 105.49) (layer Dwgs.User) (width 0.1))
  (gr_arc (start 144.725 107.79) (end 144.725 106.04) (angle -90) (layer Dwgs.User) (width 0.1))
  (gr_line (start 152.4 85.54) (end 152.4 75.44) (layer Dwgs.User) (width 0.1))
  (gr_line (start 144 66.49) (end 141.7 66.49) (layer Dwgs.User) (width 0.1))

  (segment (start 170.45 80.57) (end 168.03 80.57) (width 0.8) (layer F.Cu) (net 2))
  (segment (start 168.03 80.57) (end 165.98 82.62) (width 0.8) (layer F.Cu) (net 2))
  (segment (start 165.98 82.62) (end 165.98 93.747919) (width 0.8) (layer F.Cu) (net 2))
  (segment (start 165.98 93.747919) (end 165.98 94.95) (width 0.8) (layer F.Cu) (net 2))
  (segment (start 165.98 94.95) (end 165.98 108.068) (width 0.8) (layer B.Cu) (net 2))
  (segment (start 165.98 108.068) (end 167.252 109.34) (width 0.8) (layer B.Cu) (net 2))
  (segment (start 167.252 109.34) (end 169.75 109.34) (width 0.8) (layer B.Cu) (net 2))
  (segment (start 169.75 109.34) (end 169.75 112.568) (width 0.8) (layer B.Cu) (net 2))
  (segment (start 169.75 112.568) (end 169.958 112.776) (width 0.8) (layer B.Cu) (net 2))
  (segment (start 174.01 109.728) (end 170.138 109.728) (width 0.8) (layer B.Cu) (net 2))
  (segment (start 170.138 109.728) (end 169.75 109.34) (width 0.8) (layer B.Cu) (net 2))
  (segment (start 170.45 80.57) (end 166.39 80.57) (width 0.8) (layer B.Cu) (net 2))
  (segment (start 166.39 80.57) (end 166.37 80.55) (width 0.8) (layer B.Cu) (net 2))
  (segment (start 174.244 80.264) (end 170.756 80.264) (width 0.8) (layer B.Cu) (net 2))
  (segment (start 170.756 80.264) (end 170.45 80.57) (width 0.8) (layer B.Cu) (net 2))
  (segment (start 169.99 109.58) (end 169.75 109.34) (width 0.8) (layer B.Cu) (net 2))
  (segment (start 169.76 109.33) (end 169.75 109.34) (width 0.8) (layer B.Cu) (net 2))
  (segment (start 174.05 83.1) (end 170.46 83.1) (width 0.8) (layer B.Cu) (net 3))
  (segment (start 170.46 83.1) (end 170.45 83.11) (width 0.8) (layer B.Cu) (net 3))
  (segment (start 170.45 85.65) (end 170.7 85.9) (width 0.8) (layer B.Cu) (net 4))
  (segment (start 170.7 85.9) (end 170.7 94.59) (width 0.8) (layer B.Cu) (net 4))
  (segment (start 170.7 94.59) (end 171.06 94.95) (width 0.8) (layer B.Cu) (net 4))
  (segment (start 173.6 94.95) (end 173.6 97.15) (width 0.8) (layer B.Cu) (net 5))
  (segment (start 173.6 97.15) (end 169.75 101) (width 0.8) (layer B.Cu) (net 5))
  (segment (start 169.75 101) (end 169.75 104.26) (width 0.8) (layer B.Cu) (net 5))
  (segment (start 180.34 86.074) (end 178.626 86.074) (width 0.8) (layer B.Cu) (net 6))
  (segment (start 178.626 86.074) (end 176.14 88.56) (width 0.8) (layer B.Cu) (net 6))
  (segment (start 176.14 88.56) (end 176.14 93.747919) (width 0.8) (layer B.Cu) (net 6))
  (segment (start 176.14 93.747919) (end 176.14 94.95) (width 0.8) (layer B.Cu) (net 6))
  (segment (start 178.68 96.04) (end 176.994 97.726) (width 0.8) (layer B.Cu) (net 7))
  (segment (start 176.994 97.726) (end 176.994 99.356) (width 0.8) (layer B.Cu) (net 7))
  (segment (start 178.68 94.95) (end 178.68 96.04) (width 0.8) (layer B.Cu) (net 7))
  (segment (start 176.994 99.356) (end 177.038 99.4) (width 0.8) (layer B.Cu) (net 7))
  (segment (start 169.75 106.8) (end 173.75 106.8) (width 0.8) (layer B.Cu) (net 8))
  (segment (start 177.01 80.35) (end 177.01 82.11) (width 0.8) (layer B.Cu) (net 9))
  (segment (start 177.01 82.11) (end 177.05 82.15) (width 0.8) (layer B.Cu) (net 9))
  (segment (start 180.34 82.074) (end 177.126 82.074) (width 0.8) (layer B.Cu) (net 9))
  (segment (start 177.126 82.074) (end 177.05 82.15) (width 0.8) (layer B.Cu) (net 9))
  (segment (start 174.04 103.42) (end 177.018 103.42) (width 0.8) (layer B.Cu) (net 10))
  (segment (start 177.038 103.4) (end 177.038 105.838) (width 0.8) (layer B.Cu) (net 10))
  (segment (start 177.018 103.42) (end 177.038 103.4) (width 0.8) (layer B.Cu) (net 10))
  (segment (start 177.038 105.838) (end 177.05 105.85) (width 0.8) (layer B.Cu) (net 10))

  (zone (net 1) (net_name GND) (layer F.Cu) (tstamp 0) (hatch edge 0.508)
    (connect_pads (clearance 0.508))
    (min_thickness 0.254)
    (fill yes (arc_segments 16) (thermal_gap 0.508) (thermal_bridge_width 0.508))
    (polygon
      (pts
        (xy 110.7 58) (xy 185.7 58) (xy 185.7 133) (xy 110.7 133)
      )
    )
    (filled_polygon
      (pts
        (xy 184.99 132.29) (xy 111.41 132.29) (xy 111.41 128.680266) (xy 112.264405 128.680266) (xy 112.78625 129.943229)
        (xy 113.751688 130.910354) (xy 115.013739 131.434403) (xy 116.380266 131.435595) (xy 117.643229 130.91375) (xy 118.610354 129.948312)
        (xy 119.134403 128.686261) (xy 119.134408 128.680266) (xy 177.264405 128.680266) (xy 177.78625 129.943229) (xy 178.751688 130.910354)
        (xy 180.013739 131.434403) (xy 181.380266 131.435595) (xy 182.643229 130.91375) (xy 183.610354 129.948312) (xy 184.134403 128.686261)
        (xy 184.135595 127.319734) (xy 183.61375 126.056771) (xy 182.648312 125.089646) (xy 181.386261 124.565597) (xy 180.019734 124.564405)
        (xy 178.756771 125.08625) (xy 177.789646 126.051688) (xy 177.265597 127.313739) (xy 177.264405 128.680266) (xy 119.134408 128.680266)
        (xy 119.135595 127.319734) (xy 118.61375 126.056771) (xy 117.648312 125.089646) (xy 116.386261 124.565597) (xy 115.019734 124.564405)
        (xy 113.756771 125.08625) (xy 112.789646 126.051688) (xy 112.265597 127.313739) (xy 112.264405 128.680266) (xy 111.41 128.680266)
        (xy 111.41 112.680266) (xy 116.764405 112.680266) (xy 117.28625 113.943229) (xy 118.251688 114.910354) (xy 119.513739 115.434403)
        (xy 120.880266 115.435595) (xy 122.143229 114.91375) (xy 123.110354 113.948312) (xy 123.22 113.684255) (xy 123.22 118.49)
        (xy 123.220048 118.49024) (xy 123.22 118.490481) (xy 123.247143 118.626454) (xy 123.274046 118.761705) (xy 123.274182 118.761908)
        (xy 123.27423 118.76215) (xy 123.351438 118.877531) (xy 123.427954 118.992046) (xy 123.428157 118.992182) (xy 123.428294 118.992386)
        (xy 123.543254 119.069086) (xy 123.658295 119.145954) (xy 123.658536 119.146002) (xy 123.65874 119.146138) (xy 123.794472 119.173042)
        (xy 123.93 119.2) (xy 123.93024 119.199952) (xy 123.930481 119.2) (xy 153.430482 119.18) (xy 153.566595 119.152829)
        (xy 153.701705 119.125954) (xy 153.701908 119.125818) (xy 153.70215 119.12577) (xy 153.817531 119.048562) (xy 153.932046 118.972046)
        (xy 153.932182 118.971843) (xy 153.932386 118.971706) (xy 154.009086 118.856746) (xy 154.085954 118.741705) (xy 154.086002 118.741464)
        (xy 154.086138 118.74126) (xy 154.113042 118.605528) (xy 154.14 118.47) (xy 154.14 113.589277) (xy 154.28625 113.943229)
        (xy 155.251688 114.910354) (xy 156.513739 115.434403) (xy 157.880266 115.435595) (xy 159.143229 114.91375) (xy 160.110354 113.948312)
        (xy 160.634403 112.686261) (xy 160.635595 111.319734) (xy 160.11375 110.056771) (xy 159.148312 109.089646) (xy 157.886261 108.565597)
        (xy 156.519734 108.564405) (xy 155.256771 109.08625) (xy 154.289646 110.051688) (xy 154.14 110.412076) (xy 154.14 105.5)
        (xy 154.085954 105.228295) (xy 153.932046 104.997954) (xy 153.701705 104.844046) (xy 153.43 104.79) (xy 123.93 104.79)
        (xy 123.658295 104.844046) (xy 123.427954 104.997954) (xy 123.274046 105.228295) (xy 123.22 105.5) (xy 123.22 110.313916)
        (xy 123.11375 110.056771) (xy 122.148312 109.089646) (xy 120.886261 108.565597) (xy 119.519734 108.564405) (xy 118.256771 109.08625)
        (xy 117.289646 110.051688) (xy 116.765597 111.313739) (xy 116.764405 112.680266) (xy 111.41 112.680266) (xy 111.41 104.26)
        (xy 168.235907 104.26) (xy 168.348946 104.828285) (xy 168.670853 105.310054) (xy 168.712452 105.33785) (xy 168.664683 105.346838)
        (xy 168.448559 105.48591) (xy 168.303569 105.69811) (xy 168.25256 105.95) (xy 168.25256 107.65) (xy 168.296838 107.885317)
        (xy 168.43591 108.101441) (xy 168.64811 108.246431) (xy 168.715541 108.260086) (xy 168.670853 108.289946) (xy 168.348946 108.771715)
        (xy 168.235907 109.34) (xy 168.348946 109.908285) (xy 168.670853 110.390054) (xy 169.152622 110.711961) (xy 169.720907 110.825)
        (xy 169.779093 110.825) (xy 170.347378 110.711961) (xy 170.829147 110.390054) (xy 171.151054 109.908285) (xy 171.264093 109.34)
        (xy 171.151054 108.771715) (xy 170.829147 108.289946) (xy 170.787548 108.26215) (xy 170.835317 108.253162) (xy 171.051441 108.11409)
        (xy 171.196431 107.90189) (xy 171.24744 107.65) (xy 171.24744 105.95) (xy 171.203162 105.714683) (xy 171.06409 105.498559)
        (xy 170.85189 105.353569) (xy 170.784459 105.339914) (xy 170.829147 105.310054) (xy 171.151054 104.828285) (xy 171.264093 104.26)
        (xy 171.151054 103.691715) (xy 170.829147 103.209946) (xy 170.347378 102.888039) (xy 169.779093 102.775) (xy 169.720907 102.775)
        (xy 169.152622 102.888039) (xy 168.670853 103.209946) (xy 168.348946 103.691715) (xy 168.235907 104.26) (xy 111.41 104.26)
        (xy 111.41 66.5) (xy 140.99 66.5) (xy 140.99 96) (xy 141.044046 96.271705) (xy 141.197954 96.502046)
        (xy 141.428295 96.655954) (xy 141.7 96.71) (xy 146.56232 96.71) (xy 146.256771 96.83625) (xy 145.289646 97.801688)
        (xy 144.765597 99.063739) (xy 144.764405 100.430266) (xy 145.28625 101.693229) (xy 146.251688 102.660354) (xy 147.513739 103.184403)
        (xy 148.880266 103.185595) (xy 150.143229 102.66375) (xy 151.110354 101.698312) (xy 151.634403 100.436261) (xy 151.635595 99.069734)
        (xy 151.11375 97.806771) (xy 150.148312 96.839646) (xy 149.83609 96.71) (xy 154.7 96.71) (xy 154.971705 96.655954)
        (xy 155.202046 96.502046) (xy 155.355954 96.271705) (xy 155.41 96) (xy 155.41 94.920907) (xy 164.495 94.920907)
        (xy 164.495 94.979093) (xy 164.608039 95.547378) (xy 164.929946 96.029147) (xy 165.411715 96.351054) (xy 165.98 96.464093)
        (xy 166.548285 96.351054) (xy 167.030054 96.029147) (xy 167.059403 95.985223) (xy 167.131673 96.159698) (xy 167.310301 96.338327)
        (xy 167.54369 96.435) (xy 168.23425 96.435) (xy 168.393 96.27625) (xy 168.393 95.077) (xy 168.373 95.077)
        (xy 168.373 94.823) (xy 168.393 94.823) (xy 168.393 93.62375) (xy 168.647 93.62375) (xy 168.647 94.823)
        (xy 168.667 94.823) (xy 168.667 95.077) (xy 168.647 95.077) (xy 168.647 96.27625) (xy 168.80575 96.435)
        (xy 169.49631 96.435) (xy 169.729699 96.338327) (xy 169.908327 96.159698) (xy 169.980597 95.985223) (xy 170.009946 96.029147)
        (xy 170.491715 96.351054) (xy 171.06 96.464093) (xy 171.628285 96.351054) (xy 172.110054 96.029147) (xy 172.33 95.699974)
        (xy 172.549946 96.029147) (xy 173.031715 96.351054) (xy 173.6 96.464093) (xy 174.168285 96.351054) (xy 174.650054 96.029147)
        (xy 174.87 95.699974) (xy 175.089946 96.029147) (xy 175.571715 96.351054) (xy 176.14 96.464093) (xy 176.708285 96.351054)
        (xy 177.190054 96.029147) (xy 177.41 95.699974) (xy 177.629946 96.029147) (xy 178.111715 96.351054) (xy 178.68 96.464093)
        (xy 179.248285 96.351054) (xy 179.730054 96.029147) (xy 180.051961 95.547378) (xy 180.165 94.979093) (xy 180.165 94.920907)
        (xy 180.051961 94.352622) (xy 179.730054 93.870853) (xy 179.248285 93.548946) (xy 178.68 93.435907) (xy 178.111715 93.548946)
        (xy 177.629946 93.870853) (xy 177.41 94.200026) (xy 177.190054 93.870853) (xy 176.708285 93.548946) (xy 176.14 93.435907)
        (xy 175.571715 93.548946) (xy 175.089946 93.870853) (xy 174.87 94.200026) (xy 174.650054 93.870853) (xy 174.168285 93.548946)
        (xy 173.6 93.435907) (xy 173.031715 93.548946) (xy 172.549946 93.870853) (xy 172.33 94.200026) (xy 172.110054 93.870853)
        (xy 171.628285 93.548946) (xy 171.06 93.435907) (xy 170.491715 93.548946) (xy 170.009946 93.870853) (xy 169.980597 93.914777)
        (xy 169.908327 93.740302) (xy 169.729699 93.561673) (xy 169.49631 93.465) (xy 168.80575 93.465) (xy 168.647 93.62375)
        (xy 168.393 93.62375) (xy 168.23425 93.465) (xy 167.54369 93.465) (xy 167.310301 93.561673) (xy 167.131673 93.740302)
        (xy 167.059403 93.914777) (xy 167.030054 93.870853) (xy 167.015 93.860794) (xy 167.015 83.048712) (xy 168.458711 81.605)
        (xy 169.360794 81.605) (xy 169.370853 81.620054) (xy 169.412452 81.64785) (xy 169.364683 81.656838) (xy 169.148559 81.79591)
        (xy 169.003569 82.00811) (xy 168.95256 82.26) (xy 168.95256 83.96) (xy 168.996838 84.195317) (xy 169.13591 84.411441)
        (xy 169.34811 84.556431) (xy 169.415541 84.570086) (xy 169.370853 84.599946) (xy 169.048946 85.081715) (xy 168.935907 85.65)
        (xy 169.048946 86.218285) (xy 169.370853 86.700054) (xy 169.852622 87.021961) (xy 170.420907 87.135) (xy 170.479093 87.135)
        (xy 171.047378 87.021961) (xy 171.529147 86.700054) (xy 171.851054 86.218285) (xy 171.964093 85.65) (xy 171.851054 85.081715)
        (xy 171.529147 84.599946) (xy 171.487548 84.57215) (xy 171.535317 84.563162) (xy 171.751441 84.42409) (xy 171.896431 84.21189)
        (xy 171.94744 83.96) (xy 171.94744 82.26) (xy 171.903162 82.024683) (xy 171.76409 81.808559) (xy 171.55189 81.663569)
        (xy 171.484459 81.649914) (xy 171.529147 81.620054) (xy 171.851054 81.138285) (xy 171.964093 80.57) (xy 171.851054 80.001715)
        (xy 171.529147 79.519946) (xy 171.047378 79.198039) (xy 170.479093 79.085) (xy 170.420907 79.085) (xy 169.852622 79.198039)
        (xy 169.370853 79.519946) (xy 169.360794 79.535) (xy 168.030005 79.535) (xy 168.03 79.534999) (xy 167.633923 79.613785)
        (xy 167.298144 79.838144) (xy 167.298142 79.838147) (xy 165.248144 81.888144) (xy 165.023785 82.223923) (xy 164.944999 82.62)
        (xy 164.945 82.620005) (xy 164.945 93.860794) (xy 164.929946 93.870853) (xy 164.608039 94.352622) (xy 164.495 94.920907)
        (xy 155.41 94.920907) (xy 155.41 66.5) (xy 155.355954 66.228295) (xy 155.202046 65.997954) (xy 154.971705 65.844046)
        (xy 154.7 65.79) (xy 149.83768 65.79) (xy 150.143229 65.66375) (xy 151.110354 64.698312) (xy 151.533083 63.680266)
        (xy 177.264405 63.680266) (xy 177.78625 64.943229) (xy 178.751688 65.910354) (xy 180.013739 66.434403) (xy 181.380266 66.435595)
        (xy 182.643229 65.91375) (xy 183.610354 64.948312) (xy 184.134403 63.686261) (xy 184.135595 62.319734) (xy 183.61375 61.056771)
        (xy 182.648312 60.089646) (xy 181.386261 59.565597) (xy 180.019734 59.564405) (xy 178.756771 60.08625) (xy 177.789646 61.051688)
        (xy 177.265597 62.313739) (xy 177.264405 63.680266) (xy 151.533083 63.680266) (xy 151.634403 63.436261) (xy 151.635595 62.069734)
        (xy 151.11375 60.806771) (xy 150.148312 59.839646) (xy 148.886261 59.315597) (xy 147.519734 59.314405) (xy 146.256771 59.83625)
        (xy 145.289646 60.801688) (xy 144.765597 62.063739) (xy 144.764405 63.430266) (xy 145.28625 64.693229) (xy 146.251688 65.660354)
        (xy 146.56391 65.79) (xy 141.7 65.79) (xy 141.428295 65.844046) (xy 141.197954 65.997954) (xy 141.044046 66.228295)
        (xy 140.99 66.5) (xy 111.41 66.5) (xy 111.41 63.680266) (xy 112.264405 63.680266) (xy 112.78625 64.943229)
        (xy 113.751688 65.910354) (xy 115.013739 66.434403) (xy 116.380266 66.435595) (xy 117.643229 65.91375) (xy 118.610354 64.948312)
        (xy 119.134403 63.686261) (xy 119.135595 62.319734) (xy 118.61375 61.056771) (xy 117.648312 60.089646) (xy 116.386261 59.565597)
        (xy 115.019734 59.564405) (xy 113.756771 60.08625) (xy 112.789646 61.051688) (xy 112.265597 62.313739) (xy 112.264405 63.680266)
        (xy 111.41 63.680266) (xy 111.41 58.71) (xy 184.99 58.71)
      )
    )
  )
  (zone (net 1) (net_name GND) (layer B.Cu) (tstamp 0) (hatch edge 0.508)
    (connect_pads (clearance 0.508))
    (min_thickness 0.254)
    (fill yes (arc_segments 16) (thermal_gap 0.508) (thermal_bridge_width 0.508))
    (polygon
      (pts
        (xy 110.7 58) (xy 185.7 58) (xy 185.7 133) (xy 110.7 133)
      )
    )
    (filled_polygon
      (pts
        (xy 184.99 132.29) (xy 111.41 132.29) (xy 111.41 128.680266) (xy 112.264405 128.680266) (xy 112.78625 129.943229)
        (xy 113.751688 130.910354) (xy 115.013739 131.434403) (xy 116.380266 131.435595) (xy 117.643229 130.91375) (xy 118.610354 129.948312)
        (xy 119.134403 128.686261) (xy 119.134408 128.680266) (xy 177.264405 128.680266) (xy 177.78625 129.943229) (xy 178.751688 130.910354)
        (xy 180.013739 131.434403) (xy 181.380266 131.435595) (xy 182.643229 130.91375) (xy 183.610354 129.948312) (xy 184.134403 128.686261)
        (xy 184.135595 127.319734) (xy 183.61375 126.056771) (xy 182.648312 125.089646) (xy 181.386261 124.565597) (xy 180.019734 124.564405)
        (xy 178.756771 125.08625) (xy 177.789646 126.051688) (xy 177.265597 127.313739) (xy 177.264405 128.680266) (xy 119.134408 128.680266)
        (xy 119.135595 127.319734) (xy 118.61375 126.056771) (xy 117.648312 125.089646) (xy 116.386261 124.565597) (xy 115.019734 124.564405)
        (xy 113.756771 125.08625) (xy 112.789646 126.051688) (xy 112.265597 127.313739) (xy 112.264405 128.680266) (xy 111.41 128.680266)
        (xy 111.41 112.680266) (xy 116.764405 112.680266) (xy 117.28625 113.943229) (xy 118.251688 114.910354) (xy 119.513739 115.434403)
        (xy 120.880266 115.435595) (xy 122.143229 114.91375) (xy 123.110354 113.948312) (xy 123.22 113.684255) (xy 123.22 118.49)
        (xy 123.220048 118.49024) (xy 123.22 118.490481) (xy 123.247143 118.626454) (xy 123.274046 118.761705) (xy 123.274182 118.761908)
        (xy 123.27423 118.76215) (xy 123.351438 118.877531) (xy 123.427954 118.992046) (xy 123.428157 118.992182) (xy 123.428294 118.992386)
        (xy 123.543254 119.069086) (xy 123.658295 119.145954) (xy 123.658536 119.146002) (xy 123.65874 119.146138) (xy 123.794472 119.173042)
        (xy 123.93 119.2) (xy 123.93024 119.199952) (xy 123.930481 119.2) (xy 153.430482 119.18) (xy 153.566595 119.152829)
        (xy 153.701705 119.125954) (xy 153.701908 119.125818) (xy 153.70215 119.12577) (xy 153.817531 119.048562) (xy 153.932046 118.972046)
        (xy 153.932182 118.971843) (xy 153.932386 118.971706) (xy 154.009086 118.856746) (xy 154.085954 118.741705) (xy 154.086002 118.741464)
        (xy 154.086138 118.74126) (xy 154.113042 118.605528) (xy 154.14 118.47) (xy 154.14 113.589277) (xy 154.28625 113.943229)
        (xy 155.251688 114.910354) (xy 156.513739 115.434403) (xy 157.880266 115.435595) (xy 159.143229 114.91375) (xy 160.110354 113.948312)
        (xy 160.634403 112.686261) (xy 160.635595 111.319734) (xy 160.11375 110.056771) (xy 159.148312 109.089646) (xy 157.886261 108.565597)
        (xy 156.519734 108.564405) (xy 155.256771 109.08625) (xy 154.289646 110.051688) (xy 154.14 110.412076) (xy 154.14 105.5)
        (xy 154.085954 105.228295) (xy 153.932046 104.997954) (xy 153.701705 104.844046) (xy 153.43 104.79) (xy 123.93 104.79)
        (xy 123.658295 104.844046) (xy 123.427954 104.997954) (xy 123.274046 105.228295) (xy 123.22 105.5) (xy 123.22 110.313916)
        (xy 123.11375 110.056771) (xy 122.148312 109.089646) (xy 120.886261 108.565597) (xy 119.519734 108.564405) (xy 118.256771 109.08625)
        (xy 117.289646 110.051688) (xy 116.765597 111.313739) (xy 116.764405 112.680266) (xy 111.41 112.680266) (xy 111.41 66.5)
        (xy 140.99 66.5) (xy 140.99 96) (xy 141.044046 96.271705) (xy 141.197954 96.502046) (xy 141.428295 96.655954)
        (xy 141.7 96.71) (xy 146.56232 96.71) (xy 146.256771 96.83625) (xy 145.289646 97.801688) (xy 144.765597 99.063739)
        (xy 144.764405 100.430266) (xy 145.28625 101.693229) (xy 146.251688 102.660354) (xy 147.513739 103.184403) (xy 148.880266 103.185595)
        (xy 150.143229 102.66375) (xy 151.110354 101.698312) (xy 151.634403 100.436261) (xy 151.635595 99.069734) (xy 151.11375 97.806771)
        (xy 150.148312 96.839646) (xy 149.83609 96.71) (xy 154.7 96.71) (xy 154.971705 96.655954) (xy 155.202046 96.502046)
        (xy 155.355954 96.271705) (xy 155.41 96) (xy 155.41 94.920907) (xy 164.495 94.920907) (xy 164.495 94.979093)
        (xy 164.608039 95.547378) (xy 164.929946 96.029147) (xy 164.945 96.039206) (xy 164.945 108.067995) (xy 164.944999 108.068)
        (xy 165.023785 108.464077) (xy 165.248144 108.799856) (xy 166.520142 110.071853) (xy 166.520144 110.071856) (xy 166.598299 110.124077)
        (xy 166.855923 110.296215) (xy 167.252 110.375001) (xy 167.252005 110.375) (xy 168.660794 110.375) (xy 168.670853 110.390054)
        (xy 168.715 110.419552) (xy 168.715 111.37856) (xy 168.358 111.37856) (xy 168.122683 111.422838) (xy 167.906559 111.56191)
        (xy 167.761569 111.77411) (xy 167.71056 112.026) (xy 167.71056 113.526) (xy 167.754838 113.761317) (xy 167.89391 113.977441)
        (xy 168.10611 114.122431) (xy 168.358 114.17344) (xy 171.558 114.17344) (xy 171.793317 114.129162) (xy 171.957493 114.023518)
        (xy 171.998302 114.064327) (xy 172.231691 114.161) (xy 173.67225 114.161) (xy 173.831 114.00225) (xy 173.831 112.903)
        (xy 174.085 112.903) (xy 174.085 114.00225) (xy 174.24375 114.161) (xy 175.684309 114.161) (xy 175.917698 114.064327)
        (xy 176.096327 113.885699) (xy 176.193 113.65231) (xy 176.193 113.06175) (xy 176.03425 112.903) (xy 174.085 112.903)
        (xy 173.831 112.903) (xy 173.811 112.903) (xy 173.811 112.649) (xy 173.831 112.649) (xy 173.831 111.54975)
        (xy 174.085 111.54975) (xy 174.085 112.649) (xy 176.03425 112.649) (xy 176.193 112.49025) (xy 176.193 111.89969)
        (xy 176.096327 111.666301) (xy 175.917698 111.487673) (xy 175.684309 111.391) (xy 174.24375 111.391) (xy 174.085 111.54975)
        (xy 173.831 111.54975) (xy 173.67225 111.391) (xy 172.231691 111.391) (xy 171.998302 111.487673) (xy 171.95634 111.529634)
        (xy 171.80989 111.429569) (xy 171.558 111.37856) (xy 170.785 111.37856) (xy 170.785 110.763) (xy 172.769243 110.763)
        (xy 172.79591 110.804441) (xy 173.00811 110.949431) (xy 173.26 111.00044) (xy 174.76 111.00044) (xy 174.995317 110.956162)
        (xy 175.211441 110.81709) (xy 175.257969 110.748994) (xy 175.400302 110.891327) (xy 175.633691 110.988) (xy 176.22425 110.988)
        (xy 176.383 110.82925) (xy 176.383 109.855) (xy 176.637 109.855) (xy 176.637 110.82925) (xy 176.79575 110.988)
        (xy 177.386309 110.988) (xy 177.619698 110.891327) (xy 177.798327 110.712699) (xy 177.895 110.47931) (xy 177.895 110.01375)
        (xy 177.73625 109.855) (xy 176.637 109.855) (xy 176.383 109.855) (xy 176.363 109.855) (xy 176.363 109.601)
        (xy 176.383 109.601) (xy 176.383 109.581) (xy 176.637 109.581) (xy 176.637 109.601) (xy 177.73625 109.601)
        (xy 177.895 109.44225) (xy 177.895 108.97669) (xy 177.815599 108.785) (xy 178.126309 108.785) (xy 178.359698 108.688327)
        (xy 178.538327 108.509699) (xy 178.635 108.27631) (xy 178.635 108.03575) (xy 178.47625 107.877) (xy 177.177 107.877)
        (xy 177.177 107.897) (xy 176.923 107.897) (xy 176.923 107.877) (xy 175.62375 107.877) (xy 175.465 108.03575)
        (xy 175.465 108.27631) (xy 175.557477 108.499569) (xy 175.400302 108.564673) (xy 175.259064 108.70591) (xy 175.22409 108.651559)
        (xy 175.01189 108.506569) (xy 174.76 108.45556) (xy 173.26 108.45556) (xy 173.024683 108.499838) (xy 172.808559 108.63891)
        (xy 172.771601 108.693) (xy 171.098458 108.693) (xy 170.829147 108.289946) (xy 170.787548 108.26215) (xy 170.835317 108.253162)
        (xy 171.051441 108.11409) (xy 171.196431 107.90189) (xy 171.209977 107.835) (xy 173.038569 107.835) (xy 173.1 107.84744)
        (xy 175 107.84744) (xy 175.235317 107.803162) (xy 175.451441 107.66409) (xy 175.538064 107.537314) (xy 175.62375 107.623)
        (xy 176.923 107.623) (xy 176.923 107.603) (xy 177.177 107.603) (xy 177.177 107.623) (xy 178.47625 107.623)
        (xy 178.635 107.46425) (xy 178.635 107.22369) (xy 178.538327 106.990301) (xy 178.359698 106.811673) (xy 178.323253 106.796577)
        (xy 178.451441 106.71409) (xy 178.596431 106.50189) (xy 178.64744 106.25) (xy 178.64744 105.45) (xy 178.603162 105.214683)
        (xy 178.46409 104.998559) (xy 178.302283 104.888001) (xy 178.339441 104.86409) (xy 178.484431 104.65189) (xy 178.53544 104.4)
        (xy 178.53544 102.4) (xy 178.491162 102.164683) (xy 178.35209 101.948559) (xy 178.13989 101.803569) (xy 177.888 101.75256)
        (xy 176.188 101.75256) (xy 175.952683 101.796838) (xy 175.736559 101.93591) (xy 175.591569 102.14811) (xy 175.543598 102.385)
        (xy 175.200496 102.385) (xy 175.07409 102.188559) (xy 174.86189 102.043569) (xy 174.82851 102.036809) (xy 174.969699 101.978327)
        (xy 175.148327 101.799698) (xy 175.245 101.566309) (xy 175.245 100.97575) (xy 175.08625 100.817) (xy 174.087 100.817)
        (xy 174.087 100.837) (xy 173.833 100.837) (xy 173.833 100.817) (xy 172.83375 100.817) (xy 172.675 100.97575)
        (xy 172.675 101.566309) (xy 172.771673 101.799698) (xy 172.950301 101.978327) (xy 173.086287 102.034654) (xy 173.074683 102.036838)
        (xy 172.858559 102.17591) (xy 172.713569 102.38811) (xy 172.66256 102.64) (xy 172.66256 104.14) (xy 172.706838 104.375317)
        (xy 172.84591 104.591441) (xy 173.05811 104.736431) (xy 173.31 104.78744) (xy 174.61 104.78744) (xy 174.845317 104.743162)
        (xy 175.061441 104.60409) (xy 175.16331 104.455) (xy 175.550909 104.455) (xy 175.584838 104.635317) (xy 175.72391 104.851441)
        (xy 175.788716 104.895721) (xy 175.648559 104.98591) (xy 175.503569 105.19811) (xy 175.45256 105.45) (xy 175.45256 105.940681)
        (xy 175.25189 105.803569) (xy 175 105.75256) (xy 173.1 105.75256) (xy 173.033887 105.765) (xy 171.21263 105.765)
        (xy 171.203162 105.714683) (xy 171.06409 105.498559) (xy 170.85189 105.353569) (xy 170.784459 105.339914) (xy 170.829147 105.310054)
        (xy 171.151054 104.828285) (xy 171.264093 104.26) (xy 171.151054 103.691715) (xy 170.829147 103.209946) (xy 170.785 103.180448)
        (xy 170.785 101.428712) (xy 172.40002 99.813691) (xy 172.675 99.813691) (xy 172.675 100.40425) (xy 172.83375 100.563)
        (xy 173.833 100.563) (xy 173.833 99.46375) (xy 174.087 99.46375) (xy 174.087 100.563) (xy 175.08625 100.563)
        (xy 175.245 100.40425) (xy 175.245 99.813691) (xy 175.148327 99.580302) (xy 174.969699 99.401673) (xy 174.73631 99.305)
        (xy 174.24575 99.305) (xy 174.087 99.46375) (xy 173.833 99.46375) (xy 173.67425 99.305) (xy 173.18369 99.305)
        (xy 172.950301 99.401673) (xy 172.771673 99.580302) (xy 172.675 99.813691) (xy 172.40002 99.813691) (xy 174.331853 97.881858)
        (xy 174.331856 97.881856) (xy 174.466349 97.680571) (xy 174.556215 97.546078) (xy 174.635001 97.15) (xy 174.635 97.149995)
        (xy 174.635 96.039206) (xy 174.650054 96.029147) (xy 174.87 95.699974) (xy 175.089946 96.029147) (xy 175.571715 96.351054)
        (xy 176.14 96.464093) (xy 176.708285 96.351054) (xy 177.190054 96.029147) (xy 177.41 95.699974) (xy 177.468605 95.787683)
        (xy 176.262144 96.994144) (xy 176.037785 97.329923) (xy 175.958999 97.726) (xy 175.959 97.726005) (xy 175.959 97.795649)
        (xy 175.952683 97.796838) (xy 175.736559 97.93591) (xy 175.591569 98.14811) (xy 175.54056 98.4) (xy 175.54056 100.4)
        (xy 175.584838 100.635317) (xy 175.72391 100.851441) (xy 175.93611 100.996431) (xy 176.188 101.04744) (xy 177.888 101.04744)
        (xy 178.123317 101.003162) (xy 178.339441 100.86409) (xy 178.484431 100.65189) (xy 178.53544 100.4) (xy 178.53544 98.4)
        (xy 178.491162 98.164683) (xy 178.35209 97.948559) (xy 178.28262 97.901092) (xy 179.411853 96.771858) (xy 179.411856 96.771856)
        (xy 179.636215 96.436077) (xy 179.668911 96.271705) (xy 179.715001 96.04) (xy 179.715 96.039995) (xy 179.715 96.039206)
        (xy 179.730054 96.029147) (xy 180.051961 95.547378) (xy 180.165 94.979093) (xy 180.165 94.920907) (xy 180.051961 94.352622)
        (xy 179.730054 93.870853) (xy 179.248285 93.548946) (xy 178.68 93.435907) (xy 178.111715 93.548946) (xy 177.629946 93.870853)
        (xy 177.41 94.200026) (xy 177.190054 93.870853) (xy 177.175 93.860794) (xy 177.175 88.988712) (xy 178.973585 87.190126)
        (xy 179.02591 87.271441) (xy 179.23811 87.416431) (xy 179.49 87.46744) (xy 181.19 87.46744) (xy 181.425317 87.423162)
        (xy 181.641441 87.28409) (xy 181.786431 87.07189) (xy 181.83744 86.82) (xy 181.83744 84.82) (xy 181.793162 84.584683)
        (xy 181.65409 84.368559) (xy 181.44189 84.223569) (xy 181.19 84.17256) (xy 179.49 84.17256) (xy 179.254683 84.216838)
        (xy 179.038559 84.35591) (xy 178.893569 84.56811) (xy 178.84256 84.82) (xy 178.84256 85.039) (xy 178.626005 85.039)
        (xy 178.626 85.038999) (xy 178.229923 85.117785) (xy 177.894144 85.342144) (xy 177.894142 85.342147) (xy 175.408144 87.828144)
        (xy 175.183785 88.163923) (xy 175.104999 88.56) (xy 175.105 88.560005) (xy 175.105 93.860794) (xy 175.089946 93.870853)
        (xy 174.87 94.200026) (xy 174.650054 93.870853) (xy 174.168285 93.548946) (xy 173.6 93.435907) (xy 173.031715 93.548946)
        (xy 172.549946 93.870853) (xy 172.33 94.200026) (xy 172.110054 93.870853) (xy 171.735 93.620251) (xy 171.735 86.391972)
        (xy 171.851054 86.218285) (xy 171.964093 85.65) (xy 171.851054 85.081715) (xy 171.529147 84.599946) (xy 171.487548 84.57215)
        (xy 171.535317 84.563162) (xy 171.751441 84.42409) (xy 171.811801 84.33575) (xy 175.465 84.33575) (xy 175.465 84.57631)
        (xy 175.561673 84.809699) (xy 175.740302 84.988327) (xy 175.973691 85.085) (xy 176.76425 85.085) (xy 176.923 84.92625)
        (xy 176.923 84.177) (xy 177.177 84.177) (xy 177.177 84.92625) (xy 177.33575 85.085) (xy 178.126309 85.085)
        (xy 178.359698 84.988327) (xy 178.538327 84.809699) (xy 178.635 84.57631) (xy 178.635 84.33575) (xy 178.47625 84.177)
        (xy 177.177 84.177) (xy 176.923 84.177) (xy 175.62375 84.177) (xy 175.465 84.33575) (xy 171.811801 84.33575)
        (xy 171.896431 84.21189) (xy 171.912002 84.135) (xy 173.038569 84.135) (xy 173.1 84.14744) (xy 175 84.14744)
        (xy 175.235317 84.103162) (xy 175.451441 83.96409) (xy 175.538064 83.837314) (xy 175.62375 83.923) (xy 176.923 83.923)
        (xy 176.923 83.903) (xy 177.177 83.903) (xy 177.177 83.923) (xy 178.47625 83.923) (xy 178.635 83.76425)
        (xy 178.635 83.52369) (xy 178.538327 83.290301) (xy 178.359698 83.111673) (xy 178.353245 83.109) (xy 178.921382 83.109)
        (xy 179.02591 83.271441) (xy 179.23811 83.416431) (xy 179.49 83.46744) (xy 181.19 83.46744) (xy 181.425317 83.423162)
        (xy 181.641441 83.28409) (xy 181.786431 83.07189) (xy 181.83744 82.82) (xy 181.83744 80.82) (xy 181.793162 80.584683)
        (xy 181.65409 80.368559) (xy 181.44189 80.223569) (xy 181.19 80.17256) (xy 179.49 80.17256) (xy 179.254683 80.216838)
        (xy 179.038559 80.35591) (xy 178.893569 80.56811) (xy 178.84256 80.82) (xy 178.84256 81.039) (xy 178.30744 81.039)
        (xy 178.30744 79.6) (xy 178.263162 79.364683) (xy 178.12409 79.148559) (xy 177.91189 79.003569) (xy 177.87851 78.996809)
        (xy 178.019699 78.938327) (xy 178.198327 78.759698) (xy 178.295 78.526309) (xy 178.295 77.93575) (xy 178.13625 77.777)
        (xy 177.137 77.777) (xy 177.137 77.797) (xy 176.883 77.797) (xy 176.883 77.777) (xy 175.88375 77.777)
        (xy 175.725 77.93575) (xy 175.725 78.526309) (xy 175.821673 78.759698) (xy 176.000301 78.938327) (xy 176.136287 78.994654)
        (xy 176.124683 78.996838) (xy 175.908559 79.13591) (xy 175.763569 79.34811) (xy 175.71256 79.6) (xy 175.71256 81.1)
        (xy 175.736851 81.229096) (xy 175.648559 81.28591) (xy 175.503569 81.49811) (xy 175.45256 81.75) (xy 175.45256 82.240681)
        (xy 175.25189 82.103569) (xy 175 82.05256) (xy 173.1 82.05256) (xy 173.033887 82.065) (xy 171.910748 82.065)
        (xy 171.903162 82.024683) (xy 171.76409 81.808559) (xy 171.55189 81.663569) (xy 171.484459 81.649914) (xy 171.529147 81.620054)
        (xy 171.743668 81.299) (xy 173.047808 81.299) (xy 173.15491 81.465441) (xy 173.36711 81.610431) (xy 173.619 81.66144)
        (xy 174.869 81.66144) (xy 175.104317 81.617162) (xy 175.320441 81.47809) (xy 175.465431 81.26589) (xy 175.51644 81.014)
        (xy 175.51644 79.514) (xy 175.472162 79.278683) (xy 175.33309 79.062559) (xy 175.264994 79.016031) (xy 175.407327 78.873698)
        (xy 175.504 78.640309) (xy 175.504 78.04975) (xy 175.34525 77.891) (xy 174.371 77.891) (xy 174.371 77.911)
        (xy 174.117 77.911) (xy 174.117 77.891) (xy 173.14275 77.891) (xy 172.984 78.04975) (xy 172.984 78.640309)
        (xy 173.080673 78.873698) (xy 173.22191 79.014936) (xy 173.167559 79.04991) (xy 173.045192 79.229) (xy 171.093715 79.229)
        (xy 171.047378 79.198039) (xy 170.479093 79.085) (xy 170.420907 79.085) (xy 169.852622 79.198039) (xy 169.370853 79.519946)
        (xy 169.360794 79.535) (xy 167.76744 79.535) (xy 167.76744 78.95) (xy 167.723162 78.714683) (xy 167.58409 78.498559)
        (xy 167.37189 78.353569) (xy 167.12 78.30256) (xy 165.62 78.30256) (xy 165.384683 78.346838) (xy 165.168559 78.48591)
        (xy 165.023569 78.69811) (xy 164.97256 78.95) (xy 164.97256 82.15) (xy 165.016838 82.385317) (xy 165.122482 82.549493)
        (xy 165.081673 82.590302) (xy 164.985 82.823691) (xy 164.985 84.26425) (xy 165.14375 84.423) (xy 166.243 84.423)
        (xy 166.243 84.403) (xy 166.497 84.403) (xy 166.497 84.423) (xy 167.59625 84.423) (xy 167.755 84.26425)
        (xy 167.755 82.823691) (xy 167.658327 82.590302) (xy 167.616366 82.54834) (xy 167.716431 82.40189) (xy 167.76744 82.15)
        (xy 167.76744 81.605) (xy 169.360794 81.605) (xy 169.370853 81.620054) (xy 169.412452 81.64785) (xy 169.364683 81.656838)
        (xy 169.148559 81.79591) (xy 169.003569 82.00811) (xy 168.95256 82.26) (xy 168.95256 83.96) (xy 168.996838 84.195317)
        (xy 169.13591 84.411441) (xy 169.34811 84.556431) (xy 169.415541 84.570086) (xy 169.370853 84.599946) (xy 169.048946 85.081715)
        (xy 168.935907 85.65) (xy 169.048946 86.218285) (xy 169.370853 86.700054) (xy 169.665 86.896596) (xy 169.665 93.534874)
        (xy 169.49631 93.465) (xy 168.80575 93.465) (xy 168.647 93.62375) (xy 168.647 94.823) (xy 168.667 94.823)
        (xy 168.667 95.077) (xy 168.647 95.077) (xy 168.647 96.27625) (xy 168.80575 96.435) (xy 169.49631 96.435)
        (xy 169.729699 96.338327) (xy 169.908327 96.159698) (xy 169.980597 95.985223) (xy 170.009946 96.029147) (xy 170.491715 96.351054)
        (xy 171.06 96.464093) (xy 171.628285 96.351054) (xy 172.110054 96.029147) (xy 172.33 95.699974) (xy 172.549946 96.029147)
        (xy 172.565 96.039206) (xy 172.565 96.721289) (xy 169.018144 100.268144) (xy 168.793785 100.603923) (xy 168.714999 101)
        (xy 168.715 101.000005) (xy 168.715 103.180448) (xy 168.670853 103.209946) (xy 168.348946 103.691715) (xy 168.235907 104.26)
        (xy 168.348946 104.828285) (xy 168.670853 105.310054) (xy 168.712452 105.33785) (xy 168.664683 105.346838) (xy 168.448559 105.48591)
        (xy 168.303569 105.69811) (xy 168.25256 105.95) (xy 168.25256 107.65) (xy 168.296838 107.885317) (xy 168.43591 108.101441)
        (xy 168.64811 108.246431) (xy 168.715541 108.260086) (xy 168.670853 108.289946) (xy 168.660794 108.305) (xy 167.680711 108.305)
        (xy 167.015 107.639288) (xy 167.015 96.039206) (xy 167.030054 96.029147) (xy 167.059403 95.985223) (xy 167.131673 96.159698)
        (xy 167.310301 96.338327) (xy 167.54369 96.435) (xy 168.23425 96.435) (xy 168.393 96.27625) (xy 168.393 95.077)
        (xy 168.373 95.077) (xy 168.373 94.823) (xy 168.393 94.823) (xy 168.393 93.62375) (xy 168.23425 93.465)
        (xy 167.54369 93.465) (xy 167.310301 93.561673) (xy 167.131673 93.740302) (xy 167.059403 93.914777) (xy 167.030054 93.870853)
        (xy 166.548285 93.548946) (xy 165.98 93.435907) (xy 165.411715 93.548946) (xy 164.929946 93.870853) (xy 164.608039 94.352622)
        (xy 164.495 94.920907) (xy 155.41 94.920907) (xy 155.41 84.83575) (xy 164.985 84.83575) (xy 164.985 86.276309)
        (xy 165.081673 86.509698) (xy 165.260301 86.688327) (xy 165.49369 86.785) (xy 166.08425 86.785) (xy 166.243 86.62625)
        (xy 166.243 84.677) (xy 166.497 84.677) (xy 166.497 86.62625) (xy 166.65575 86.785) (xy 167.24631 86.785)
        (xy 167.479699 86.688327) (xy 167.658327 86.509698) (xy 167.755 86.276309) (xy 167.755 84.83575) (xy 167.59625 84.677)
        (xy 166.497 84.677) (xy 166.243 84.677) (xy 165.14375 84.677) (xy 164.985 84.83575) (xy 155.41 84.83575)
        (xy 155.41 76.887691) (xy 172.984 76.887691) (xy 172.984 77.47825) (xy 173.14275 77.637) (xy 174.117 77.637)
        (xy 174.117 76.53775) (xy 174.371 76.53775) (xy 174.371 77.637) (xy 175.34525 77.637) (xy 175.504 77.47825)
        (xy 175.504 76.887691) (xy 175.45678 76.773691) (xy 175.725 76.773691) (xy 175.725 77.36425) (xy 175.88375 77.523)
        (xy 176.883 77.523) (xy 176.883 76.42375) (xy 177.137 76.42375) (xy 177.137 77.523) (xy 178.13625 77.523)
        (xy 178.295 77.36425) (xy 178.295 76.773691) (xy 178.198327 76.540302) (xy 178.019699 76.361673) (xy 177.78631 76.265)
        (xy 177.29575 76.265) (xy 177.137 76.42375) (xy 176.883 76.42375) (xy 176.72425 76.265) (xy 176.23369 76.265)
        (xy 176.000301 76.361673) (xy 175.821673 76.540302) (xy 175.725 76.773691) (xy 175.45678 76.773691) (xy 175.407327 76.654302)
        (xy 175.228699 76.475673) (xy 174.99531 76.379) (xy 174.52975 76.379) (xy 174.371 76.53775) (xy 174.117 76.53775)
        (xy 173.95825 76.379) (xy 173.49269 76.379) (xy 173.259301 76.475673) (xy 173.080673 76.654302) (xy 172.984 76.887691)
        (xy 155.41 76.887691) (xy 155.41 66.5) (xy 155.355954 66.228295) (xy 155.202046 65.997954) (xy 154.971705 65.844046)
        (xy 154.7 65.79) (xy 149.83768 65.79) (xy 150.143229 65.66375) (xy 151.110354 64.698312) (xy 151.533083 63.680266)
        (xy 177.264405 63.680266) (xy 177.78625 64.943229) (xy 178.751688 65.910354) (xy 180.013739 66.434403) (xy 181.380266 66.435595)
        (xy 182.643229 65.91375) (xy 183.610354 64.948312) (xy 184.134403 63.686261) (xy 184.135595 62.319734) (xy 183.61375 61.056771)
        (xy 182.648312 60.089646) (xy 181.386261 59.565597) (xy 180.019734 59.564405) (xy 178.756771 60.08625) (xy 177.789646 61.051688)
        (xy 177.265597 62.313739) (xy 177.264405 63.680266) (xy 151.533083 63.680266) (xy 151.634403 63.436261) (xy 151.635595 62.069734)
        (xy 151.11375 60.806771) (xy 150.148312 59.839646) (xy 148.886261 59.315597) (xy 147.519734 59.314405) (xy 146.256771 59.83625)
        (xy 145.289646 60.801688) (xy 144.765597 62.063739) (xy 144.764405 63.430266) (xy 145.28625 64.693229) (xy 146.251688 65.660354)
        (xy 146.56391 65.79) (xy 141.7 65.79) (xy 141.428295 65.844046) (xy 141.197954 65.997954) (xy 141.044046 66.228295)
        (xy 140.99 66.5) (xy 111.41 66.5) (xy 111.41 63.680266) (xy 112.264405 63.680266) (xy 112.78625 64.943229)
        (xy 113.751688 65.910354) (xy 115.013739 66.434403) (xy 116.380266 66.435595) (xy 117.643229 65.91375) (xy 118.610354 64.948312)
        (xy 119.134403 63.686261) (xy 119.135595 62.319734) (xy 118.61375 61.056771) (xy 117.648312 60.089646) (xy 116.386261 59.565597)
        (xy 115.019734 59.564405) (xy 113.756771 60.08625) (xy 112.789646 61.051688) (xy 112.265597 62.313739) (xy 112.264405 63.680266)
        (xy 111.41 63.680266) (xy 111.41 58.71) (xy 184.99 58.71)
      )
    )
  )
)
