EESchema Schematic File Version 2
LIBS:power
LIBS:device
LIBS:switches
LIBS:relays
LIBS:motors
LIBS:transistors
LIBS:conn
LIBS:linear
LIBS:regul
LIBS:74xx
LIBS:cmos4000
LIBS:adc-dac
LIBS:memory
LIBS:xilinx
LIBS:microcontrollers
LIBS:dsp
LIBS:microchip
LIBS:analog_switches
LIBS:motorola
LIBS:texas
LIBS:intel
LIBS:audio
LIBS:interface
LIBS:digital-audio
LIBS:philips
LIBS:display
LIBS:cypress
LIBS:siliconi
LIBS:opto
LIBS:atmel
LIBS:contrib
LIBS:valves
LIBS:slave-cache
EELAYER 25 0
EELAYER END
$Descr A4 11693 8268
encoding utf-8
Sheet 1 1
Title "Stanowisko laboratoryjne do testowania czujników odległości."
Date "2017-11-07"
Rev "1"
Comp "Politechnika Wrocławska."
Comment1 "Wydział Elektroniki, "
Comment2 "Katedra Cybernetyki i Robotyki,"
Comment3 "Piotr Krzysztof Portasiak, 218594,"
Comment4 ""
$EndDescr
$Comp
L Conn_01x02 J1
U 1 1 5A00F59F
P 1100 1300
F 0 "J1" H 1100 1400 50  0000 C CNN
F 1 "POWER" H 1100 1100 50  0000 C CNN
F 2 "Pin_Headers:Pin_Header_Straight_1x02_Pitch2.54mm" H 1100 1300 50  0001 C CNN
F 3 "" H 1100 1300 50  0001 C CNN
	1    1100 1300
	-1   0    0    -1  
$EndComp
$Comp
L Q_PMOS_GSD Q1
U 1 1 5A00F73E
P 1700 1400
F 0 "Q1" H 1900 1450 50  0000 L CNN
F 1 "Q_PMOS_GSD" H 1900 1350 50  0000 L CNN
F 2 "TO_SOT_Packages_SMD:SOT-23_Handsoldering" H 1900 1500 50  0001 C CNN
F 3 "" H 1700 1400 50  0001 C CNN
	1    1700 1400
	0    -1   -1   0   
$EndComp
$Comp
L GND #PWR01
U 1 1 5A00F83C
P 1400 1500
F 0 "#PWR01" H 1400 1250 50  0001 C CNN
F 1 "GND" H 1400 1350 50  0000 C CNN
F 2 "" H 1400 1500 50  0001 C CNN
F 3 "" H 1400 1500 50  0001 C CNN
	1    1400 1500
	1    0    0    -1  
$EndComp
$Comp
L R_Small R1
U 1 1 5A00F875
P 1700 1750
F 0 "R1" H 1730 1770 50  0000 L CNN
F 1 "100k" H 1730 1710 50  0000 L CNN
F 2 "Resistors_SMD:R_0603_HandSoldering" H 1700 1750 50  0001 C CNN
F 3 "" H 1700 1750 50  0001 C CNN
	1    1700 1750
	1    0    0    -1  
$EndComp
$Comp
L PWR_FLAG #FLG02
U 1 1 5A01041A
P 9050 5650
F 0 "#FLG02" H 9050 5725 50  0001 C CNN
F 1 "PWR_FLAG" H 9050 5800 50  0000 C CNN
F 2 "" H 9050 5650 50  0001 C CNN
F 3 "" H 9050 5650 50  0001 C CNN
	1    9050 5650
	1    0    0    1   
$EndComp
$Comp
L PWR_FLAG #FLG03
U 1 1 5A010444
P 9550 5450
F 0 "#FLG03" H 9550 5525 50  0001 C CNN
F 1 "PWR_FLAG" H 9550 5600 50  0000 C CNN
F 2 "" H 9550 5450 50  0001 C CNN
F 3 "" H 9550 5450 50  0001 C CNN
	1    9550 5450
	-1   0    0    -1  
$EndComp
$Comp
L GND #PWR04
U 1 1 5A010461
P 9550 5650
F 0 "#PWR04" H 9550 5400 50  0001 C CNN
F 1 "GND" H 9550 5500 50  0000 C CNN
F 2 "" H 9550 5650 50  0001 C CNN
F 3 "" H 9550 5650 50  0001 C CNN
	1    9550 5650
	-1   0    0    -1  
$EndComp
$Comp
L +5V #PWR05
U 1 1 5A010484
P 9050 5450
F 0 "#PWR05" H 9050 5300 50  0001 C CNN
F 1 "+5V" H 9050 5590 50  0000 C CNN
F 2 "" H 9050 5450 50  0001 C CNN
F 3 "" H 9050 5450 50  0001 C CNN
	1    9050 5450
	-1   0    0    -1  
$EndComp
$Comp
L C_Small C1
U 1 1 5A01063C
P 2250 1550
F 0 "C1" H 2260 1620 50  0000 L CNN
F 1 "100nF" H 2260 1470 50  0000 L CNN
F 2 "Capacitors_SMD:C_0603_HandSoldering" H 2250 1550 50  0001 C CNN
F 3 "" H 2250 1550 50  0001 C CNN
	1    2250 1550
	1    0    0    -1  
$EndComp
$Comp
L CP1_Small C3
U 1 1 5A01065F
P 2700 1550
F 0 "C3" H 2710 1620 50  0000 L CNN
F 1 "100uF" H 2710 1470 50  0000 L CNN
F 2 "Capacitors_Tantalum_SMD:CP_Tantalum_Case-B_EIA-3528-21_Hand" H 2700 1550 50  0001 C CNN
F 3 "" H 2700 1550 50  0001 C CNN
	1    2700 1550
	1    0    0    -1  
$EndComp
$Comp
L GND #PWR06
U 1 1 5A0112A4
P 2700 2000
F 0 "#PWR06" H 2700 1750 50  0001 C CNN
F 1 "GND" H 2700 1850 50  0000 C CNN
F 2 "" H 2700 2000 50  0001 C CNN
F 3 "" H 2700 2000 50  0001 C CNN
	1    2700 2000
	1    0    0    -1  
$EndComp
$Comp
L GND #PWR07
U 1 1 5A00FA17
P 1700 2000
F 0 "#PWR07" H 1700 1750 50  0001 C CNN
F 1 "GND" H 1700 1850 50  0000 C CNN
F 2 "" H 1700 2000 50  0001 C CNN
F 3 "" H 1700 2000 50  0001 C CNN
	1    1700 2000
	1    0    0    -1  
$EndComp
Text GLabel 9150 5550 2    60   Input ~ 0
5V
Text GLabel 9650 5550 2    60   Input ~ 0
GND
$Comp
L C_Small C6
U 1 1 5A01AA91
P 10200 2250
F 0 "C6" H 10210 2320 50  0000 L CNN
F 1 "100nF" H 10210 2170 50  0000 L CNN
F 2 "Capacitors_SMD:C_0603_HandSoldering" H 10200 2250 50  0001 C CNN
F 3 "" H 10200 2250 50  0001 C CNN
	1    10200 2250
	1    0    0    -1  
$EndComp
$Comp
L C_Small C5
U 1 1 5A01AD19
P 8000 2250
F 0 "C5" H 8010 2320 50  0000 L CNN
F 1 "100nF" H 8010 2170 50  0000 L CNN
F 2 "Capacitors_SMD:C_0603_HandSoldering" H 8000 2250 50  0001 C CNN
F 3 "" H 8000 2250 50  0001 C CNN
	1    8000 2250
	-1   0    0    -1  
$EndComp
$Comp
L C_Small C7
U 1 1 5A01B02B
P 10200 2600
F 0 "C7" H 10210 2670 50  0000 L CNN
F 1 "100nF" H 10210 2520 50  0000 L CNN
F 2 "Capacitors_SMD:C_0603_HandSoldering" H 10200 2600 50  0001 C CNN
F 3 "" H 10200 2600 50  0001 C CNN
	1    10200 2600
	0    -1   1    0   
$EndComp
$Comp
L C_Small C4
U 1 1 5A01B4BE
P 8000 1700
F 0 "C4" H 8010 1770 50  0000 L CNN
F 1 "100nF" H 8010 1620 50  0000 L CNN
F 2 "Capacitors_SMD:C_0603_HandSoldering" H 8000 1700 50  0001 C CNN
F 3 "" H 8000 1700 50  0001 C CNN
	1    8000 1700
	-1   0    0    -1  
$EndComp
$Comp
L GND #PWR08
U 1 1 5A01BAC4
P 8000 1850
F 0 "#PWR08" H 8000 1600 50  0001 C CNN
F 1 "GND" H 8000 1700 50  0000 C CNN
F 2 "" H 8000 1850 50  0001 C CNN
F 3 "" H 8000 1850 50  0001 C CNN
	1    8000 1850
	1    0    0    -1  
$EndComp
$Comp
L +3.3V #PWR09
U 1 1 5A01BB75
P 8000 1500
F 0 "#PWR09" H 8000 1350 50  0001 C CNN
F 1 "+3.3V" H 8000 1640 50  0000 C CNN
F 2 "" H 8000 1500 50  0001 C CNN
F 3 "" H 8000 1500 50  0001 C CNN
	1    8000 1500
	1    0    0    -1  
$EndComp
$Comp
L GND #PWR010
U 1 1 5A01D086
P 10500 3000
F 0 "#PWR010" H 10500 2750 50  0001 C CNN
F 1 "GND" H 10500 2850 50  0000 C CNN
F 2 "" H 10500 3000 50  0001 C CNN
F 3 "" H 10500 3000 50  0001 C CNN
	1    10500 3000
	1    0    0    -1  
$EndComp
$Comp
L C_Small C8
U 1 1 5A01B279
P 10200 2900
F 0 "C8" H 10210 2970 50  0000 L CNN
F 1 "100nF" H 10210 2820 50  0000 L CNN
F 2 "Capacitors_SMD:C_0603_HandSoldering" H 10200 2900 50  0001 C CNN
F 3 "" H 10200 2900 50  0001 C CNN
	1    10200 2900
	0    -1   1    0   
$EndComp
Text GLabel 8000 3300 0    39   Input ~ 0
sTX
Text GLabel 8000 3700 0    39   Input ~ 0
sRX
Text GLabel 10000 3700 2    39   Input ~ 0
RX
Text GLabel 10000 3300 2    39   Input ~ 0
TX
$Comp
L GND #PWR011
U 1 1 5A020AF9
P 9100 4300
F 0 "#PWR011" H 9100 4050 50  0001 C CNN
F 1 "GND" H 9100 4150 50  0000 C CNN
F 2 "" H 9100 4300 50  0001 C CNN
F 3 "" H 9100 4300 50  0001 C CNN
	1    9100 4300
	1    0    0    -1  
$EndComp
NoConn ~ 4350 3100
NoConn ~ 4850 3200
NoConn ~ 4350 3200
NoConn ~ 4350 3300
NoConn ~ 4350 3400
NoConn ~ 4850 3500
NoConn ~ 4350 3500
NoConn ~ 4350 3600
NoConn ~ 4350 3700
NoConn ~ 4350 3800
NoConn ~ 4350 3900
NoConn ~ 4350 4000
NoConn ~ 4350 4100
NoConn ~ 4350 4200
NoConn ~ 4850 3600
NoConn ~ 4850 4200
NoConn ~ 4850 4300
Text GLabel 4950 3400 2    39   Input ~ 0
GND
Text GLabel 4950 3300 2    39   Input ~ 0
E5V
Text GLabel 4950 3800 2    39   Input ~ 0
3V3
$Comp
L PWR_FLAG #FLG012
U 1 1 5A023772
P 8550 5650
F 0 "#FLG012" H 8550 5725 50  0001 C CNN
F 1 "PWR_FLAG" H 8550 5800 50  0000 C CNN
F 2 "" H 8550 5650 50  0001 C CNN
F 3 "" H 8550 5650 50  0001 C CNN
	1    8550 5650
	1    0    0    1   
$EndComp
Text GLabel 8650 5550 2    60   Input ~ 0
3V3
$Comp
L +3.3V #PWR013
U 1 1 5A0238D5
P 8550 5450
F 0 "#PWR013" H 8550 5300 50  0001 C CNN
F 1 "+3.3V" H 8550 5590 50  0000 C CNN
F 2 "" H 8550 5450 50  0001 C CNN
F 3 "" H 8550 5450 50  0001 C CNN
	1    8550 5450
	1    0    0    -1  
$EndComp
Text GLabel 4950 3900 2    39   Input ~ 0
5V
Text GLabel 2900 1300 2    60   Input ~ 0
E5V
NoConn ~ 4850 3700
Text GLabel 4950 4000 2    39   Input ~ 0
GND
Text GLabel 4950 4100 2    39   Input ~ 0
GND
NoConn ~ 6700 3500
NoConn ~ 6700 4200
NoConn ~ 6700 4300
NoConn ~ 6700 4400
NoConn ~ 6700 4500
NoConn ~ 6700 4600
NoConn ~ 6700 4700
Text GLabel 6100 4800 0    39   Input ~ 0
uRX
Text GLabel 6100 4900 0    39   Input ~ 0
uTX
NoConn ~ 6700 4800
NoConn ~ 6700 4900
NoConn ~ 6700 3900
NoConn ~ 6700 4000
NoConn ~ 6700 4100
$Comp
L Conn_01x04 J9
U 1 1 5A02E516
P 6150 1550
F 0 "J9" H 6150 1750 50  0000 C CNN
F 1 "USER" H 6150 1250 50  0000 C CNN
F 2 "Pin_Headers:Pin_Header_Straight_1x04_Pitch2.54mm" H 6150 1550 50  0001 C CNN
F 3 "" H 6150 1550 50  0001 C CNN
	1    6150 1550
	-1   0    0    -1  
$EndComp
Text GLabel 6450 1450 2    39   Input ~ 0
3V3
Text GLabel 6450 1550 2    39   Input ~ 0
GND
Text GLabel 6450 1650 2    39   Input ~ 0
uRX
Text GLabel 6450 1750 2    39   Input ~ 0
uTX
Text GLabel 5650 1650 2    39   Input ~ 0
RX
Text GLabel 5650 1550 2    39   Input ~ 0
TX
$Comp
L Conn_01x06 J8
U 1 1 5A030FB1
P 5350 1550
F 0 "J8" H 5350 1850 50  0000 C CNN
F 1 "MASTER" H 5350 1150 50  0000 C CNN
F 2 "Pin_Headers:Pin_Header_Straight_1x06_Pitch2.54mm" H 5350 1550 50  0001 C CNN
F 3 "" H 5350 1550 50  0001 C CNN
	1    5350 1550
	-1   0    0    -1  
$EndComp
Text GLabel 5650 1850 2    39   Input ~ 0
D1
Text GLabel 5650 1750 2    39   Input ~ 0
D0
Text GLabel 6100 4100 0    39   Input ~ 0
sTX
Text GLabel 6100 4700 0    39   Input ~ 0
sRX
$Comp
L Conn_02x19_Odd_Even J7
U 1 1 5A021397
P 4550 4000
F 0 "J7" H 4600 5000 50  0000 C CNN
F 1 "CN7" H 4600 3000 50  0000 C CNN
F 2 "Pin_Headers:Pin_Header_Straight_2x19_Pitch2.54mm" H 4550 4000 50  0001 C CNN
F 3 "" H 4550 4000 50  0001 C CNN
	1    4550 4000
	1    0    0    -1  
$EndComp
Text GLabel 6100 3900 0    39   Input ~ 0
D0
Text GLabel 6100 4000 0    39   Input ~ 0
D1
NoConn ~ 9900 3500
NoConn ~ 9900 3100
$Comp
L MAX3232 U3
U 1 1 5A00EA1A
P 9100 3000
F 0 "U3" H 9000 4125 50  0000 R CNN
F 1 "MAX3232" H 9000 4050 50  0000 R CNN
F 2 "SMD_Packages:SO-16-N" H 9150 1950 50  0001 L CNN
F 3 "" H 9100 3100 50  0001 C CNN
	1    9100 3000
	1    0    0    -1  
$EndComp
NoConn ~ 8300 3500
NoConn ~ 8300 3100
NoConn ~ 6200 3400
NoConn ~ 6200 3500
Text GLabel 5650 1450 2    39   Input ~ 0
GND
Text GLabel 5650 1350 2    39   Input ~ 0
x5V
Text GLabel 1400 1100 1    60   Input ~ 0
x5V
$Comp
L R_Small R16
U 1 1 5A085633
P 8150 3300
F 0 "R16" H 8180 3320 50  0000 L CNN
F 1 "R_Small" H 8180 3260 50  0000 L CNN
F 2 "Resistors_SMD:R_1206_HandSoldering" H 8150 3300 50  0001 C CNN
F 3 "" H 8150 3300 50  0001 C CNN
	1    8150 3300
	0    1    1    0   
$EndComp
$Comp
L R_Small R17
U 1 1 5A085733
P 8150 3700
F 0 "R17" H 8180 3720 50  0000 L CNN
F 1 "R_Small" H 8180 3660 50  0000 L CNN
F 2 "Resistors_SMD:R_1206_HandSoldering" H 8150 3700 50  0001 C CNN
F 3 "" H 8150 3700 50  0001 C CNN
	1    8150 3700
	0    1    1    0   
$EndComp
Wire Wire Line
	6350 1550 6450 1550
Wire Wire Line
	6450 1450 6350 1450
Wire Wire Line
	6200 4900 6100 4900
Wire Wire Line
	6100 4800 6200 4800
Wire Wire Line
	4950 4100 4850 4100
Wire Wire Line
	4950 4000 4850 4000
Wire Wire Line
	4950 3900 4850 3900
Wire Wire Line
	1900 1300 2900 1300
Wire Wire Line
	2700 1300 2700 1450
Wire Wire Line
	8550 5450 8550 5650
Wire Wire Line
	8650 5550 8550 5550
Connection ~ 8550 5550
Wire Wire Line
	4950 3800 4850 3800
Wire Wire Line
	4950 3400 4850 3400
Wire Wire Line
	4950 3300 4850 3300
Wire Wire Line
	9100 4300 9100 4200
Wire Wire Line
	8000 1550 9100 1550
Wire Wire Line
	10500 2600 10300 2600
Wire Wire Line
	10300 2900 10500 2900
Connection ~ 10500 2900
Wire Wire Line
	10500 2600 10500 3000
Wire Wire Line
	9900 2900 10100 2900
Wire Wire Line
	9900 2600 10100 2600
Wire Wire Line
	8000 1800 8000 1850
Connection ~ 8000 1550
Wire Wire Line
	9100 1550 9100 1800
Wire Wire Line
	8000 1500 8000 1600
Wire Wire Line
	8000 2400 8000 2350
Wire Wire Line
	8000 2400 8300 2400
Wire Wire Line
	8000 2100 8300 2100
Wire Wire Line
	8000 2150 8000 2100
Wire Wire Line
	10200 2400 10200 2350
Wire Wire Line
	9900 2400 10200 2400
Wire Wire Line
	10200 2100 10200 2150
Wire Wire Line
	9900 2100 10200 2100
Wire Wire Line
	1400 1500 1400 1400
Wire Wire Line
	1400 1400 1300 1400
Wire Wire Line
	1700 1650 1700 1600
Wire Wire Line
	1700 2000 1700 1850
Wire Wire Line
	1300 1300 1500 1300
Wire Wire Line
	9050 5450 9050 5650
Wire Wire Line
	9550 5450 9550 5650
Wire Wire Line
	2250 1650 2250 1800
Wire Wire Line
	2250 1800 2700 1800
Wire Wire Line
	2700 1650 2700 2000
Wire Wire Line
	2250 1300 2250 1450
Connection ~ 2250 1300
Connection ~ 2700 1800
Connection ~ 2700 1300
Wire Wire Line
	9150 5550 9050 5550
Connection ~ 9050 5550
Wire Wire Line
	9650 5550 9550 5550
Connection ~ 9550 5550
Wire Wire Line
	6450 1650 6350 1650
Wire Wire Line
	6350 1750 6450 1750
Wire Wire Line
	5650 1550 5550 1550
Wire Wire Line
	5550 1650 5650 1650
Wire Wire Line
	5650 1750 5550 1750
Wire Wire Line
	5550 1850 5650 1850
Wire Wire Line
	6100 4700 6200 4700
Wire Wire Line
	6100 4100 6200 4100
Wire Wire Line
	10000 3700 9900 3700
Wire Wire Line
	10000 3300 9900 3300
Wire Wire Line
	6100 4000 6200 4000
Wire Wire Line
	5650 1350 5550 1350
Wire Wire Line
	5550 1450 5650 1450
Wire Wire Line
	1400 1100 1400 1300
Connection ~ 1400 1300
Wire Wire Line
	6200 3900 6100 3900
Wire Wire Line
	8250 3700 8300 3700
Wire Wire Line
	8050 3700 8000 3700
Wire Wire Line
	8000 3300 8050 3300
Wire Wire Line
	8250 3300 8300 3300
$Comp
L Conn_01x03 J2
U 1 1 5A09F665
P 1675 6800
F 0 "J2" H 1675 7000 50  0000 C CNN
F 1 "LASER" H 1675 6600 50  0000 C CNN
F 2 "Pin_Headers:Pin_Header_Straight_1x03_Pitch2.54mm" H 1675 6800 50  0001 C CNN
F 3 "" H 1675 6800 50  0001 C CNN
	1    1675 6800
	-1   0    0    -1  
$EndComp
Text GLabel 1975 6900 2    39   Input ~ 0
LASER_ON
Wire Wire Line
	1975 6900 1875 6900
Text GLabel 1975 6700 2    39   Input ~ 0
5V
Wire Wire Line
	1975 6700 1875 6700
Text GLabel 1975 6800 2    39   Input ~ 0
GND
Wire Wire Line
	1975 6800 1875 6800
$Comp
L Conn_01x08 J4
U 1 1 5A0A65E3
P 2900 6575
F 0 "J4" H 2900 6975 50  0000 C CNN
F 1 "FTIR" H 2900 6075 50  0000 C CNN
F 2 "Pin_Headers:Pin_Header_Straight_1x08_Pitch2.54mm" H 2900 6575 50  0001 C CNN
F 3 "" H 2900 6575 50  0001 C CNN
	1    2900 6575
	-1   0    0    -1  
$EndComp
Text GLabel 3200 6275 2    39   Input ~ 0
E5V
Wire Wire Line
	3200 6275 3100 6275
Text GLabel 3200 6375 2    39   Input ~ 0
GND
Wire Wire Line
	3200 6375 3100 6375
Text GLabel 3200 6475 2    39   Input ~ 0
FT1_ADC
Wire Wire Line
	3200 6475 3100 6475
Text GLabel 3200 6575 2    39   Input ~ 0
FT2_ADC
Wire Wire Line
	3200 6575 3100 6575
Text GLabel 3200 6675 2    39   Input ~ 0
FT3_ADC
Wire Wire Line
	3200 6675 3100 6675
Text GLabel 3200 6775 2    39   Input ~ 0
IR1_PWM
Wire Wire Line
	3200 6775 3100 6775
Text GLabel 3200 6875 2    39   Input ~ 0
IR2_PWM
Wire Wire Line
	3200 6875 3100 6875
Text GLabel 3200 6975 2    39   Input ~ 0
IR3_PWM
Wire Wire Line
	3200 6975 3100 6975
$Comp
L Conn_01x06 J5
U 1 1 5A0A72C4
P 4175 6625
F 0 "J5" H 4175 6925 50  0000 C CNN
F 1 "SHARP" H 4175 6225 50  0000 C CNN
F 2 "Pin_Headers:Pin_Header_Straight_1x06_Pitch2.54mm" H 4175 6625 50  0001 C CNN
F 3 "" H 4175 6625 50  0001 C CNN
	1    4175 6625
	-1   0    0    -1  
$EndComp
Wire Wire Line
	4475 6425 4375 6425
Text GLabel 4475 6525 2    39   Input ~ 0
GND
Wire Wire Line
	4475 6525 4375 6525
Text GLabel 4475 6625 2    39   Input ~ 0
SH1_ADC
Wire Wire Line
	4475 6625 4375 6625
Text GLabel 4475 6825 2    39   Input ~ 0
SH1_ON
Wire Wire Line
	4475 6925 4375 6925
Text GLabel 4475 6925 2    39   Input ~ 0
SH2_ON
Wire Wire Line
	4475 6725 4375 6725
Text GLabel 4475 6725 2    39   Input ~ 0
SH2_ADC
Wire Wire Line
	4475 6825 4375 6825
$Comp
L Conn_01x10 J3
U 1 1 5A0A773F
P 5500 6525
F 0 "J3" H 5500 7025 50  0000 C CNN
F 1 "TOF" H 5500 5925 50  0000 C CNN
F 2 "Pin_Headers:Pin_Header_Straight_1x10_Pitch2.54mm" H 5500 6525 50  0001 C CNN
F 3 "" H 5500 6525 50  0001 C CNN
	1    5500 6525
	-1   0    0    -1  
$EndComp
Text GLabel 5800 6125 2    39   Input ~ 0
3V3
Wire Wire Line
	5800 6125 5700 6125
Text GLabel 5800 6225 2    39   Input ~ 0
GND
Wire Wire Line
	5800 6225 5700 6225
Text GLabel 5800 6325 2    39   Input ~ 0
SDA
Wire Wire Line
	5800 6325 5700 6325
Text GLabel 5800 6425 2    39   Input ~ 0
SCL
Wire Wire Line
	5800 6425 5700 6425
Text GLabel 5800 6525 2    39   Input ~ 0
EN1
Wire Wire Line
	5800 6525 5700 6525
Text GLabel 5800 6625 2    39   Input ~ 0
INT1
Wire Wire Line
	5800 6625 5700 6625
Text GLabel 5800 6725 2    39   Input ~ 0
EN2
Wire Wire Line
	5800 6725 5700 6725
Text GLabel 5800 6825 2    39   Input ~ 0
INT2
Wire Wire Line
	5800 6825 5700 6825
Text GLabel 5800 6925 2    39   Input ~ 0
EN3
Wire Wire Line
	5800 6925 5700 6925
Text GLabel 5800 7025 2    39   Input ~ 0
INT3
Wire Wire Line
	5800 7025 5700 7025
Text GLabel 6100 3200 0    39   Input ~ 0
SCL
Text GLabel 6100 3300 0    39   Input ~ 0
SDA
Wire Wire Line
	6100 3300 6200 3300
Wire Wire Line
	6200 3200 6100 3200
Text GLabel 6800 3600 2    39   Input ~ 0
EN1
Wire Wire Line
	6800 3600 6700 3600
Text GLabel 6100 3600 0    39   Input ~ 0
INT1
Wire Wire Line
	6100 3600 6200 3600
Text GLabel 6800 3700 2    39   Input ~ 0
EN2
Wire Wire Line
	6800 3700 6700 3700
Text GLabel 6100 3700 0    39   Input ~ 0
INT2
Wire Wire Line
	6100 3700 6200 3700
Text GLabel 6800 3800 2    39   Input ~ 0
EN3
Wire Wire Line
	6800 3800 6700 3800
Text GLabel 6100 3800 0    39   Input ~ 0
INT3
Wire Wire Line
	6100 3800 6200 3800
$Comp
L Conn_02x19_Odd_Even J10
U 1 1 5A0288AB
P 6400 4000
F 0 "J10" H 6450 5000 50  0000 C CNN
F 1 "CN10" H 6450 3000 50  0000 C CNN
F 2 "Pin_Headers:Pin_Header_Straight_2x19_Pitch2.54mm" H 6400 4000 50  0001 C CNN
F 3 "" H 6400 4000 50  0001 C CNN
	1    6400 4000
	1    0    0    -1  
$EndComp
NoConn ~ 6700 3400
NoConn ~ 6200 3100
Text GLabel 4950 4500 2    39   Input ~ 0
SH2_ADC
Wire Wire Line
	4950 4500 4850 4500
Wire Wire Line
	4950 4600 4850 4600
Text GLabel 4950 4600 2    39   Input ~ 0
SH1_ADC
Text GLabel 4950 4700 2    39   Input ~ 0
FT1_ADC
Wire Wire Line
	4950 4700 4850 4700
Text GLabel 4950 4800 2    39   Input ~ 0
FT2_ADC
Wire Wire Line
	4950 4800 4850 4800
Text GLabel 4950 4900 2    39   Input ~ 0
FT3_ADC
Wire Wire Line
	4950 4900 4850 4900
Text GLabel 4250 4900 0    39   Input ~ 0
SH1_ON
Text GLabel 4250 4800 0    39   Input ~ 0
SH2_ON
Text GLabel 6100 4300 0    39   Input ~ 0
IR1_PWM
Text GLabel 6100 4400 0    39   Input ~ 0
IR2_PWM
Wire Wire Line
	6100 4500 6200 4500
Text GLabel 6100 4500 0    39   Input ~ 0
IR3_PWM
Text GLabel 4950 4400 2    39   Input ~ 0
LASER_ON
NoConn ~ 6700 3300
NoConn ~ 6700 3200
NoConn ~ 6700 3100
NoConn ~ 4850 3100
Wire Wire Line
	4950 4400 4850 4400
NoConn ~ 4350 4300
NoConn ~ 4350 4400
NoConn ~ 4350 4500
NoConn ~ 4350 4600
Wire Wire Line
	4250 4800 4350 4800
Wire Wire Line
	4250 4900 4350 4900
NoConn ~ 4350 4700
Text Notes 5350 5125 0    60   ~ 0
PA0\nPA1\nPA4\nPB0\nPC1\nPC0\n\n\n
Text Notes 3750 4950 0    60   ~ 0
PC2\nPC3\n
Text Notes 5725 3450 0    60   ~ 0
PB8\nPB9\n\n
Text Notes 5725 3825 0    60   ~ 0
PA5\nPA6\nPA7\n
Text Notes 7000 3825 0    60   ~ 0
PA12\nPA11\nPB12\n
Text Notes 5575 4625 0    60   ~ 0
PB10\nPB4\nPB5\n\n
NoConn ~ 6200 4200
Wire Wire Line
	6100 4300 6200 4300
Wire Wire Line
	6200 4400 6100 4400
NoConn ~ 6200 4600
Text Notes 5650 5025 0    60   ~ 0
PA10\nPA2\nPA3\n\n
Text Notes 5725 4325 0    60   ~ 0
PB6\nPC7\nPA9\n\n\n
Text GLabel 4475 6425 2    39   Input ~ 0
5V
$EndSCHEMATC
