%!PS-Adobe-3.0 EPSF-3.0 
%%BoundingBox: 0 0 842 595
%%Pages: 0
%%Creator: Sun Microsystems, Inc.
%%Title: none
%%CreationDate: none
%%LanguageLevel: 2
%%EndComments
%%BeginProlog
%%BeginResource: procset SDRes-Prolog 1.0 0
/b4_inc_state save def
/dict_count countdictstack def
/op_count count 1 sub def
userdict begin
0 setgray 0 setlinecap 1 setlinewidth 0 setlinejoin 10 setmiterlimit[] 0 setdash newpath
/languagelevel where {pop languagelevel 1 ne {false setstrokeadjust false setoverprint} if} if
/bdef {bind def} bind def
/c {setgray} bdef
/l {neg lineto} bdef
/rl {neg rlineto} bdef
/lc {setlinecap} bdef
/lj {setlinejoin} bdef
/lw {setlinewidth} bdef
/ml {setmiterlimit} bdef
/ld {setdash} bdef
/m {neg moveto} bdef
/ct {6 2 roll neg 6 2 roll neg 6 2 roll neg curveto} bdef
/r {rotate} bdef
/t {neg translate} bdef
/s {scale} bdef
/sw {show} bdef
/gs {gsave} bdef
/gr {grestore} bdef
/f {findfont dup length dict begin
{1 index /FID ne {def} {pop pop} ifelse} forall /Encoding ISOLatin1Encoding def
currentdict end /NFont exch definefont pop /NFont findfont} bdef
/p {closepath} bdef
/sf {scalefont setfont} bdef
/ef {eofill}bdef
/pc {closepath stroke}bdef
/ps {stroke}bdef
/pum {matrix currentmatrix}bdef
/pom {setmatrix}bdef
/bs {/aString exch def /nXOfs exch def /nWidth exch def currentpoint nXOfs 0 rmoveto pum nWidth aString stringwidth pop div 1 scale aString show pom moveto} bdef
%%EndResource
%%EndProlog
%%BeginSetup
%%EndSetup
%%Page: 1 1
%%BeginPageSetup
%%EndPageSetup
pum
0.02835 0.02833 s 
0 -21000 t
/tm matrix currentmatrix def
gs
tm setmatrix
-1072 -1105 t 
1 1 s 
1072 1105 m 30771 1105 l 30771 22104 l 1072 22104 l 1072 1105 l eoclip newpath
gs
0 0 m 29699 0 l 29699 20999 l 0 20999 l 0 0 l eoclip newpath
0.996 c 14475 6630 m  11794 6630 l  11794 4421 l  17155 4422 l  17155 6632 l 
14475 6630 l  p ef
0 lw 1 lj 0.000 c 14474 6630 m  11794 6630 l  11794 4421 l  17155 4422 l 
17155 6631 l  14474 6630 l  pc
pum
13756 5359 t
41 0 m  41 -390 l  118 -390 l  211 -114 l  219 -88 226 -69 230 -56 ct 234 -70 241 -91 251 -119 ct 
345 -390 l  414 -390 l  414 0 l  364 0 l  364 -326 l  250 0 l  203 0 l 
91 -331 l  91 0 l  41 0 l  p ef
449 -142 m  449 -194 464 -232 493 -258 ct 517 -279 547 -289 582 -289 ct 621 -289 652 -276 677 -251 ct 
702 -225 714 -190 714 -145 ct 714 -109 709 -81 698 -60 ct 687 -39 671 -23 650 -11 ct 
629 0 606 6 582 6 ct 542 6 510 -7 486 -32 ct 461 -57 449 -94 449 -142 ct p
498 -141 m  498 -105 506 -78 522 -60 ct 538 -42 558 -33 582 -33 ct 606 -33 625 -42 641 -60 ct 
657 -78 665 -106 665 -143 ct 665 -178 657 -204 641 -222 ct 625 -240 605 -249 582 -249 ct 
558 -249 538 -240 522 -222 ct 506 -204 498 -177 498 -141 ct p ef
946 0 m  946 -36 l  928 -8 901 6 866 6 ct 844 6 823 0 804 -13 ct 785 -25 770 -42 760 -65 ct 
749 -87 744 -112 744 -141 ct 744 -169 749 -195 758 -218 ct 768 -241 782 -258 801 -271 ct 
819 -283 841 -289 864 -289 ct 881 -289 896 -285 909 -278 ct 923 -271 934 -261 942 -250 ct 
942 -390 l  990 -390 l  990 0 l  946 0 l  p
793 -141 m  793 -105 801 -78 816 -60 ct 832 -42 850 -33 871 -33 ct 892 -33 910 -42 925 -59 ct 
940 -76 947 -102 947 -137 ct 947 -175 939 -204 924 -222 ct 909 -240 891 -249 869 -249 ct 
847 -249 829 -240 815 -223 ct 800 -206 793 -178 793 -141 ct p ef
1243 0 m  1243 -42 l  1221 -10 1191 6 1153 6 ct 1137 6 1121 3 1107 -4 ct 1092 -10 1082 -18 1075 -28 ct 
1068 -37 1063 -49 1060 -63 ct 1058 -73 1057 -87 1057 -108 ct 1057 -283 l  1105 -283 l 
1105 -126 l  1105 -101 1106 -84 1108 -75 ct 1111 -63 1117 -53 1127 -46 ct 1137 -39 1149 -35 1163 -35 ct 
1177 -35 1191 -39 1203 -46 ct 1216 -53 1225 -63 1230 -76 ct 1235 -89 1238 -107 1238 -131 ct 
1238 -283 l  1286 -283 l  1286 0 l  1243 0 l  p ef
1352 -153 m  1317 -124 l  1317 -166 l  1352 -195 l  1352 -390 l  1400 -390 l 
1400 -237 l  1435 -267 l  1435 -225 l  1400 -195 l  1400 0 l  1352 0 l 
1352 -153 l  p ef
pom
pum
12599 6058 t
80 0 m  35 0 l  35 -390 l  83 -390 l  83 -251 l  103 -276 129 -289 161 -289 ct 
178 -289 195 -286 210 -279 ct 226 -272 239 -262 249 -249 ct 259 -236 267 -221 272 -203 ct 
278 -185 281 -166 281 -146 ct 281 -97 269 -60 245 -34 ct 221 -7 192 6 159 6 ct 
125 6 99 -8 80 -35 ct 80 0 l  p
79 -144 m  79 -110 84 -85 93 -70 ct 108 -45 129 -33 154 -33 ct 175 -33 194 -42 209 -60 ct 
224 -79 232 -106 232 -142 ct 232 -179 225 -206 210 -224 ct 195 -241 177 -250 157 -250 ct 
136 -250 117 -241 102 -223 ct 87 -204 79 -178 79 -144 ct p ef
525 -91 m  573 -85 l  566 -56 551 -34 530 -18 ct 509 -2 482 6 449 6 ct 408 6 375 -7 351 -32 ct 
327 -58 315 -93 315 -139 ct 315 -187 327 -223 352 -250 ct 376 -276 408 -289 447 -289 ct 
484 -289 515 -276 539 -250 ct 563 -225 575 -188 575 -142 ct 575 -139 575 -135 575 -129 ct 
364 -129 l  366 -98 375 -74 391 -58 ct 407 -41 426 -33 450 -33 ct 468 -33 483 -38 496 -47 ct 
508 -56 518 -71 525 -91 ct p
365 -168 m  526 -168 l  524 -192 518 -210 508 -222 ct 492 -241 472 -250 447 -250 ct 
425 -250 406 -243 390 -228 ct 375 -213 367 -193 365 -168 ct p ef
601 0 m  601 -39 l  780 -247 l  759 -245 741 -244 726 -244 ct 612 -244 l 
612 -283 l  842 -283 l  842 -252 l  689 -72 l  659 -38 l  680 -40 701 -41 719 -41 ct 
851 -41 l  851 0 l  601 0 l  p ef
888 108 m  888 -283 l  932 -283 l  932 -245 l  942 -260 954 -271 967 -278 ct 
980 -285 996 -289 1014 -289 ct 1038 -289 1060 -283 1078 -270 ct 1097 -258 1110 -241 1120 -218 ct 
1129 -195 1134 -171 1134 -144 ct 1134 -115 1129 -89 1118 -66 ct 1108 -43 1093 -25 1073 -12 ct 
1053 0 1032 6 1010 6 ct 994 6 980 3 967 -4 ct 955 -11 944 -19 936 -29 ct 936 108 l 
888 108 l  p
931 -139 m  931 -103 938 -76 953 -59 ct 968 -42 986 -33 1007 -33 ct 1028 -33 1047 -42 1062 -60 ct 
1077 -78 1085 -106 1085 -143 ct 1085 -179 1078 -206 1063 -224 ct 1048 -242 1030 -251 1009 -251 ct 
989 -251 971 -241 955 -222 ct 939 -203 931 -176 931 -139 ct p ef
1186 -335 m  1186 -390 l  1234 -390 l  1234 -335 l  1186 -335 l  p
1186 0 m  1186 -283 l  1234 -283 l  1234 0 l  1186 0 l  p ef
1496 -91 m  1544 -85 l  1537 -56 1522 -34 1501 -18 ct 1480 -2 1453 6 1420 6 ct 
1379 6 1346 -7 1322 -32 ct 1298 -58 1286 -93 1286 -139 ct 1286 -187 1298 -223 1323 -250 ct 
1347 -276 1379 -289 1418 -289 ct 1455 -289 1486 -276 1510 -250 ct 1534 -225 1546 -188 1546 -142 ct 
1546 -139 1546 -135 1546 -129 ct 1335 -129 l  1337 -98 1346 -74 1362 -58 ct 
1378 -41 1397 -33 1421 -33 ct 1439 -33 1454 -38 1467 -47 ct 1479 -56 1489 -71 1496 -91 ct 
p
1336 -168 m  1497 -168 l  1495 -192 1489 -210 1479 -222 ct 1463 -241 1443 -250 1418 -250 ct 
1396 -250 1377 -243 1361 -228 ct 1346 -213 1338 -193 1336 -168 ct p ef
1782 -104 m  1829 -98 l  1824 -65 1811 -40 1790 -22 ct 1768 -3 1742 6 1711 6 ct 
1673 6 1642 -7 1618 -32 ct 1595 -57 1583 -93 1583 -140 ct 1583 -171 1588 -198 1598 -220 ct 
1608 -243 1624 -260 1644 -272 ct 1665 -283 1687 -289 1711 -289 ct 1742 -289 1767 -281 1787 -266 ct 
1806 -250 1819 -228 1824 -199 ct 1777 -193 l  1773 -212 1765 -226 1754 -236 ct 
1742 -245 1729 -250 1713 -250 ct 1689 -250 1669 -241 1654 -224 ct 1639 -207 1632 -179 1632 -142 ct 
1632 -104 1639 -76 1654 -59 ct 1668 -42 1687 -33 1711 -33 ct 1730 -33 1745 -39 1758 -50 ct 
1771 -62 1779 -80 1782 -104 ct p ef
1836 0 m  1836 -39 l  2015 -247 l  1994 -245 1976 -244 1961 -244 ct 1847 -244 l 
1847 -283 l  2077 -283 l  2077 -252 l  1924 -72 l  1894 -38 l  1915 -40 1936 -41 1954 -41 ct 
2086 -41 l  2086 0 l  1836 0 l  p ef
2318 -91 m  2366 -85 l  2359 -56 2344 -34 2323 -18 ct 2302 -2 2275 6 2242 6 ct 
2201 6 2168 -7 2144 -32 ct 2120 -58 2108 -93 2108 -139 ct 2108 -187 2120 -223 2145 -250 ct 
2169 -276 2201 -289 2240 -289 ct 2277 -289 2308 -276 2332 -250 ct 2356 -225 2368 -188 2368 -142 ct 
2368 -139 2368 -135 2368 -129 ct 2157 -129 l  2159 -98 2168 -74 2184 -58 ct 
2200 -41 2219 -33 2243 -33 ct 2261 -33 2276 -38 2289 -47 ct 2301 -56 2311 -71 2318 -91 ct 
p
2158 -168 m  2319 -168 l  2317 -192 2311 -210 2301 -222 ct 2285 -241 2265 -250 2240 -250 ct 
2218 -250 2199 -243 2183 -228 ct 2168 -213 2160 -193 2158 -168 ct p ef
2420 0 m  2420 -283 l  2463 -283 l  2463 -243 l  2484 -274 2514 -289 2553 -289 ct 
2570 -289 2585 -286 2600 -280 ct 2614 -274 2624 -266 2631 -256 ct 2639 -246 2644 -234 2646 -220 ct 
2648 -211 2649 -196 2649 -174 ct 2649 0 l  2601 0 l  2601 -172 l  2601 -191 2599 -206 2595 -215 ct 
2592 -225 2585 -233 2576 -238 ct 2566 -244 2555 -247 2543 -247 ct 2522 -247 2505 -241 2490 -228 ct 
2475 -215 2468 -190 2468 -154 ct 2468 0 l  2420 0 l  p
2503 -318 m  2539 -393 l  2602 -393 l  2543 -318 l  2503 -318 l  p ef
2696 -86 m  2743 -92 l  2746 -73 2753 -58 2765 -48 ct 2777 -38 2794 -33 2816 -33 ct 
2838 -33 2854 -38 2865 -47 ct 2876 -56 2881 -66 2881 -78 ct 2881 -89 2876 -98 2867 -104 ct 
2860 -108 2843 -114 2818 -120 ct 2783 -129 2759 -137 2745 -143 ct 2732 -150 2721 -159 2714 -170 ct 
2707 -181 2704 -194 2704 -208 ct 2704 -220 2707 -232 2713 -243 ct 2718 -253 2726 -262 2736 -269 ct 
2743 -275 2754 -279 2766 -283 ct 2779 -287 2793 -289 2808 -289 ct 2830 -289 2849 -286 2866 -279 ct 
2882 -273 2895 -264 2903 -254 ct 2911 -243 2916 -228 2919 -210 ct 2872 -204 l 
2870 -218 2864 -230 2854 -238 ct 2844 -246 2829 -250 2811 -250 ct 2789 -250 2773 -246 2764 -239 ct 
2755 -232 2750 -223 2750 -213 ct 2750 -207 2752 -202 2756 -197 ct 2760 -191 2766 -187 2774 -184 ct 
2779 -182 2793 -178 2816 -171 ct 2850 -162 2873 -155 2887 -149 ct 2900 -143 2911 -135 2918 -124 ct 
2926 -113 2930 -100 2930 -83 ct 2930 -67 2925 -52 2916 -38 ct 2907 -24 2893 -13 2876 -6 ct 
2858 2 2839 6 2816 6 ct 2780 6 2752 -2 2733 -17 ct 2714 -33 2701 -56 2696 -86 ct 
p ef
3082 -43 m  3088 0 l  3074 3 3062 4 3052 4 ct 3034 4 3021 1 3011 -4 ct 3002 -10 2995 -17 2991 -26 ct 
2987 -35 2985 -54 2985 -83 ct 2985 -246 l  2950 -246 l  2950 -283 l  2985 -283 l 
2985 -353 l  3033 -382 l  3033 -283 l  3082 -283 l  3082 -246 l  3033 -246 l 
3033 -81 l  3033 -67 3034 -59 3036 -55 ct 3037 -51 3040 -48 3044 -45 ct 3048 -43 3053 -42 3061 -42 ct 
3066 -42 3073 -42 3082 -43 ct p ef
3175 0 m  3089 -283 l  3139 -283 l  3184 -120 l  3200 -59 l  3201 -62 3206 -81 3215 -117 ct 
3259 -283 l  3309 -283 l  3350 -119 l  3364 -65 l  3380 -120 l  3430 -283 l 
3477 -283 l  3386 0 l  3337 0 l  3293 -169 l  3283 -218 l  3225 0 l  3175 0 l 
p ef
3677 -35 m  3660 -20 3642 -9 3626 -3 ct 3609 3 3592 6 3573 6 ct 3541 6 3517 -2 3500 -17 ct 
3483 -32 3475 -51 3475 -75 ct 3475 -89 3478 -102 3485 -113 ct 3491 -124 3499 -134 3510 -141 ct 
3520 -147 3531 -153 3544 -156 ct 3554 -159 3568 -161 3587 -163 ct 3626 -168 3655 -174 3674 -180 ct 
3674 -186 3674 -191 3674 -192 ct 3674 -212 3669 -225 3660 -233 ct 3648 -244 3630 -249 3605 -249 ct 
3583 -249 3566 -245 3555 -237 ct 3544 -230 3536 -216 3531 -196 ct 3483 -202 l 
3487 -222 3494 -238 3504 -251 ct 3514 -263 3528 -272 3547 -279 ct 3565 -286 3587 -289 3611 -289 ct 
3635 -289 3655 -286 3670 -280 ct 3685 -275 3696 -268 3704 -259 ct 3711 -250 3716 -240 3719 -226 ct 
3720 -218 3721 -204 3721 -182 ct 3721 -119 l  3721 -75 3722 -46 3724 -34 ct 
3726 -22 3730 -11 3736 0 ct 3687 0 l  3682 -10 3678 -22 3677 -35 ct p
3674 -142 m  3656 -135 3630 -129 3594 -124 ct 3574 -121 3560 -118 3552 -115 ct 
3544 -111 3537 -106 3533 -99 ct 3528 -92 3526 -85 3526 -76 ct 3526 -64 3531 -53 3541 -45 ct 
3551 -36 3565 -32 3584 -32 ct 3603 -32 3619 -36 3634 -44 ct 3648 -52 3659 -63 3666 -77 ct 
3671 -88 3674 -104 3674 -125 ct 3674 -142 l  p ef
pom
0.996 c 21980 11052 m  19300 11052 l  19300 8842 l  24661 8842 l  24661 11052 l 
21980 11052 l  p ef
0.000 c 21980 11051 m  19299 11051 l  19299 8842 l  24660 8842 l  24660 11051 l 
21980 11051 l  pc
pum
21263 9780 t
41 0 m  41 -390 l  118 -390 l  211 -114 l  219 -88 226 -69 230 -56 ct 234 -70 241 -91 251 -119 ct 
345 -390 l  414 -390 l  414 0 l  364 0 l  364 -326 l  250 0 l  203 0 l 
91 -331 l  91 0 l  41 0 l  p ef
449 -142 m  449 -194 464 -232 493 -258 ct 517 -279 547 -289 582 -289 ct 621 -289 652 -276 677 -251 ct 
702 -225 714 -190 714 -145 ct 714 -109 709 -81 698 -60 ct 687 -39 671 -23 650 -11 ct 
629 0 606 6 582 6 ct 542 6 510 -7 486 -32 ct 461 -57 449 -94 449 -142 ct p
498 -141 m  498 -105 506 -78 522 -60 ct 538 -42 558 -33 582 -33 ct 606 -33 625 -42 641 -60 ct 
657 -78 665 -106 665 -143 ct 665 -178 657 -204 641 -222 ct 625 -240 605 -249 582 -249 ct 
558 -249 538 -240 522 -222 ct 506 -204 498 -177 498 -141 ct p ef
946 0 m  946 -36 l  928 -8 901 6 866 6 ct 844 6 823 0 804 -13 ct 785 -25 770 -42 760 -65 ct 
749 -87 744 -112 744 -141 ct 744 -169 749 -195 758 -218 ct 768 -241 782 -258 801 -271 ct 
819 -283 841 -289 864 -289 ct 881 -289 896 -285 909 -278 ct 923 -271 934 -261 942 -250 ct 
942 -390 l  990 -390 l  990 0 l  946 0 l  p
793 -141 m  793 -105 801 -78 816 -60 ct 832 -42 850 -33 871 -33 ct 892 -33 910 -42 925 -59 ct 
940 -76 947 -102 947 -137 ct 947 -175 939 -204 924 -222 ct 909 -240 891 -249 869 -249 ct 
847 -249 829 -240 815 -223 ct 800 -206 793 -178 793 -141 ct p ef
1243 0 m  1243 -42 l  1221 -10 1191 6 1153 6 ct 1137 6 1121 3 1107 -4 ct 1092 -10 1082 -18 1075 -28 ct 
1068 -37 1063 -49 1060 -63 ct 1058 -73 1057 -87 1057 -108 ct 1057 -283 l  1105 -283 l 
1105 -126 l  1105 -101 1106 -84 1108 -75 ct 1111 -63 1117 -53 1127 -46 ct 1137 -39 1149 -35 1163 -35 ct 
1177 -35 1191 -39 1203 -46 ct 1216 -53 1225 -63 1230 -76 ct 1235 -89 1238 -107 1238 -131 ct 
1238 -283 l  1286 -283 l  1286 0 l  1243 0 l  p ef
1352 -153 m  1317 -124 l  1317 -166 l  1352 -195 l  1352 -390 l  1400 -390 l 
1400 -237 l  1435 -267 l  1435 -225 l  1400 -195 l  1400 0 l  1352 0 l 
1352 -153 l  p ef
pom
pum
20714 10479 t
35 108 m  35 -283 l  79 -283 l  79 -245 l  89 -260 101 -271 114 -278 ct 127 -285 143 -289 161 -289 ct 
185 -289 207 -283 225 -270 ct 244 -258 257 -241 267 -218 ct 276 -195 281 -171 281 -144 ct 
281 -115 276 -89 265 -66 ct 255 -43 240 -25 220 -12 ct 200 0 179 6 157 6 ct 141 6 127 3 114 -4 ct 
102 -11 91 -19 83 -29 ct 83 108 l  35 108 l  p
78 -139 m  78 -103 85 -76 100 -59 ct 115 -42 133 -33 154 -33 ct 175 -33 194 -42 209 -60 ct 
224 -78 232 -106 232 -143 ct 232 -179 225 -206 210 -224 ct 195 -242 177 -251 156 -251 ct 
136 -251 118 -241 102 -222 ct 86 -203 78 -176 78 -139 ct p ef
313 -142 m  313 -194 328 -232 357 -258 ct 381 -279 411 -289 446 -289 ct 485 -289 516 -276 541 -251 ct 
566 -225 578 -190 578 -145 ct 578 -109 573 -81 562 -60 ct 551 -39 535 -23 514 -11 ct 
493 0 470 6 446 6 ct 406 6 374 -7 350 -32 ct 325 -57 313 -94 313 -142 ct p
362 -141 m  362 -105 370 -78 386 -60 ct 402 -42 422 -33 446 -33 ct 470 -33 489 -42 505 -60 ct 
521 -78 529 -106 529 -143 ct 529 -178 521 -204 505 -222 ct 489 -240 469 -249 446 -249 ct 
422 -249 402 -240 386 -222 ct 370 -204 362 -177 362 -141 ct p ef
626 0 m  626 -283 l  669 -283 l  669 -242 l  678 -256 690 -268 704 -276 ct 
719 -285 736 -289 755 -289 ct 776 -289 793 -285 806 -276 ct 820 -267 829 -255 834 -239 ct 
857 -272 886 -289 922 -289 ct 950 -289 972 -281 987 -266 ct 1002 -250 1010 -226 1010 -194 ct 
1010 0 l  962 0 l  962 -178 l  962 -197 960 -211 957 -219 ct 954 -227 948 -234 940 -239 ct 
932 -244 922 -247 911 -247 ct 891 -247 875 -240 862 -227 ct 849 -214 842 -193 842 -164 ct 
842 0 l  794 0 l  794 -183 l  794 -205 790 -220 782 -231 ct 774 -242 762 -247 744 -247 ct 
730 -247 718 -243 707 -236 ct 695 -229 687 -219 682 -205 ct 676 -192 674 -172 674 -146 ct 
674 0 l  626 0 l  p ef
1068 -335 m  1068 -390 l  1116 -390 l  1116 -335 l  1068 -335 l  p
1068 0 m  1068 -283 l  1116 -283 l  1116 0 l  1068 0 l  p ef
1370 -35 m  1353 -20 1335 -9 1319 -3 ct 1302 3 1285 6 1266 6 ct 1234 6 1210 -2 1193 -17 ct 
1176 -32 1168 -51 1168 -75 ct 1168 -89 1171 -102 1178 -113 ct 1184 -124 1192 -134 1203 -141 ct 
1213 -147 1224 -153 1237 -156 ct 1247 -159 1261 -161 1280 -163 ct 1319 -168 1348 -174 1367 -180 ct 
1367 -186 1367 -191 1367 -192 ct 1367 -212 1362 -225 1353 -233 ct 1341 -244 1323 -249 1298 -249 ct 
1276 -249 1259 -245 1248 -237 ct 1237 -230 1229 -216 1224 -196 ct 1176 -202 l 
1180 -222 1187 -238 1197 -251 ct 1207 -263 1221 -272 1240 -279 ct 1258 -286 1280 -289 1304 -289 ct 
1328 -289 1348 -286 1363 -280 ct 1378 -275 1389 -268 1397 -259 ct 1404 -250 1409 -240 1412 -226 ct 
1413 -218 1414 -204 1414 -182 ct 1414 -119 l  1414 -75 1415 -46 1417 -34 ct 
1419 -22 1423 -11 1429 0 ct 1380 0 l  1375 -10 1371 -22 1370 -35 ct p
1367 -142 m  1349 -135 1323 -129 1287 -124 ct 1267 -121 1253 -118 1245 -115 ct 
1237 -111 1230 -106 1226 -99 ct 1221 -92 1219 -85 1219 -76 ct 1219 -64 1224 -53 1234 -45 ct 
1244 -36 1258 -32 1277 -32 ct 1296 -32 1312 -36 1327 -44 ct 1341 -52 1352 -63 1359 -77 ct 
1364 -88 1367 -104 1367 -125 ct 1367 -142 l  p ef
1478 0 m  1478 -283 l  1521 -283 l  1521 -239 l  1532 -260 1542 -273 1551 -279 ct 
1560 -286 1570 -289 1581 -289 ct 1597 -289 1614 -284 1630 -274 ct 1613 -230 l 
1602 -236 1590 -239 1579 -239 ct 1569 -239 1560 -236 1551 -230 ct 1543 -223 1538 -215 1534 -203 ct 
1529 -186 1526 -168 1526 -148 ct 1526 0 l  1478 0 l  p ef
1638 -142 m  1638 -194 1653 -232 1682 -258 ct 1706 -279 1736 -289 1771 -289 ct 
1810 -289 1841 -276 1866 -251 ct 1891 -225 1903 -190 1903 -145 ct 1903 -109 1898 -81 1887 -60 ct 
1876 -39 1860 -23 1839 -11 ct 1818 0 1795 6 1771 6 ct 1731 6 1699 -7 1675 -32 ct 
1650 -57 1638 -94 1638 -142 ct p
1687 -141 m  1687 -105 1695 -78 1711 -60 ct 1727 -42 1747 -33 1771 -33 ct 1795 -33 1814 -42 1830 -60 ct 
1846 -78 1854 -106 1854 -143 ct 1854 -178 1846 -204 1830 -222 ct 1814 -240 1794 -249 1771 -249 ct 
1747 -249 1727 -240 1711 -222 ct 1695 -204 1687 -177 1687 -141 ct p ef
2003 0 m  1917 -283 l  1967 -283 l  2012 -120 l  2028 -59 l  2029 -62 2034 -81 2043 -117 ct 
2087 -283 l  2137 -283 l  2178 -119 l  2192 -65 l  2208 -120 l  2258 -283 l 
2305 -283 l  2214 0 l  2165 0 l  2121 -169 l  2111 -218 l  2053 0 l  2003 0 l 
p ef
2317 108 m  2311 64 l  2322 67 2331 68 2339 68 ct 2350 68 2358 66 2365 63 ct 
2371 59 2377 54 2381 48 ct 2384 43 2389 31 2396 12 ct 2397 9 2398 6 2400 0 ct 2291 -283 l 
2342 -283 l  2403 -120 l  2410 -100 2417 -78 2423 -55 ct 2429 -76 2435 -97 2443 -118 ct 
2503 -283 l  2551 -283 l  2445 6 l  2433 36 2424 57 2418 69 ct 2409 84 2399 96 2388 103 ct 
2377 110 2364 114 2348 114 ct 2339 114 2328 112 2317 108 ct p ef
pom
0.996 c 14475 11053 m  11794 11053 l  11794 8843 l  17155 8843 l  17155 11053 l 
14475 11053 l  p ef
0.000 c 14474 11052 m  11794 11052 l  11794 8843 l  17155 8843 l  17155 11052 l 
14474 11052 l  pc
pum
12412 9782 t
41 0 m  41 -390 l  118 -390 l  211 -114 l  219 -88 226 -69 230 -56 ct 234 -70 241 -91 251 -119 ct 
345 -390 l  414 -390 l  414 0 l  364 0 l  364 -326 l  250 0 l  203 0 l 
91 -331 l  91 0 l  41 0 l  p ef
449 -142 m  449 -194 464 -232 493 -258 ct 517 -279 547 -289 582 -289 ct 621 -289 652 -276 677 -251 ct 
702 -225 714 -190 714 -145 ct 714 -109 709 -81 698 -60 ct 687 -39 671 -23 650 -11 ct 
629 0 606 6 582 6 ct 542 6 510 -7 486 -32 ct 461 -57 449 -94 449 -142 ct p
498 -141 m  498 -105 506 -78 522 -60 ct 538 -42 558 -33 582 -33 ct 606 -33 625 -42 641 -60 ct 
657 -78 665 -106 665 -143 ct 665 -178 657 -204 641 -222 ct 625 -240 605 -249 582 -249 ct 
558 -249 538 -240 522 -222 ct 506 -204 498 -177 498 -141 ct p ef
946 0 m  946 -36 l  928 -8 901 6 866 6 ct 844 6 823 0 804 -13 ct 785 -25 770 -42 760 -65 ct 
749 -87 744 -112 744 -141 ct 744 -169 749 -195 758 -218 ct 768 -241 782 -258 801 -271 ct 
819 -283 841 -289 864 -289 ct 881 -289 896 -285 909 -278 ct 923 -271 934 -261 942 -250 ct 
942 -390 l  990 -390 l  990 0 l  946 0 l  p
793 -141 m  793 -105 801 -78 816 -60 ct 832 -42 850 -33 871 -33 ct 892 -33 910 -42 925 -59 ct 
940 -76 947 -102 947 -137 ct 947 -175 939 -204 924 -222 ct 909 -240 891 -249 869 -249 ct 
847 -249 829 -240 815 -223 ct 800 -206 793 -178 793 -141 ct p ef
1243 0 m  1243 -42 l  1221 -10 1191 6 1153 6 ct 1137 6 1121 3 1107 -4 ct 1092 -10 1082 -18 1075 -28 ct 
1068 -37 1063 -49 1060 -63 ct 1058 -73 1057 -87 1057 -108 ct 1057 -283 l  1105 -283 l 
1105 -126 l  1105 -101 1106 -84 1108 -75 ct 1111 -63 1117 -53 1127 -46 ct 1137 -39 1149 -35 1163 -35 ct 
1177 -35 1191 -39 1203 -46 ct 1216 -53 1225 -63 1230 -76 ct 1235 -89 1238 -107 1238 -131 ct 
1238 -283 l  1286 -283 l  1286 0 l  1243 0 l  p ef
1352 -153 m  1317 -124 l  1317 -166 l  1352 -195 l  1352 -390 l  1400 -390 l 
1400 -237 l  1435 -267 l  1435 -225 l  1400 -195 l  1400 0 l  1352 0 l 
1352 -153 l  p ef
1597 -86 m  1644 -92 l  1647 -73 1654 -58 1666 -48 ct 1678 -38 1695 -33 1717 -33 ct 
1739 -33 1755 -38 1766 -47 ct 1777 -56 1782 -66 1782 -78 ct 1782 -89 1777 -98 1768 -104 ct 
1761 -108 1744 -114 1719 -120 ct 1684 -129 1660 -137 1646 -143 ct 1633 -150 1622 -159 1615 -170 ct 
1608 -181 1605 -194 1605 -208 ct 1605 -220 1608 -232 1614 -243 ct 1619 -253 1627 -262 1637 -269 ct 
1644 -275 1655 -279 1667 -283 ct 1680 -287 1694 -289 1709 -289 ct 1731 -289 1750 -286 1767 -279 ct 
1783 -273 1796 -264 1804 -254 ct 1812 -243 1817 -228 1820 -210 ct 1773 -204 l 
1771 -218 1765 -230 1755 -238 ct 1745 -246 1730 -250 1712 -250 ct 1690 -250 1674 -246 1665 -239 ct 
1656 -232 1651 -223 1651 -213 ct 1651 -207 1653 -202 1657 -197 ct 1661 -191 1667 -187 1675 -184 ct 
1680 -182 1694 -178 1717 -171 ct 1751 -162 1774 -155 1788 -149 ct 1801 -143 1812 -135 1819 -124 ct 
1827 -113 1831 -100 1831 -83 ct 1831 -67 1826 -52 1817 -38 ct 1808 -24 1794 -13 1777 -6 ct 
1759 2 1740 6 1717 6 ct 1681 6 1653 -2 1634 -17 ct 1615 -33 1602 -56 1597 -86 ct 
p ef
1984 -43 m  1990 0 l  1976 3 1964 4 1954 4 ct 1936 4 1923 1 1913 -4 ct 1904 -10 1897 -17 1893 -26 ct 
1889 -35 1887 -54 1887 -83 ct 1887 -246 l  1852 -246 l  1852 -283 l  1887 -283 l 
1887 -353 l  1935 -382 l  1935 -283 l  1984 -283 l  1984 -246 l  1935 -246 l 
1935 -81 l  1935 -67 1936 -59 1938 -55 ct 1939 -51 1942 -48 1946 -45 ct 1950 -43 1955 -42 1963 -42 ct 
1968 -42 1975 -42 1984 -43 ct p ef
2218 -91 m  2266 -85 l  2259 -56 2244 -34 2223 -18 ct 2202 -2 2175 6 2142 6 ct 
2101 6 2068 -7 2044 -32 ct 2020 -58 2008 -93 2008 -139 ct 2008 -187 2020 -223 2045 -250 ct 
2069 -276 2101 -289 2140 -289 ct 2177 -289 2208 -276 2232 -250 ct 2256 -225 2268 -188 2268 -142 ct 
2268 -139 2268 -135 2268 -129 ct 2057 -129 l  2059 -98 2068 -74 2084 -58 ct 
2100 -41 2119 -33 2143 -33 ct 2161 -33 2176 -38 2189 -47 ct 2201 -56 2211 -71 2218 -91 ct 
p
2058 -168 m  2219 -168 l  2217 -192 2211 -210 2201 -222 ct 2185 -241 2165 -250 2140 -250 ct 
2118 -250 2099 -243 2083 -228 ct 2068 -213 2060 -193 2058 -168 ct p ef
2318 0 m  2318 -283 l  2361 -283 l  2361 -239 l  2372 -260 2382 -273 2391 -279 ct 
2400 -286 2410 -289 2421 -289 ct 2437 -289 2454 -284 2470 -274 ct 2453 -230 l 
2442 -236 2430 -239 2419 -239 ct 2409 -239 2400 -236 2391 -230 ct 2383 -223 2378 -215 2374 -203 ct 
2369 -186 2366 -168 2366 -148 ct 2366 0 l  2318 0 l  p ef
2478 -142 m  2478 -194 2493 -232 2522 -258 ct 2546 -279 2576 -289 2611 -289 ct 
2650 -289 2681 -276 2706 -251 ct 2731 -225 2743 -190 2743 -145 ct 2743 -109 2738 -81 2727 -60 ct 
2716 -39 2700 -23 2679 -11 ct 2658 0 2635 6 2611 6 ct 2571 6 2539 -7 2515 -32 ct 
2490 -57 2478 -94 2478 -142 ct p
2527 -141 m  2527 -105 2535 -78 2551 -60 ct 2567 -42 2587 -33 2611 -33 ct 2635 -33 2654 -42 2670 -60 ct 
2686 -78 2694 -106 2694 -143 ct 2694 -178 2686 -204 2670 -222 ct 2654 -240 2634 -249 2611 -249 ct 
2587 -249 2567 -240 2551 -222 ct 2535 -204 2527 -177 2527 -141 ct p ef
2844 0 m  2758 -283 l  2808 -283 l  2853 -120 l  2869 -59 l  2870 -62 2875 -81 2884 -117 ct 
2928 -283 l  2978 -283 l  3019 -119 l  3033 -65 l  3049 -120 l  3099 -283 l 
3146 -283 l  3055 0 l  3006 0 l  2962 -169 l  2952 -218 l  2894 0 l  2844 0 l 
p ef
3345 -35 m  3328 -20 3310 -9 3294 -3 ct 3277 3 3260 6 3241 6 ct 3209 6 3185 -2 3168 -17 ct 
3151 -32 3143 -51 3143 -75 ct 3143 -89 3146 -102 3153 -113 ct 3159 -124 3167 -134 3178 -141 ct 
3188 -147 3199 -153 3212 -156 ct 3222 -159 3236 -161 3255 -163 ct 3294 -168 3323 -174 3342 -180 ct 
3342 -186 3342 -191 3342 -192 ct 3342 -212 3337 -225 3328 -233 ct 3316 -244 3298 -249 3273 -249 ct 
3251 -249 3234 -245 3223 -237 ct 3212 -230 3204 -216 3199 -196 ct 3151 -202 l 
3155 -222 3162 -238 3172 -251 ct 3182 -263 3196 -272 3215 -279 ct 3233 -286 3255 -289 3279 -289 ct 
3303 -289 3323 -286 3338 -280 ct 3353 -275 3364 -268 3372 -259 ct 3379 -250 3384 -240 3387 -226 ct 
3388 -218 3389 -204 3389 -182 ct 3389 -119 l  3389 -75 3390 -46 3392 -34 ct 
3394 -22 3398 -11 3404 0 ct 3355 0 l  3350 -10 3346 -22 3345 -35 ct p
3342 -142 m  3324 -135 3298 -129 3262 -124 ct 3242 -121 3228 -118 3220 -115 ct 
3212 -111 3205 -106 3201 -99 ct 3196 -92 3194 -85 3194 -76 ct 3194 -64 3199 -53 3209 -45 ct 
3219 -36 3233 -32 3252 -32 ct 3271 -32 3287 -36 3302 -44 ct 3316 -52 3327 -63 3334 -77 ct 
3339 -88 3342 -104 3342 -125 ct 3342 -142 l  p ef
3454 0 m  3454 -283 l  3497 -283 l  3497 -243 l  3518 -274 3548 -289 3587 -289 ct 
3604 -289 3619 -286 3634 -280 ct 3648 -274 3658 -266 3665 -256 ct 3673 -246 3678 -234 3680 -220 ct 
3682 -211 3683 -196 3683 -174 ct 3683 0 l  3635 0 l  3635 -172 l  3635 -191 3633 -206 3629 -215 ct 
3626 -225 3619 -233 3610 -238 ct 3600 -244 3589 -247 3577 -247 ct 3556 -247 3539 -241 3524 -228 ct 
3509 -215 3502 -190 3502 -154 ct 3502 0 l  3454 0 l  p ef
3751 -335 m  3751 -390 l  3799 -390 l  3799 -335 l  3751 -335 l  p
3751 0 m  3751 -283 l  3799 -283 l  3799 0 l  3751 0 l  p ef
4053 -35 m  4036 -20 4018 -9 4002 -3 ct 3985 3 3968 6 3949 6 ct 3917 6 3893 -2 3876 -17 ct 
3859 -32 3851 -51 3851 -75 ct 3851 -89 3854 -102 3861 -113 ct 3867 -124 3875 -134 3886 -141 ct 
3896 -147 3907 -153 3920 -156 ct 3930 -159 3944 -161 3963 -163 ct 4002 -168 4031 -174 4050 -180 ct 
4050 -186 4050 -191 4050 -192 ct 4050 -212 4045 -225 4036 -233 ct 4024 -244 4006 -249 3981 -249 ct 
3959 -249 3942 -245 3931 -237 ct 3920 -230 3912 -216 3907 -196 ct 3859 -202 l 
3863 -222 3870 -238 3880 -251 ct 3890 -263 3904 -272 3923 -279 ct 3941 -286 3963 -289 3987 -289 ct 
4011 -289 4031 -286 4046 -280 ct 4061 -275 4072 -268 4080 -259 ct 4087 -250 4092 -240 4095 -226 ct 
4096 -218 4097 -204 4097 -182 ct 4097 -119 l  4097 -75 4098 -46 4100 -34 ct 
4102 -22 4106 -11 4112 0 ct 4063 0 l  4058 -10 4054 -22 4053 -35 ct p
4050 -142 m  4032 -135 4006 -129 3970 -124 ct 3950 -121 3936 -118 3928 -115 ct 
3920 -111 3913 -106 3909 -99 ct 3904 -92 3902 -85 3902 -76 ct 3902 -64 3907 -53 3917 -45 ct 
3927 -36 3941 -32 3960 -32 ct 3979 -32 3995 -36 4010 -44 ct 4024 -52 4035 -63 4042 -77 ct 
4047 -88 4050 -104 4050 -125 ct 4050 -142 l  p ef
pom
pum
12961 10480 t
38 -335 m  38 -390 l  86 -390 l  86 -335 l  38 -335 l  p
38 0 m  38 -283 l  86 -283 l  86 0 l  38 0 l  p ef
300 0 m  300 -390 l  348 -390 l  348 -168 l  462 -283 l  524 -283 l  416 -178 l 
535 0 l  477 0 l  382 -145 l  348 -112 l  348 0 l  300 0 l  p ef
544 -142 m  544 -194 559 -232 588 -258 ct 612 -279 642 -289 677 -289 ct 716 -289 747 -276 772 -251 ct 
797 -225 809 -190 809 -145 ct 809 -109 804 -81 793 -60 ct 782 -39 766 -23 745 -11 ct 
724 0 701 6 677 6 ct 637 6 605 -7 581 -32 ct 556 -57 544 -94 544 -142 ct p
593 -141 m  593 -105 601 -78 617 -60 ct 633 -42 653 -33 677 -33 ct 701 -33 720 -42 736 -60 ct 
752 -78 760 -106 760 -143 ct 760 -178 752 -204 736 -222 ct 720 -240 700 -249 677 -249 ct 
653 -249 633 -240 617 -222 ct 601 -204 593 -177 593 -141 ct p ef
857 0 m  857 -283 l  900 -283 l  900 -242 l  909 -256 921 -268 935 -276 ct 
950 -285 967 -289 986 -289 ct 1007 -289 1024 -285 1037 -276 ct 1051 -267 1060 -255 1065 -239 ct 
1088 -272 1117 -289 1153 -289 ct 1181 -289 1203 -281 1218 -266 ct 1233 -250 1241 -226 1241 -194 ct 
1241 0 l  1193 0 l  1193 -178 l  1193 -197 1191 -211 1188 -219 ct 1185 -227 1179 -234 1171 -239 ct 
1163 -244 1153 -247 1142 -247 ct 1122 -247 1106 -240 1093 -227 ct 1080 -214 1073 -193 1073 -164 ct 
1073 0 l  1025 0 l  1025 -183 l  1025 -205 1021 -220 1013 -231 ct 1005 -242 993 -247 975 -247 ct 
961 -247 949 -243 938 -236 ct 926 -229 918 -219 913 -205 ct 907 -192 905 -172 905 -146 ct 
905 0 l  857 0 l  p ef
1483 0 m  1483 -42 l  1461 -10 1431 6 1393 6 ct 1377 6 1361 3 1347 -4 ct 1332 -10 1322 -18 1315 -28 ct 
1308 -37 1303 -49 1300 -63 ct 1298 -73 1297 -87 1297 -108 ct 1297 -283 l  1345 -283 l 
1345 -126 l  1345 -101 1346 -84 1348 -75 ct 1351 -63 1357 -53 1367 -46 ct 1377 -39 1389 -35 1403 -35 ct 
1417 -35 1431 -39 1443 -46 ct 1456 -53 1465 -63 1470 -76 ct 1475 -89 1478 -107 1478 -131 ct 
1478 -283 l  1526 -283 l  1526 0 l  1483 0 l  p ef
1593 0 m  1593 -283 l  1636 -283 l  1636 -243 l  1657 -274 1687 -289 1726 -289 ct 
1743 -289 1758 -286 1773 -280 ct 1787 -274 1797 -266 1804 -256 ct 1812 -246 1817 -234 1819 -220 ct 
1821 -211 1822 -196 1822 -174 ct 1822 0 l  1774 0 l  1774 -172 l  1774 -191 1772 -206 1768 -215 ct 
1765 -225 1758 -233 1749 -238 ct 1739 -244 1728 -247 1716 -247 ct 1695 -247 1678 -241 1663 -228 ct 
1648 -215 1641 -190 1641 -154 ct 1641 0 l  1593 0 l  p ef
1890 -335 m  1890 -390 l  1938 -390 l  1938 -335 l  1890 -335 l  p
1890 0 m  1890 -283 l  1938 -283 l  1938 0 l  1890 0 l  p ef
2006 0 m  2006 -390 l  2054 -390 l  2054 -168 l  2168 -283 l  2230 -283 l 
2122 -178 l  2241 0 l  2183 0 l  2088 -145 l  2054 -112 l  2054 0 l  2006 0 l 
p ef
2455 -35 m  2438 -20 2420 -9 2404 -3 ct 2387 3 2370 6 2351 6 ct 2319 6 2295 -2 2278 -17 ct 
2261 -32 2253 -51 2253 -75 ct 2253 -89 2256 -102 2263 -113 ct 2269 -124 2277 -134 2288 -141 ct 
2298 -147 2309 -153 2322 -156 ct 2332 -159 2346 -161 2365 -163 ct 2404 -168 2433 -174 2452 -180 ct 
2452 -186 2452 -191 2452 -192 ct 2452 -212 2447 -225 2438 -233 ct 2426 -244 2408 -249 2383 -249 ct 
2361 -249 2344 -245 2333 -237 ct 2322 -230 2314 -216 2309 -196 ct 2261 -202 l 
2265 -222 2272 -238 2282 -251 ct 2292 -263 2306 -272 2325 -279 ct 2343 -286 2365 -289 2389 -289 ct 
2413 -289 2433 -286 2448 -280 ct 2463 -275 2474 -268 2482 -259 ct 2489 -250 2494 -240 2497 -226 ct 
2498 -218 2499 -204 2499 -182 ct 2499 -119 l  2499 -75 2500 -46 2502 -34 ct 
2504 -22 2508 -11 2514 0 ct 2465 0 l  2460 -10 2456 -22 2455 -35 ct p
2452 -142 m  2434 -135 2408 -129 2372 -124 ct 2352 -121 2338 -118 2330 -115 ct 
2322 -111 2315 -106 2311 -99 ct 2306 -92 2304 -85 2304 -76 ct 2304 -64 2309 -53 2319 -45 ct 
2329 -36 2343 -32 2362 -32 ct 2381 -32 2397 -36 2412 -44 ct 2426 -52 2437 -63 2444 -77 ct 
2449 -88 2452 -104 2452 -125 ct 2452 -142 l  p ef
2749 -104 m  2796 -98 l  2791 -65 2778 -40 2757 -22 ct 2735 -3 2709 6 2678 6 ct 
2640 6 2609 -7 2585 -32 ct 2562 -57 2550 -93 2550 -140 ct 2550 -171 2555 -198 2565 -220 ct 
2575 -243 2591 -260 2611 -272 ct 2632 -283 2654 -289 2678 -289 ct 2709 -289 2734 -281 2754 -266 ct 
2773 -250 2786 -228 2791 -199 ct 2744 -193 l  2740 -212 2732 -226 2721 -236 ct 
2709 -245 2696 -250 2680 -250 ct 2656 -250 2636 -241 2621 -224 ct 2606 -207 2599 -179 2599 -142 ct 
2599 -104 2606 -76 2621 -59 ct 2635 -42 2654 -33 2678 -33 ct 2697 -33 2712 -39 2725 -50 ct 
2738 -62 2746 -80 2749 -104 ct p ef
2828 -335 m  2828 -390 l  2876 -390 l  2876 -335 l  2828 -335 l  p
2767 109 m  2776 68 l  2785 71 2793 72 2799 72 ct 2808 72 2816 69 2820 62 ct 
2825 56 2828 40 2828 14 ct 2828 -283 l  2876 -283 l  2876 15 l  2876 50 2871 74 2862 87 ct 
2851 105 2831 114 2805 114 ct 2792 114 2779 112 2767 109 ct p ef
2948 -335 m  2948 -390 l  2996 -390 l  2996 -335 l  2948 -335 l  p
2948 0 m  2948 -283 l  2996 -283 l  2996 0 l  2948 0 l  p ef
pom
0.996 c 6969 11052 m  4289 11052 l  4289 8842 l  9650 8842 l  9650 11052 l 
6969 11052 l  p ef
0.000 c 6969 11051 m  4288 11051 l  4288 8842 l  9649 8842 l  9649 11051 l 
6969 11051 l  pc
pum
5386 10130 t
40 0 m  40 -390 l  92 -390 l  92 -197 l  286 -390 l  356 -390 l  192 -232 l 
363 0 l  295 0 l  156 -197 l  92 -135 l  92 0 l  40 0 l  p ef
368 -142 m  368 -194 383 -232 412 -258 ct 436 -279 466 -289 501 -289 ct 540 -289 571 -276 596 -251 ct 
621 -225 633 -190 633 -145 ct 633 -109 628 -81 617 -60 ct 606 -39 590 -23 569 -11 ct 
548 0 525 6 501 6 ct 461 6 429 -7 405 -32 ct 380 -57 368 -94 368 -142 ct p
417 -141 m  417 -105 425 -78 441 -60 ct 457 -42 477 -33 501 -33 ct 525 -33 544 -42 560 -60 ct 
576 -78 584 -106 584 -143 ct 584 -178 576 -204 560 -222 ct 544 -240 524 -249 501 -249 ct 
477 -249 457 -240 441 -222 ct 425 -204 417 -177 417 -141 ct p ef
680 0 m  680 -283 l  723 -283 l  723 -242 l  732 -256 744 -268 758 -276 ct 
773 -285 790 -289 809 -289 ct 830 -289 847 -285 860 -276 ct 874 -267 883 -255 888 -239 ct 
911 -272 940 -289 976 -289 ct 1004 -289 1026 -281 1041 -266 ct 1056 -250 1064 -226 1064 -194 ct 
1064 0 l  1016 0 l  1016 -178 l  1016 -197 1014 -211 1011 -219 ct 1008 -227 1002 -234 994 -239 ct 
986 -244 976 -247 965 -247 ct 945 -247 929 -240 916 -227 ct 903 -214 896 -193 896 -164 ct 
896 0 l  848 0 l  848 -183 l  848 -205 844 -220 836 -231 ct 828 -242 816 -247 798 -247 ct 
784 -247 772 -243 761 -236 ct 749 -229 741 -219 736 -205 ct 730 -192 728 -172 728 -146 ct 
728 0 l  680 0 l  p ef
1120 108 m  1120 -283 l  1164 -283 l  1164 -245 l  1174 -260 1186 -271 1199 -278 ct 
1212 -285 1228 -289 1246 -289 ct 1270 -289 1292 -283 1310 -270 ct 1329 -258 1342 -241 1352 -218 ct 
1361 -195 1366 -171 1366 -144 ct 1366 -115 1361 -89 1350 -66 ct 1340 -43 1325 -25 1305 -12 ct 
1285 0 1264 6 1242 6 ct 1226 6 1212 3 1199 -4 ct 1187 -11 1176 -19 1168 -29 ct 
1168 108 l  1120 108 l  p
1163 -139 m  1163 -103 1170 -76 1185 -59 ct 1200 -42 1218 -33 1239 -33 ct 1260 -33 1279 -42 1294 -60 ct 
1309 -78 1317 -106 1317 -143 ct 1317 -179 1310 -206 1295 -224 ct 1280 -242 1262 -251 1241 -251 ct 
1221 -251 1203 -241 1187 -222 ct 1171 -203 1163 -176 1163 -139 ct p ef
1601 0 m  1601 -42 l  1579 -10 1549 6 1511 6 ct 1495 6 1479 3 1465 -4 ct 1450 -10 1440 -18 1433 -28 ct 
1426 -37 1421 -49 1418 -63 ct 1416 -73 1415 -87 1415 -108 ct 1415 -283 l  1463 -283 l 
1463 -126 l  1463 -101 1464 -84 1466 -75 ct 1469 -63 1475 -53 1485 -46 ct 1495 -39 1507 -35 1521 -35 ct 
1535 -35 1549 -39 1561 -46 ct 1574 -53 1583 -63 1588 -76 ct 1593 -89 1596 -107 1596 -131 ct 
1596 -283 l  1644 -283 l  1644 0 l  1601 0 l  p ef
1816 -43 m  1822 0 l  1808 3 1796 4 1786 4 ct 1768 4 1755 1 1745 -4 ct 1736 -10 1729 -17 1725 -26 ct 
1721 -35 1719 -54 1719 -83 ct 1719 -246 l  1684 -246 l  1684 -283 l  1719 -283 l 
1719 -353 l  1767 -382 l  1767 -283 l  1816 -283 l  1816 -246 l  1767 -246 l 
1767 -81 l  1767 -67 1768 -59 1770 -55 ct 1771 -51 1774 -48 1778 -45 ct 1782 -43 1787 -42 1795 -42 ct 
1800 -42 1807 -42 1816 -43 ct p ef
2051 -91 m  2099 -85 l  2092 -56 2077 -34 2056 -18 ct 2035 -2 2008 6 1975 6 ct 
1934 6 1901 -7 1877 -32 ct 1853 -58 1841 -93 1841 -139 ct 1841 -187 1853 -223 1878 -250 ct 
1902 -276 1934 -289 1973 -289 ct 2010 -289 2041 -276 2065 -250 ct 2089 -225 2101 -188 2101 -142 ct 
2101 -139 2101 -135 2101 -129 ct 1890 -129 l  1892 -98 1901 -74 1917 -58 ct 
1933 -41 1952 -33 1976 -33 ct 1994 -33 2009 -38 2022 -47 ct 2034 -56 2044 -71 2051 -91 ct 
p
1891 -168 m  2052 -168 l  2050 -192 2044 -210 2034 -222 ct 2018 -241 1998 -250 1973 -250 ct 
1951 -250 1932 -243 1916 -228 ct 1901 -213 1893 -193 1891 -168 ct p ef
2150 0 m  2150 -283 l  2193 -283 l  2193 -239 l  2204 -260 2214 -273 2223 -279 ct 
2232 -286 2242 -289 2253 -289 ct 2269 -289 2286 -284 2302 -274 ct 2285 -230 l 
2274 -236 2262 -239 2251 -239 ct 2241 -239 2232 -236 2223 -230 ct 2215 -223 2210 -215 2206 -203 ct 
2201 -186 2198 -168 2198 -148 ct 2198 0 l  2150 0 l  p ef
2479 0 m  2479 -390 l  2626 -390 l  2652 -390 2672 -389 2686 -386 ct 2705 -383 2721 -377 2734 -368 ct 
2747 -359 2757 -347 2765 -331 ct 2773 -314 2777 -297 2777 -277 ct 2777 -244 2766 -216 2745 -193 ct 
2724 -170 2686 -159 2631 -159 ct 2531 -159 l  2531 0 l  2479 0 l  p
2531 -205 m  2632 -205 l  2665 -205 2689 -211 2703 -224 ct 2717 -236 2724 -253 2724 -276 ct 
2724 -292 2720 -306 2712 -318 ct 2703 -329 2693 -337 2679 -341 ct 2670 -343 2654 -344 2631 -344 ct 
2531 -344 l  2531 -205 l  p ef
3107 -137 m  3159 -124 l  3148 -82 3129 -50 3101 -27 ct 3072 -5 3038 6 2997 6 ct 
2955 6 2921 -3 2895 -20 ct 2868 -37 2848 -62 2835 -94 ct 2821 -126 2814 -161 2814 -198 ct 
2814 -239 2822 -274 2837 -305 ct 2853 -335 2875 -358 2903 -373 ct 2932 -389 2964 -397 2998 -397 ct 
3037 -397 3070 -387 3096 -367 ct 3123 -347 3142 -320 3152 -284 ct 3101 -272 l 
3092 -300 3079 -321 3062 -334 ct 3044 -347 3023 -353 2997 -353 ct 2967 -353 2942 -346 2922 -331 ct 
2902 -317 2887 -298 2879 -274 ct 2871 -249 2867 -224 2867 -199 ct 2867 -166 2872 -137 2882 -112 ct 
2891 -87 2906 -69 2927 -56 ct 2947 -44 2969 -38 2993 -38 ct 3022 -38 3046 -46 3066 -63 ct 
3086 -80 3100 -104 3107 -137 ct p ef
pom
0.996 c 14475 15474 m  11794 15474 l  11794 13264 l  17155 13264 l  17155 15474 l 
14475 15474 l  p ef
0.000 c 14474 15473 m  11794 15473 l  11794 13264 l  17155 13264 l  17155 15473 l 
14474 15473 l  pc
pum
13757 14203 t
41 0 m  41 -390 l  118 -390 l  211 -114 l  219 -88 226 -69 230 -56 ct 234 -70 241 -91 251 -119 ct 
345 -390 l  414 -390 l  414 0 l  364 0 l  364 -326 l  250 0 l  203 0 l 
91 -331 l  91 0 l  41 0 l  p ef
449 -142 m  449 -194 464 -232 493 -258 ct 517 -279 547 -289 582 -289 ct 621 -289 652 -276 677 -251 ct 
702 -225 714 -190 714 -145 ct 714 -109 709 -81 698 -60 ct 687 -39 671 -23 650 -11 ct 
629 0 606 6 582 6 ct 542 6 510 -7 486 -32 ct 461 -57 449 -94 449 -142 ct p
498 -141 m  498 -105 506 -78 522 -60 ct 538 -42 558 -33 582 -33 ct 606 -33 625 -42 641 -60 ct 
657 -78 665 -106 665 -143 ct 665 -178 657 -204 641 -222 ct 625 -240 605 -249 582 -249 ct 
558 -249 538 -240 522 -222 ct 506 -204 498 -177 498 -141 ct p ef
946 0 m  946 -36 l  928 -8 901 6 866 6 ct 844 6 823 0 804 -13 ct 785 -25 770 -42 760 -65 ct 
749 -87 744 -112 744 -141 ct 744 -169 749 -195 758 -218 ct 768 -241 782 -258 801 -271 ct 
819 -283 841 -289 864 -289 ct 881 -289 896 -285 909 -278 ct 923 -271 934 -261 942 -250 ct 
942 -390 l  990 -390 l  990 0 l  946 0 l  p
793 -141 m  793 -105 801 -78 816 -60 ct 832 -42 850 -33 871 -33 ct 892 -33 910 -42 925 -59 ct 
940 -76 947 -102 947 -137 ct 947 -175 939 -204 924 -222 ct 909 -240 891 -249 869 -249 ct 
847 -249 829 -240 815 -223 ct 800 -206 793 -178 793 -141 ct p ef
1243 0 m  1243 -42 l  1221 -10 1191 6 1153 6 ct 1137 6 1121 3 1107 -4 ct 1092 -10 1082 -18 1075 -28 ct 
1068 -37 1063 -49 1060 -63 ct 1058 -73 1057 -87 1057 -108 ct 1057 -283 l  1105 -283 l 
1105 -126 l  1105 -101 1106 -84 1108 -75 ct 1111 -63 1117 -53 1127 -46 ct 1137 -39 1149 -35 1163 -35 ct 
1177 -35 1191 -39 1203 -46 ct 1216 -53 1225 -63 1230 -76 ct 1235 -89 1238 -107 1238 -131 ct 
1238 -283 l  1286 -283 l  1286 0 l  1243 0 l  p ef
1352 -153 m  1317 -124 l  1317 -166 l  1352 -195 l  1352 -390 l  1400 -390 l 
1400 -237 l  1435 -267 l  1435 -225 l  1400 -195 l  1400 0 l  1352 0 l 
1352 -153 l  p ef
pom
pum
13020 14901 t
88 0 m  2 -283 l  52 -283 l  97 -120 l  113 -59 l  114 -62 119 -81 128 -117 ct 
172 -283 l  222 -283 l  263 -119 l  277 -65 l  293 -120 l  343 -283 l 
390 -283 l  299 0 l  250 0 l  206 -169 l  196 -218 l  138 0 l  88 0 l 
p ef
402 108 m  396 64 l  407 67 416 68 424 68 ct 435 68 443 66 450 63 ct 456 59 462 54 466 48 ct 
469 43 474 31 481 12 ct 482 9 483 6 485 0 ct 376 -283 l  427 -283 l  488 -120 l 
495 -100 502 -78 508 -55 ct 514 -76 520 -97 528 -118 ct 588 -283 l  636 -283 l 
530 6 l  518 36 509 57 503 69 ct 494 84 484 96 473 103 ct 462 110 449 114 433 114 ct 
424 114 413 112 402 108 ct p ef
654 0 m  654 -390 l  702 -390 l  702 -168 l  816 -283 l  878 -283 l  770 -178 l 
889 0 l  831 0 l  736 -145 l  702 -112 l  702 0 l  654 0 l  p ef
898 -142 m  898 -194 913 -232 942 -258 ct 966 -279 996 -289 1031 -289 ct 1070 -289 1101 -276 1126 -251 ct 
1151 -225 1163 -190 1163 -145 ct 1163 -109 1158 -81 1147 -60 ct 1136 -39 1120 -23 1099 -11 ct 
1078 0 1055 6 1031 6 ct 991 6 959 -7 935 -32 ct 910 -57 898 -94 898 -142 ct p
947 -141 m  947 -105 955 -78 971 -60 ct 987 -42 1007 -33 1031 -33 ct 1055 -33 1074 -42 1090 -60 ct 
1106 -78 1114 -106 1114 -143 ct 1114 -178 1106 -204 1090 -222 ct 1074 -240 1054 -249 1031 -249 ct 
1007 -249 987 -240 971 -222 ct 955 -204 947 -177 947 -141 ct p ef
1211 0 m  1211 -283 l  1254 -283 l  1254 -243 l  1275 -274 1305 -289 1344 -289 ct 
1361 -289 1376 -286 1391 -280 ct 1405 -274 1415 -266 1422 -256 ct 1430 -246 1435 -234 1437 -220 ct 
1439 -211 1440 -196 1440 -174 ct 1440 0 l  1392 0 l  1392 -172 l  1392 -191 1390 -206 1386 -215 ct 
1383 -225 1376 -233 1367 -238 ct 1357 -244 1346 -247 1334 -247 ct 1313 -247 1296 -241 1281 -228 ct 
1266 -215 1259 -190 1259 -154 ct 1259 0 l  1211 0 l  p ef
1693 -35 m  1676 -20 1658 -9 1642 -3 ct 1625 3 1608 6 1589 6 ct 1557 6 1533 -2 1516 -17 ct 
1499 -32 1491 -51 1491 -75 ct 1491 -89 1494 -102 1501 -113 ct 1507 -124 1515 -134 1526 -141 ct 
1536 -147 1547 -153 1560 -156 ct 1570 -159 1584 -161 1603 -163 ct 1642 -168 1671 -174 1690 -180 ct 
1690 -186 1690 -191 1690 -192 ct 1690 -212 1685 -225 1676 -233 ct 1664 -244 1646 -249 1621 -249 ct 
1599 -249 1582 -245 1571 -237 ct 1560 -230 1552 -216 1547 -196 ct 1499 -202 l 
1503 -222 1510 -238 1520 -251 ct 1530 -263 1544 -272 1563 -279 ct 1581 -286 1603 -289 1627 -289 ct 
1651 -289 1671 -286 1686 -280 ct 1701 -275 1712 -268 1720 -259 ct 1727 -250 1732 -240 1735 -226 ct 
1736 -218 1737 -204 1737 -182 ct 1737 -119 l  1737 -75 1738 -46 1740 -34 ct 
1742 -22 1746 -11 1752 0 ct 1703 0 l  1698 -10 1694 -22 1693 -35 ct p
1690 -142 m  1672 -135 1646 -129 1610 -124 ct 1590 -121 1576 -118 1568 -115 ct 
1560 -111 1553 -106 1549 -99 ct 1544 -92 1542 -85 1542 -76 ct 1542 -64 1547 -53 1557 -45 ct 
1567 -36 1581 -32 1600 -32 ct 1619 -32 1635 -36 1650 -44 ct 1664 -52 1675 -63 1682 -77 ct 
1687 -88 1690 -104 1690 -125 ct 1690 -142 l  p ef
1854 0 m  1768 -283 l  1818 -283 l  1863 -120 l  1879 -59 l  1880 -62 1885 -81 1894 -117 ct 
1938 -283 l  1988 -283 l  2029 -119 l  2043 -65 l  2059 -120 l  2109 -283 l 
2156 -283 l  2065 0 l  2016 0 l  1972 -169 l  1962 -218 l  1904 0 l  1854 0 l 
p ef
2355 -104 m  2402 -98 l  2397 -65 2384 -40 2363 -22 ct 2341 -3 2315 6 2284 6 ct 
2246 6 2215 -7 2191 -32 ct 2168 -57 2156 -93 2156 -140 ct 2156 -171 2161 -198 2171 -220 ct 
2181 -243 2197 -260 2217 -272 ct 2238 -283 2260 -289 2284 -289 ct 2315 -289 2340 -281 2360 -266 ct 
2379 -250 2392 -228 2397 -199 ct 2350 -193 l  2346 -212 2338 -226 2327 -236 ct 
2315 -245 2302 -250 2286 -250 ct 2262 -250 2242 -241 2227 -224 ct 2212 -207 2205 -179 2205 -142 ct 
2205 -104 2212 -76 2227 -59 ct 2241 -42 2260 -33 2284 -33 ct 2303 -33 2318 -39 2331 -50 ct 
2344 -62 2352 -80 2355 -104 ct p ef
2407 0 m  2407 -39 l  2586 -247 l  2565 -245 2547 -244 2532 -244 ct 2418 -244 l 
2418 -283 l  2648 -283 l  2648 -252 l  2495 -72 l  2465 -38 l  2486 -40 2507 -41 2525 -41 ct 
2657 -41 l  2657 0 l  2407 0 l  p ef
2694 108 m  2688 64 l  2699 67 2708 68 2716 68 ct 2727 68 2735 66 2742 63 ct 
2748 59 2754 54 2758 48 ct 2761 43 2766 31 2773 12 ct 2774 9 2775 6 2777 0 ct 2668 -283 l 
2719 -283 l  2780 -120 l  2787 -100 2794 -78 2800 -55 ct 2806 -76 2812 -97 2820 -118 ct 
2880 -283 l  2928 -283 l  2822 6 l  2810 36 2801 57 2795 69 ct 2786 84 2776 96 2765 103 ct 
2754 110 2741 114 2725 114 ct 2716 114 2705 112 2694 108 ct p ef
pom
39 lw 17697 9947 m  18758 9946 l  ps
17155 9947 m  17721 10142 l  17721 9753 l  17155 9947 l  p ef
19300 9946 m  18734 9752 l  18734 10141 l  19300 9946 l  p ef
14475 11053 m  14475 12706 l  ps
14475 13264 m  14663 12681 l  14286 12681 l  14475 13264 l  p ef
14475 6630 m  14475 8285 l  ps
14475 8843 m  14663 8260 l  14286 8260 l  14475 8843 l  p ef
10191 9946 m  11253 9947 l  ps
9650 9946 m  10216 10141 l  10216 9752 l  9650 9946 l  p ef
11794 9947 m  11228 9753 l  11228 10142 l  11794 9947 l  p ef
gr
gs
0 0 m 29699 0 l 29699 20999 l 0 20999 l 0 0 l eoclip newpath
gr
gr
0 21000 t 
pom
count op_count sub {pop} repeat countdictstack dict_count sub {end} repeat b4_inc_state restore
%%PageTrailer
%%Trailer
%%EOF
