\beamer@sectionintoc {1}{Przedmiot pracy}{2}{0}{1}
\beamer@sectionintoc {2}{Uk\IeC {\l }ad elektroniczny}{6}{0}{2}
\beamer@sectionintoc {3}{Elementy budowy stanowiska}{7}{0}{3}
\beamer@sectionintoc {4}{Podsumowanie}{17}{0}{4}
